<?xml version="1.0" encoding="utf-8"?>
<!-- Generator: Adobe Illustrator 18.0.0, SVG Export Plug-In . SVG Version: 6.00 Build 0)  -->
<!DOCTYPE svg PUBLIC "-//W3C//DTD SVG 1.1//EN" "http://www.w3.org/Graphics/SVG/1.1/DTD/svg11.dtd">
<svg version="1.1" id="Layer_1" xmlns="http://www.w3.org/2000/svg" xmlns:xlink="http://www.w3.org/1999/xlink" x="0px" y="0px"
	 viewBox="13.3 9.3 612.6 147.3" enable-background="new 13.3 9.3 612.6 147.3" xml:space="preserve">
<g>
	<path fill="#E04949" d="M69.8,11.8c11.9-3.4,24.6-2.9,36.6-0.8c-0.3,6-1.7,11.9-2.5,17.9c-9-0.1-18-0.2-27,0.2
		c-4.3,26.2-8.9,52.4-13.4,78.5c-2.5,14.1-4.5,28.2-7.6,42.2c-0.3-0.4-1-1.1-1.3-1.4c-12.7-6.2-23.6-16.2-30.9-28.3l-0.3,0
		c-5.3-9.7-9.3-20.3-9.7-31.4c-2.1-18.9,4.8-38.3,17.1-52.7C41.1,24.3,54.7,15.5,69.8,11.8z"/>
	<path fill="#E04949" d="M117.4,14.6c18.2,7.1,34.2,21.1,41.9,39.2c5.2,11.1,7.2,23.5,6.4,35.7c-1.9,22.4-15,43.4-34.1,55.3
		c-11.2,7-24.1,11.2-37.3,11.7c-9.1,0.6-18.2-0.8-27-2.9c0.1-5.6,1.6-11.1,1.8-16.7c9.3-0.2,18.6,0,27.8,0.1
		c5.4-31.6,10.5-63.2,15.9-94.8C114.3,32.9,116.3,23.8,117.4,14.6z"/>
	<path fill="#E04949" d="M195.4,50c6.4-0.4,12.8,0,19.1-0.1c-3.8,22.6-7.7,45.2-11.4,67.8c-6.4,0.1-12.7-0.1-19-0.5
		c2.3-12.9,4.4-25.9,6.6-38.8C192.2,69,194.2,59.5,195.4,50z"/>
	<path fill="#E04949" d="M223,50c6,0.2,12.1-0.1,18.1,0.2c2.8,13.2,4.9,26.5,8.3,39.6c0.8-8.8,1.4-17.7,2.7-26.5
		c0.8-4.4,1.6-8.7,2.1-13.1c6.1,0.3,12.3-0.2,18.4,0.5c-4,22.5-7.6,45-11.4,67.5c-6.1,0-12.3-0.3-18.4-0.1c-0.8-3.1-1.3-6.3-1.8-9.5
		c-0.8-5.7-2.5-11.3-3.4-17c-0.6-3.7-1.4-7.4-2.5-11c-1.3,12.6-3.1,25.1-5.6,37.5c-6-0.2-12-0.2-18-0.1
		C215.2,95.2,219.3,72.7,223,50z"/>
	<g>
		<path fill="#E04949" d="M281,50.6c6.5,0.2,13-0.2,19.6,0.3c6.3,0.6,12.8,2.7,17.4,7.2c4.7,4.8,6.7,11.8,6.8,18.4
			c-0.4,9.4-2.7,18.8-7.5,26.9c-5.5,8.8-15.6,13.9-25.7,14.7c-7.3,0.4-14.6,0-21.9,0.1c3.3-18.6,6.2-37.2,9.6-55.7
			C279.9,58.5,280.4,54.5,281,50.6z M297.4,67.3c-1.9,11.6-4,23.2-5.6,34.9c2.4-0.6,4.7-1.5,6.9-2.6c5.3-7.7,7.9-17.6,5.6-26.8
			C303.9,69.5,300.4,67.6,297.4,67.3z"/>
	</g>
	<g>
		<path fill="#E04949" d="M348,50.8c7.8,0.2,15.5,0.2,23.3,0.2c0.9,8.5,0.9,17,1.5,25.6c0.8,11,0.9,22,1.8,32.9
			c0.2,3.1,0.2,6.3,0.4,9.4c-6.5,0-13.1,0.1-19.6-0.1c-0.1-2.9-0.2-5.8-0.2-8.7c-4.2-0.3-8.5-0.3-12.7,0c-1,2.8-2,5.7-2.9,8.6
			c-6.6-0.1-13.2,0.1-19.8-0.3c6-13.1,11.1-26.6,17-39.7l0-0.6c0.7-1.4,1.2-2.9,2-4.2C341.6,66.1,345.3,58.6,348,50.8z M355.8,69.2
			c-1.9,9.1-5.7,17.6-8.1,26.5c2.5,0.1,5,0.1,7.6,0.1c0.8-8.9,1-17.9,1-26.8L355.8,69.2z"/>
	</g>
	<path fill="#E04949" d="M389.9,51.2c6.2,0.1,12.4,0.2,18.7,0.1c-2,17.4-5.9,34.4-8,51.8c4.6,0.2,9.3,0.2,13.9,0.6
		c-0.9,5.1-1.8,10.3-2.7,15.4c-11.1,0.1-22.1-0.2-33.2-0.1c1.7-11.3,4.1-22.4,5.5-33.8C386.1,73.8,388.1,62.5,389.9,51.2z"/>
	<path fill="#E04949" d="M424.5,51.7c5-0.5,10-0.1,15,0c8.5,0,17,0,25.5,0.2c-1,5.4-1.9,10.8-2.8,16.3c-3.6,0-7.2,0-10.8,0
		c-3.1,17-5.9,34-8.7,51c-6.3,0-12.6,0-19,0c2.7-17,5.9-34,8.4-51.1c-3.4-0.2-6.8-0.2-10.1-0.3C422.8,62.4,423.9,57.1,424.5,51.7z"
		/>
	<path fill="#E04949" d="M473.9,51.9c7.8-0.1,15.7,0.2,23.5,0.1c0,11.5-0.4,23.1-0.2,34.6c2.6-6.4,4.3-13.1,6.9-19.4
		c2-4.9,3.6-9.9,5.4-14.9c7.8-0.2,15.6,0.1,23.4-0.1c-1.4,22.6-2.9,45.3-4.7,67.9c-6.5-0.2-13-0.2-19.5-0.1
		c1.1-9.9,2.8-19.8,3.6-29.8l0.5-0.3c0.2-3.5,0.4-7,0.5-10.5c-4.5,13.6-9.5,26.9-14.3,40.3c-5.1,0-10.1,0-15.2,0
		c-0.6-13.3,0.6-26.6-0.2-39.8c-0.7,2.2-1.2,4.4-1.7,6.7c-1.8,11-5,21.8-7,32.8c-6.8-0.1-13.7-0.1-20.5-0.1
		C461,96.9,467.3,74.3,473.9,51.9z"/>
	<path fill="#E04949" d="M606,53.2c6.5-1.5,13.5-2.2,20,0c-1.2,6.5-2.2,13-3.3,19.6c-2.4-4.3-8-4.4-12.3-3.6
		c-5.1,2.1-8.2,7.3-9.8,12.5c-2,6.3-2.8,13.4,0.3,19.4c1,2.3,3.5,2.9,5.5,4c4.5,0.2,8.5-1.7,12.2-4.1c-1,6-2.7,11.9-3.9,17.9
		c-1.6,1.2-3.9,1.4-5.8,2c-5.7,0.7-11.8,0.9-17-1.7c-4.5-1.8-7.8-5.8-10-10c-2.4-4.8-2.8-10.3-2.6-15.6c0.5-11.1,4.3-22.2,11.7-30.5
		C595,58.5,600.5,55.5,606,53.2z"/>
	<path fill="#E04949" d="M544,52.3c11.7-0.2,23.5,0.5,35.2,0.4c-1,5.2-1.7,10.5-2.7,15.6c-5.4,0-10.8-0.1-16.2,0
		c-0.5,3.2-0.9,6.4-1.4,9.6c4.8,0.3,9.6,0.3,14.3,0.4c-0.9,5.2-1.8,10.3-2.7,15.5c-4.9-0.1-9.8,0-14.7,0.2c-0.5,3.4-1,6.7-1.4,10.1
		c5.3,0.6,10.7-0.3,16,0.8c-1,5.1-1.7,10.2-2.6,15.3c-11.7,0-23.5-0.1-35.2-0.2C536.3,97.4,540.4,74.9,544,52.3z"/>
</g>
</svg>
