<?xml version="1.0" encoding="utf-8"?>
<!-- Generator: Adobe Illustrator 18.0.0, SVG Export Plug-In . SVG Version: 6.00 Build 0)  -->
<!DOCTYPE svg PUBLIC "-//W3C//DTD SVG 1.1//EN" "http://www.w3.org/Graphics/SVG/1.1/DTD/svg11.dtd">
<svg version="1.1" id="Capa_1" xmlns="http://www.w3.org/2000/svg" xmlns:xlink="http://www.w3.org/1999/xlink" x="0px" y="0px"
	 viewBox="60.7 38.3 1884.3 440.5" enable-background="new 60.7 38.3 1884.3 440.5" xml:space="preserve">
<g id="_x23_ffffffff">
</g>
<g id="_x23_f76f1aff">
	<path fill="#F76F1A" d="M517.6,38.3c49.2,28,98.3,56.1,147.4,84.2c-30.8,4.5-61.7,8.6-92.5,13.2c-2.4,1.8-4.1,4.3-6.2,6.5
		c-27.5,30.2-55,60.4-82.6,90.5c-1.9,1.6-1.1,4.2-1.4,6.3c-0.9,17-1.6,34-2.2,51.1c-6.4-10.7-12.5-21.5-18.9-32.1
		c-27.9,30-56.1,59.8-84,89.8C431.9,391.5,486.6,435,541,478.9c-2,0-4.2,0.2-6-0.9c-72.3-34.4-144.8-68.6-217.1-103.1
		c6.4-31.6,12.5-63.3,19.2-94.9c-19.5-9.6-39.4-18.7-59-28.1c-70.9-33.5-141.7-67-212.5-100.5c-1.7-0.8-3.3-1.6-4.9-2.5
		c131.8,0.6,263.6,1,395.4,1.6c1.5,0,3.2,0.2,4.5-0.9c31.5-18.9,63-37.9,94.5-56.8C542.7,74.6,529.8,56.7,517.6,38.3z"/>
</g>
<g id="_x23_000000ff">
	<path d="M648,201c28.1-17,61.1-25.9,94-25c21.3,0.8,42.8,4.7,62.4,13.4c-0.1,22.3,0,44.6,0,66.9c-12.9-11.4-28.8-19.4-45.9-22.2
		c-20.2-3.5-41.1-0.1-60.1,7.1c-12.8,4.6-23.6,13.7-31.2,24.8c-8.6,12.6-13.3,27.7-14,42.8c-0.6,17.5,4.6,35.4,15.7,49.1
		c11.4,14.9,28,26.2,46.6,29.7c17.7,3.8,36,1,53-4.4c12.2-4,24-9.2,34.8-16.1c-0.3,22.5-0.7,45-1.6,67.4
		c-37.7,13-79.5,15.2-117.8,3.5c-32.6-9.9-62.7-29.6-82.4-57.7c-12.4-17.6-20.1-38.8-20.5-60.4c-1.2-30.1,8.1-60.5,26.2-84.6
		C618,221,632.8,210.3,648,201z"/>
	<path d="M1714.8,413.6c0.3-79.2,0.5-158.3,0.8-237.5c56.3,48.4,112.8,96.6,169.3,144.9c0.1-36.1,0.5-72.2,0.4-108.2
		c19.9,0,39.8,0,59.7,0c-0.3,78.7-0.4,157.4-0.6,236.2c-56.7-51-113.4-102-170.3-152.8c0.2,39.2,0.3,78.5,0.4,117.7
		C1754.5,413.6,1734.6,413.9,1714.8,413.6z"/>
	<path d="M939.5,203.7c17.1-2.2,34.5,0.5,51,4.9c27,7.7,52.9,22.1,70.2,44.6c8.9,11.6,14.8,25.3,17.3,39.7c2.6,17.6,1,35.9-4.3,52.9
		c-5.8,18.8-18,35.5-34.2,46.7c-13.4,9.3-28.8,15.3-44.6,19c-18.3,4.4-37.2,5.4-56,5.5c-14.8-0.9-29.2-4.8-42.9-10.1
		c-16.6-6.6-32.4-16-45-28.9c-11.6-11.8-20.1-26.8-23.9-42.9c-4.3-19.2-3.7-39.7,3-58.2c6.6-18.1,19.3-33.7,34.8-45
		C886.8,216.2,913,207,939.5,203.7 M940.5,253.7c-18.1,2.9-35.6,12.3-46.1,27.7c-7.4,10.5-10.5,23.9-8.7,36.6
		c1.5,14.8,9.9,28.5,21.9,37.2c12.5,9.3,28.2,13.1,43.5,14c14.5,0.9,29.3-3.4,41.1-12.1c11.5-8.5,20.6-20.5,25.1-34.3
		c4-11.8,2.3-25.1-3-36.2c-5.6-11.7-16-20.7-27.6-26.2C972.4,253.8,956.1,251,940.5,253.7z"/>
	<path d="M1289.7,211.1c20.9-0.4,41.7-0.3,62.6-0.5c18.8,35.1,37.2,70.4,55.9,105.5c4.1-5.8,6.9-12.4,10.5-18.5
		c15.7-28.7,31.6-57.3,47.2-86c21.3,0,42.5,0.1,63.8,0.2c-41.2,76.5-82.7,152.9-123.8,229.4c-3.4-5.1-5.6-11-8.6-16.4
		C1361.4,353.7,1325.8,282.3,1289.7,211.1z"/>
	<path d="M1545,211.4c44,0.1,88.1-0.1,132.2,0.1c-0.1,13.1-0.1,26.3,0,39.4c-0.4,1.1,0.9,4-1.2,3.6c-24,0-48-0.2-72.1-0.2
		c0.3,12.1,0.4,24.2,0.4,36.3c22.8,0,45.6,0,68.4,0c-0.3,14.3-0.4,28.6-0.8,42.9c-22.4,0-44.8,0-67.2,0c-0.1,12.5-0.2,25.1-0.4,37.6
		c23.7,0.1,47.4-0.3,71.1-0.4c0.1,14,0.1,28,0.2,42.1c-43.5,0-87.1,0-130.6,0C1544.9,345.7,1544.8,278.6,1545,211.4z"/>
	<path d="M1109.3,412.9c0-67.1,0-134.2,0-201.3c30.6,0,61.1,0,91.7,0c17.5-0.3,35.5,2.7,50.8,11.5c8.2,4.9,15.3,11.8,19.7,20.3
		c4.6,8.4,6.3,18.1,6.7,27.6c0.2,11.4-2.3,23.1-8.7,32.7c-9.3,14.4-25.1,23.7-41.6,27.4c23.4,27.4,47,54.6,70.6,81.8
		c-24.4-0.1-48.7-0.3-73.1-0.3c-19.4-25.8-38.9-51.6-58.3-77.4c0.2,26.1,0.3,52.1,0.4,78.1C1148.2,413.1,1128.8,413.3,1109.3,412.9
		 M1169.2,250.8c-0.3,17.2-0.8,34.5-1.1,51.7c6.8,0.5,13.6,0.4,20.4-0.7c8.4-1.2,17.2-3.8,23.4-10c6.5-6.6,7.7-17.3,4-25.6
		c-3.1-7.4-10.5-12-18-14C1188.5,249.7,1178.7,249.5,1169.2,250.8z"/>
</g>
</svg>
