<?xml version="1.0" encoding="utf-8"?>
<!-- Generator: Adobe Illustrator 18.0.0, SVG Export Plug-In . SVG Version: 6.00 Build 0)  -->
<!DOCTYPE svg PUBLIC "-//W3C//DTD SVG 1.1//EN" "http://www.w3.org/Graphics/SVG/1.1/DTD/svg11.dtd">
<svg version="1.1" id="Layer_1" xmlns="http://www.w3.org/2000/svg" xmlns:xlink="http://www.w3.org/1999/xlink" x="0px" y="0px"
	 viewBox="0 0 553 273" enable-background="new 0 0 553 273" xml:space="preserve">
<g>
	<g>
		<path fill="#FFFFFF" d="M525.8,19.3c5.9-2.7,13.4,1.4,14.7,7.7c2.3,7.5-5.8,15.6-13.3,13.2c-5.4-1.2-9.3-6.9-8.4-12.3
			C519.4,24.1,522.1,20.6,525.8,19.3z M524.2,22c0,5,0,10,0,15c0.7,0,2.2,0,2.9,0c0-2.2,0-4.4,0-6.5c4-0.7,4.1,4.3,6.2,6.5
			c0.8,0,2.5,0.1,3.3,0.2c-1.1-2.1-2.3-4.1-3.5-6.2c4.1-0.2,5.3-5.8,2.1-8C531.8,21.5,527.8,22.1,524.2,22z"/>
	</g>
	<path fill="#FFFFFF" d="M527.1,24.3c2.4,0.4,7.3-1.1,7.1,2.7c-1.2,2.5-4.8,1.3-7.1,1.7C527.1,27.6,527.1,25.4,527.1,24.3z"/>
	<path fill="#FFFFFF" d="M26.8,229.2c3-1.7,7.2-0.6,8.9,2.5c1.7,3.1,1.8,6.9,1.8,10.4c-0.2,3.2-0.4,6.8-2.8,9.1
		c-1.9,2.2-5.2,2.2-7.7,1.2c-4-2.3-4.3-7.4-4.4-11.4C22.6,236.8,22.8,231.5,26.8,229.2z"/>
	<path fill="#FFFFFF" d="M254.8,240.4c0.6-2.6,1-6.8,4.6-6.4c3.1,0.4,3,4.1,3.6,6.4C260.3,240.4,257.5,240.4,254.8,240.4z"/>
	<path fill="#FFFFFF" d="M354.5,240.4c0.2-2.5,0.7-6.4,4-6.3c3.3-0.1,3.7,3.9,4,6.4C359.8,240.4,357.2,240.4,354.5,240.4z"/>
	<path fill="#FFFFFF" d="M477.5,240.4c0.2-2.5,0.7-6.4,4-6.4c3.3-0.1,3.7,3.9,4,6.3C482.8,240.4,480.2,240.4,477.5,240.4z"/>
</g>
<g>
	<g>
		<path fill="#091F3E" d="M525.8,16.5c7-2.4,15.3,2.3,17.2,9.4c2.2,7-2.4,15.1-9.6,16.9c-7.8,2.4-16.7-3.7-17.2-11.8
			C515.4,24.6,519.7,18.2,525.8,16.5z M525.8,19.3c-3.7,1.4-6.3,4.8-6.9,8.6c-0.9,5.4,3,11.1,8.4,12.3c7.5,2.3,15.6-5.7,13.3-13.2
			C539.2,20.7,531.7,16.6,525.8,19.3z"/>
	</g>
	<g>
		<path fill="#091F3E" d="M524.2,22c3.7,0.1,7.6-0.5,11.1,0.9c3.2,2.1,2,7.8-2.1,8c1.2,2,2.4,4.1,3.5,6.2c-0.8,0-2.5-0.1-3.3-0.2
			c-2.2-2.2-2.2-7.2-6.2-6.5c0,2.2,0,4.4,0,6.5c-0.7,0-2.2,0-2.9,0C524.1,32,524.1,27,524.2,22z M527.1,24.3c0,1.1,0,3.3,0,4.4
			c2.3-0.4,5.9,0.9,7.1-1.7C534.4,23.2,529.5,24.7,527.1,24.3z"/>
	</g>
	<path fill="#091F3E" d="M94,38.4c18.7,0,37.5,0,56.2,0c25.4,48,51,95.9,76.3,144c-16.1,0-32.2,0-48.3,0c-4.6-8-9.2-16-13.8-24
		c-26.4,0.1-52.8,0-79.1,0c1.3-2.5,2.7-4.9,4.1-7.3c21.5-1.3,43-3,64.5-4.4c-2.4-0.6-4.9-0.6-7.4-0.6c-18.2,0-36.4,0-54.6,0
		c1.2-2.4,2.5-4.8,3.7-7.2c15.7-1.5,31.3-2.6,47-4c3.8-0.3,7.8-0.1,11.4-1.7c-18.4,0.5-36.7,0.1-55.1,0.3c1.9-3.2,3.8-6.4,5.7-9.6
		c14.8,0,29.6,0,44.4,0c-9.1-17-18.4-33.9-27.6-50.9c-19.5,36.4-39,72.9-58.5,109.4c-16,0-32,0-48.1,0C41.1,134.4,67.6,86.4,94,38.4
		z"/>
	<path fill="#091F3E" d="M167.4,38.4c15.3,0.2,30.5-0.1,45.8,0.1c1.6,0.9,2.4,2.8,3.6,4.1c13.6,17.6,27.1,35.3,40.8,52.8
		c5.4-5.4,10.6-11,15.9-16.5c17.4,0,34.9,0,52.3,0c-15,17.3-29.9,34.6-44.7,51.9c0,17.2,0,34.3,0,51.5c-14.7-0.1-29.3,0-44,0
		c-0.1-17.3,0.2-34.5-0.2-51.8C214,99.8,190.7,69.1,167.4,38.4z"/>
	<path fill="#091F3E" d="M313.9,38.5c44.9-0.2,89.8,0,134.6-0.1c16.3,0,33-0.5,48.6,5.2c8.4,3,16.1,8.5,20.5,16.4
		c5.6,9.6,6.4,21.1,6.1,32c-0.2,13-0.2,26-0.2,39c0,11.8-0.7,24.4-7.4,34.6c-5.6,8.7-15.6,13.4-25.5,15.2c-9.2,2-18.7,1.4-28.1,1.5
		c-42.9,0-85.8,0-128.6,0c0-34.5,0-68.9,0-103.4c14.6,0,29.3,0,43.9,0c0,22.8,0,45.6,0,68.4c25.2,0,50.5,0,75.7,0
		c7-0.3,14.7-1.4,20-6.4c4.9-4.9,6.1-12.3,6-19c0-8.7,0.1-17.4,0-26.1c-0.1-6.6-3.3-13.4-9-16.9c-6.5-4.1-14.5-5-22-5
		c-56.6,0-113.3,0-169.9,0c3.1-3.1,6.1-6.2,9.4-9.2c23.2-1.3,46.5-2.4,69.7-3.6c7.4-1,15.1,0.3,22.3-1.8c-29.3,0-58.6,0-87.9,0
		c3.2-2.3,5.4-6.3,9.3-7.2c21.7-1.3,43.5-2.6,65.2-4c4.2-0.8,8.8,0.4,12.8-1.4c-24.7-0.5-49.4-0.1-74.1-0.2
		C308.3,44,310.7,40.8,313.9,38.5z"/>
</g>
<g>
	<path fill="#E31E1B" d="M290.5,223.4c2.4,0,4.9,0,7.3,0c-0.3,10.9-0.3,21.7,0,32.6c-2.5,0-4.9,0-7.4,0
		C290.6,245.1,290.4,234.3,290.5,223.4z"/>
	<path fill="#E31E1B" d="M319.2,223.4c2.5,0,4.9,0,7.4,0c-0.2,10.9-0.2,21.7,0,32.6c-2.5,0-4.9,0-7.4,0
		C319.4,245.1,319.4,234.3,319.2,223.4z"/>
	<g>
		<path fill="#E31E1B" d="M28.6,225.2c5.4-0.5,11.6,1.3,14.7,6.1c2.7,4.6,2.8,10.4,1.4,15.5c-1.2,4.8-5.5,8.3-10.3,9.1
			c-5.9,1.1-13.3,0.5-17.1-4.9c-3.6-5.6-3.9-13.2-0.9-19.1C18.7,227.5,23.8,225.4,28.6,225.2z M26.8,229.2c-4,2.3-4.3,7.6-4.3,11.7
			c0,4.1,0.4,9.2,4.4,11.4c2.5,1,5.8,0.9,7.7-1.2c2.4-2.3,2.7-5.9,2.8-9.1c0-3.5,0-7.2-1.8-10.4C34.1,228.7,29.8,227.5,26.8,229.2z"
			/>
	</g>
	<path fill="#E31E1B" d="M66.3,225.6c5.8,0,11.6,0,17.4,0c0,0.9,0,2.6,0,3.4c-3.2-0.1-6.4-0.1-9.6,0c0,3.3,0,6.5,0,9.8
		c3.2,0,6.4,0,9.6,0c0,0.9,0,2.6,0,3.4c-3.2-0.1-6.3-0.1-9.5-0.1c-0.1,3.4-0.1,6.9-0.1,10.3c3.2,0,6.4,0,9.6-0.1c0,0.9,0,2.8,0,3.7
		c-5.8,0-11.6,0-17.4,0C66.4,245.9,66.3,235.8,66.3,225.6z"/>
	<path fill="#E31E1B" d="M135.2,225.6c5.8,0,11.7,0,17.5,0c0,0.9,0,2.6,0,3.4c-3.3-0.1-6.5-0.1-9.8-0.1c0,3.3,0,6.5,0,9.8
		c3.3,0,6.5,0,9.8,0c0,0.9,0,2.6,0,3.4c-3.3-0.1-6.5-0.1-9.8-0.1c0,3.4,0,6.8,0,10.2c3.3,0,6.6,0,9.8-0.1c0,0.9,0,2.8-0.1,3.7
		c-5.8,0-11.6,0-17.4,0C135.4,245.9,135.4,235.8,135.2,225.6z"/>
	<path fill="#E31E1B" d="M513.8,225.6c2.6,0.1,5.3,0.1,8,0c-0.5,7-0.9,14-1.2,21c-1.9,0-3.8,0-5.6,0
		C514.2,239.6,514.4,232.6,513.8,225.6z"/>
	<path fill="#E31E1B" d="M216.5,231.9c3.8-1.8,8.1-1.1,12,0c0,1.5,0,3.1,0,4.6c-2.2-1.4-4.8-3.1-7.5-2c-3.5,1.8-4.1,6.1-4.1,9.6
		c0.3,3.1,1,6.9,4.1,8.4c2.7,1.1,5.3-0.7,7.6-2c0,1.5,0,2.9,0,4.4c-3.9,1.2-8.3,2.1-12.2,0.5C206.9,251.6,207.2,235.7,216.5,231.9z"
		/>
	<g>
		<path fill="#E31E1B" d="M249,236.6c2.9-6.1,11.6-7.5,16.9-4c3.6,2.4,4.1,7,4.6,11c-5.3,0-10.6,0-15.9,0c0.3,3.1,0.6,6.8,3.4,8.7
			c3.5,1.7,7.6,0.2,10.3-2.2c0.2,1.4,0.5,2.8,0.7,4.2c-5.9,2.6-13.6,3.2-18.6-1.5C246.6,248.5,246.7,241.7,249,236.6z M254.8,240.4
			c2.7,0,5.5,0,8.2,0c-0.6-2.3-0.5-6-3.6-6.4C255.8,233.6,255.4,237.9,254.8,240.4z"/>
	</g>
	<g>
		<path fill="#E31E1B" d="M348,237.8c2.5-7.7,14-9.6,19.2-3.6c2.3,2.6,2.5,6.1,2.8,9.3c-5.2,0-10.4,0-15.6,0
			c0.2,3.2,0.4,7.1,3.5,8.8c3.5,1.5,7.3,0.1,10-2.2c0.3,1.3,0.6,2.7,0.9,4c-5.4,2.5-12.3,3.2-17.4-0.3
			C346.5,250.3,346.3,243.2,348,237.8z M354.5,240.4c2.6,0,5.3,0,8,0c-0.3-2.4-0.7-6.5-4-6.4C355.2,234,354.8,237.9,354.5,240.4z"/>
	</g>
	<path fill="#E31E1B" d="M396.9,233.8c2.8-2.4,6.7-4,10.3-2.5c2.5,0.7,4,3,4.1,5.5c0.4,6.4,0,12.8,0.2,19.2c-2.5,0-4.9,0-7.4,0
		c0.2-5.9,0.3-11.9,0-17.9c-0.5-3.6-6.9-2.9-6.6,0.8c-0.1,5.7-0.1,11.4,0,17.1c-2.5,0-4.9,0-7.4,0c0.3-8.1,0.3-16.3,0-24.4
		c2.3,0,4.6,0,7,0C397.1,232.2,397,233.3,396.9,233.8z"/>
	<path fill="#E31E1B" d="M438.6,232.1c3.8-1.9,8.3-1.3,12.3-0.3c0,1.5,0,3.1,0.1,4.6c-2.3-1.4-5.1-3.2-7.8-1.7
		c-3.2,1.8-3.6,6-3.5,9.3c0,3.2,0.8,7.4,4.3,8.6c2.6,1,4.9-0.8,7.1-2c0,1.5-0.1,2.9-0.1,4.4c-5.2,1.8-12,2.3-15.9-2.4
		C430.1,246.6,431.1,235.6,438.6,232.1z"/>
	<g>
		<path fill="#E31E1B" d="M471.4,237.1c3-7.1,14-8.6,18.9-2.8c2.2,2.6,2.4,6.1,2.7,9.3c-5.2,0-10.4,0-15.6,0c0.3,3,0.3,6.7,3.1,8.5
			c3.4,2,7.7,0.5,10.5-1.9c0.3,1.3,0.6,2.7,0.9,4c-5.5,2.6-12.8,3.3-17.9-0.7C469.3,249.6,469.3,242.4,471.4,237.1z M477.5,240.4
			c2.7,0,5.3,0,8,0c-0.3-2.4-0.7-6.5-4-6.3C478.2,234,477.7,237.9,477.5,240.4z"/>
	</g>
	<path fill="#E31E1B" d="M170.9,231.6c2.8,0,5.6,0,8.4,0c1.3,2.5,2.7,4.9,4,7.3c1.6-2.4,3.2-4.8,4.6-7.3c1.4,0,2.8-0.1,4.1-0.1
		c-2.4,3.5-4.6,7.2-6.9,10.7c2.4,4.6,4.9,9.2,7.5,13.7c-2.7,0-5.4,0.1-8.1-0.1c-2-2.6-3.1-5.7-4.9-8.4c-1.8,2.8-3.6,5.6-5.3,8.5
		c-1.4,0-2.7,0-4.1,0c2.7-3.9,5.1-7.9,7.7-12C175.5,239.9,173.4,235.7,170.9,231.6z"/>
	<path fill="#E31E1B" d="M514.2,255.1c-1.4-2.6-0.2-6.7,3.3-6.3c3.2-0.8,5.6,3.3,3.7,5.9C519.5,257,516.4,256.2,514.2,255.1z"/>
</g>
</svg>
