<?xml version="1.0" encoding="utf-8"?>
<!-- Generator: Adobe Illustrator 18.0.0, SVG Export Plug-In . SVG Version: 6.00 Build 0)  -->
<!DOCTYPE svg PUBLIC "-//W3C//DTD SVG 1.1//EN" "http://www.w3.org/Graphics/SVG/1.1/DTD/svg11.dtd">
<svg version="1.1" id="Capa_1" xmlns="http://www.w3.org/2000/svg" xmlns:xlink="http://www.w3.org/1999/xlink" x="0px" y="0px"
	 viewBox="16.7 15.8 545.6 273.6" enable-background="new 16.7 15.8 545.6 273.6" xml:space="preserve">
<g id="_x23_fefefeff">
	<path fill="#FEFEFE" d="M308,150.6l0.7,0.2c0.2,1.1,0.2,2.1-0.3,3.1c-0.4-0.5-1.1-1.4-1.5-1.9C307.2,151.6,307.7,150.9,308,150.6z"
		/>
</g>
<g id="_x23_225aa7ff">
	<path fill="#225AA7" d="M16.7,15.8c181.9,0,363.7,0,545.6,0c-0.1,91.2,0,182.4,0,273.6c-51.4-0.3-102.8,0-154.2-0.1
		c-130.4,0.1-260.9-0.1-391.3,0C16.8,198.1,16.7,106.9,16.7,15.8 M263.1,18.8c-4.9,1.1-10,0.4-15,1c-3.4,0.8-6.9,0.4-10.2,1.3
		c-3.3,0.3-6.7,0.1-9.9,1c-2.8,0.3-5.6,0.4-8.5,0.4l0,0.7c-2.1,0-4.3,0.1-6.4,0.4c-6,1.1-12,1.9-18,3.1c-1.5,0.3-3.1,0.6-4.6,0.8
		l0.1,0.6c-1.8,0.1-3.6,0.2-5.5,0.4c-1.5,0.4-3,0.8-4.6,1l0,0.7c-1.3,0-2.7,0-4,0.1l0,0.7c-3,0.4-6,1.1-9,1.4l0.1,0.5
		c-3.6,0.5-7,1.7-10.5,2.5c-1,0.3-2,0.6-3,0.9c-2.4,0.9-5,1.7-7.5,2l0.1,0.5c-1.2,0.3-2.4,0.6-3.6,1c-0.5,0.1-1.4,0.3-1.9,0.4
		c-1,0.4-2,0.8-3,1.2c-1.2,0.4-2.3,0.7-3.5,0.9l0,0.8c-0.7,0-2.2,0-2.9,0l0,0.7c-1.3,0.3-2.6,0.8-3.8,1.3c-0.3-0.1-0.9-0.2-1.2-0.2
		l0,1.2c-0.8,0-2.3,0-3,0l0,0.8c-1.7,0.5-3.4,1-5.1,1.4l0,1.1c-0.4-0.2-1.3-0.5-1.8-0.7l0,1.1c-2,0.4-3.9,1.1-5.7,2.3
		c-0.3-0.1-1-0.2-1.3-0.3l-0.1,1c-3.9,0.9-7,3.9-11,4.6l0,1.1c-0.5-0.2-1.4-0.5-1.8-0.7l0.1,1.4l-1.3-0.2l0.1,1.3
		c-0.5-0.1-1.4-0.3-1.9-0.4l-0.1,1.3c-0.5-0.1-1.4-0.3-1.9-0.3l-0.2,1.3c-0.4-0.1-1.3-0.2-1.8-0.3l-0.1,0.9
		c-1.8,0.7-3.4,1.8-5.2,2.6l0.1,0.9c-0.4-0.1-1.3-0.3-1.8-0.4l-0.3,1.4c-0.4-0.1-1.1-0.3-1.5-0.5c-0.4,0.7-1.3,2-1.8,2.6
		c-0.3-0.1-0.8-0.4-1-0.6C76.7,71,74.8,72,72.9,73c-1.4,1-2.8,2.1-3.9,3.4c-0.2,0-0.7-0.1-0.9-0.1c-2,1.7-4,3.6-6.5,4.6
		c0,0.4,0,1.2,0,1.6c-0.4,0-1.1-0.2-1.5-0.2c-3.3,2.8-6,6.2-9.6,8.6c0,0.4,0,1.2,0.1,1.6c-0.5-0.1-1.4-0.2-1.9-0.3l0.1,1.3l-1.3,0
		c0,0.5,0.1,1.5,0.2,2c-0.5,0-1.5-0.2-1.9-0.2l0,1.3l-1.3-0.1c0,0.5,0.1,1.4,0.1,1.9c-0.5,0-1.5,0-2,0.1c0,0.5,0,1.5,0,2
		c-0.5,0-1.5,0.1-2,0.1c0,0.4,0.2,1.1,0.2,1.4c-2,1.6-3.3,3.9-4.8,5.9c-1,1.4-2,2.7-3,4c-0.4,0.5-1.2,1.5-1.6,2
		c0,0.2,0.1,0.7,0.2,0.9c-2.1,2.7-3.5,5.8-4.9,8.9c-0.5,1.8-1.2,3.5-1.9,5.1c-0.3,1-0.7,2-1.1,3.1c0,0.6-0.2,1.8-0.2,2.4l-0.7,0
		c-0.3,1.6-0.5,3.1-0.9,4.6c-0.3,2.1-0.5,4.2-0.5,6.4h-0.7c0,4.5-0.1,8.9,0.1,13.4c0.7,2.3,0.8,4.6,1,7c0.3,1.4,0.7,2.7,1,4.1
		c0.7,2,1.3,4,1.9,6.1c0.6,1.4,1.2,2.7,1.9,4.1c0,0.2-0.1,0.6-0.1,0.8c1.3,1.7,1.9,3.7,2.3,5.7l1-0.2l-0.4,1.4l1.5-0.2
		c-0.2,0.5-0.4,1.5-0.6,1.9l1-0.1c0.9,2.9,2.9,5.3,4.7,7.6c1.5,2.1,2.9,4.2,4.1,6.4c0.4,0,1.1,0,1.4,0.1c0,0.5,0,1.5,0,2
		c0.5,0,1.6,0,2.1,0c-0.1,0.5-0.2,1.5-0.3,2l1.3,0l0,1.2c0.5,0,1.5,0,2-0.1c-0.1,0.5-0.2,1.4-0.3,1.9l0.8,0c0.9,1.8,2.5,2.9,4.3,3.6
		c0,0.4,0,1.2,0,1.5c0.5,0,1.5,0.1,2,0.1c0,0.5,0,1.4,0,1.9c0.5,0,1.5,0,2,0.1c0,0.5,0.1,1.4,0.1,1.9c0.5,0,1.5,0,2,0
		c0,0.5,0.1,1.5,0.1,2c0.4-0.1,1.1-0.2,1.4-0.3c1.7,2.1,4.2,3.3,5.9,5.4c0.2,0,0.7,0,1,0c1.2,1.3,2.6,2.3,4,3.4c1.5,1,3,1.9,4.6,2.8
		l-0.2,0.5c1.1,0.5,2.3,1,3.4,1.5l-0.2,1.2c0.5-0.2,1.4-0.6,1.9-0.8l-0.1,1.4l1.3-0.1l0,1.4c0.3-0.1,1-0.4,1.3-0.5
		c2.7,2.5,6.2,3.9,9.5,5.6l0,0.7l1.2-0.2l0.1,1.2c0.3-0.1,1-0.2,1.3-0.3c1,0.7,2,1.4,3,2.2c0.4-0.1,1.1-0.2,1.4-0.3l0.1,1.4
		c0.4-0.1,1.3-0.3,1.8-0.4l0.1,0.9c2.4,0.7,4.6,2,7,2.7l0.1,0.9c0.4-0.1,1.3-0.4,1.8-0.5l0.2,1.4c0.5-0.1,1.4-0.3,1.9-0.4l0.3,1.4
		c0.4-0.1,1.3-0.4,1.8-0.5l0.1,0.9c1.3,0.3,2.5,0.8,3.7,1.3c0.2,0,0.5,0,0.6,0c1.2,0.5,2.5,1,3.8,1.4l0.1,1c0.3-0.1,0.9-0.3,1.2-0.4
		c1.1,0.6,2.4,1.1,3.7,1.4l0,0.4c1.6,0.4,3.1,0.9,4.7,1.4c1.3,0.6,2.5,1.1,3.8,1.7c0.7,0,2,0.1,2.7,0.2l-0.1,0.7
		c1.2,0.2,2.4,0.6,3.6,1c0.5,0.1,1.4,0.3,1.9,0.4c1,0.4,2,0.8,3,1.2c1,0.3,2.1,0.5,3.1,0.8c2.2,0.9,4.6,1.6,6.9,2.1
		c1.7,0.4,3.4,0.9,5,1.4c2.4,0.5,4.7,1.1,7,2c4,0.9,7.9,2,11.9,2.6c1.7,0.5,3.4,1,5.1,1.6c1.5,0.1,3,0.2,4.6,0.3l-0.2,0.8
		c1.9,0,3.7,0.2,5.6,0.3c3.5,1.2,7.2,1.8,10.9,2.2c2.1,0.6,4.4,0.7,6.6,0.8l0.1,0.7c2.5,0,5.1,0,7.5,0.9c5.8,0.1,11.5,1.8,17.4,1.5
		l0,0.7c3.2,0.1,6.4,0.1,9.5,0.6c5.4,0.9,10.9,0.3,16.4,0.9c7.2,1,14.5,0.5,21.8,0.7c11.3,0,22.5,0,33.8-0.4
		c8.7-0.9,17.5-0.9,26.2-2.3c3-0.2,6.1-0.3,9-1c4.7-0.3,9.2-1.3,13.9-1.7c6-1.1,12-2.1,18-2.9c2-0.5,4.1-0.9,6.1-1.5
		c3-0.5,6.1-1.1,9-2c1.3-0.2,2.6-0.3,3.9-0.5c4.2-1.8,8.9-1.8,13.1-3.5c2-0.5,4-1,6-1.6c1-0.3,2-0.6,3-0.9c1.7-0.5,3.3-1,5-1.5
		c1-0.4,2-0.7,3.1-1.1c0.6,0,1.8-0.1,2.4-0.2l0-0.9c0.6-0.1,1.8-0.2,2.4-0.3c1.2-0.4,2.4-0.8,3.6-1.1l0-0.7c0.8,0,2.3,0,3.1,0l0-1.2
		c0.3,0.1,0.9,0.3,1.2,0.4c2-1.3,4.4-1.8,6.7-2.4l-0.1-0.6c1.7-0.5,3.4-1,5.1-1.5l-0.1-0.6c1.6-0.3,3.1-0.8,4.7-1.3
		c2.6-1.4,5.3-2.5,7.9-4c0.4,0.1,1,0.2,1.4,0.3l0.1-1.4c0.5,0.1,1.4,0.3,1.9,0.4l0.2-1.3c0.4,0.1,1.3,0.2,1.8,0.3l0.1-0.9
		c2.2-0.2,3.8-2.2,6-2.4l0.1-1c0.4,0.1,1.4,0.3,1.8,0.3l0.2-1.3c0.4,0.1,1.3,0.2,1.8,0.3l0.3-1.3c0.5,0.1,1.4,0.2,1.8,0.3l0.2-1.4
		c0.3,0.1,1,0.3,1.3,0.4c1.1-1.3,2.5-2.1,4.1-2.6c1.5-1.6,3.3-2.6,5.4-3c0-0.4,0-1.1,0-1.5c0.5,0,1.6,0,2.1,0.1l0-1.4
		c0.5,0.1,1.4,0.4,1.8,0.5l0-1.4c0.4,0,1.1,0,1.5,0c0.6-1.2,1.8-1.8,3-2.3c1.5-1,2.9-2.2,4.1-3.5c0.3,0,1,0.1,1.4,0.1l0.1-1.3
		c0.5,0,1.4,0.1,1.9,0.2c0-0.5,0.1-1.5,0.2-2.1c0.4,0.1,1.1,0.2,1.4,0.2c2.1-2.4,5-3.9,6.9-6.5c0.4,0.1,1.2,0.3,1.6,0.4
		c0-0.4-0.1-1.2-0.1-1.6c2.8-2,5.1-4.7,7.6-7.1c0.8-0.8,1.6-1.5,2.5-2.1c0-0.3-0.1-1-0.1-1.3l1.5-0.1c-0.1-0.5-0.4-1.4-0.5-1.9
		c0.5,0,1.6,0,2.1,0c0-0.5,0.1-1.6,0.1-2.1c0.3,0,1,0,1.3,0c1.2-2.3,2.7-4.4,4-6.5c1-1.5,2.1-2.9,3.2-4.3c0.1-0.5,0.3-1.6,0.5-2.2
		l0.7,0.1c1.6-3.6,3.4-7.2,5.3-10.7c0-0.2,0-0.6,0-0.8c0.5-1.1,0.9-2.1,1.3-3.2c0.4-1.7,0.9-3.4,1.5-5c0.2-1,0.3-1.9,0.5-2.9
		c0.6-2.1,0.8-4.4,0.8-6.6l0.7,0c0.7-10.3-0.2-20.7-3.6-30.5c-0.5-1-0.9-2.1-1.4-3.1c0-0.2,0.1-0.6,0.1-0.8
		c-1.7-3.6-3.6-7.1-5.2-10.7l-0.5,0.1c-0.5-1.9-1.6-3.4-2.7-5l-1-0.1c0.1-0.5,0.4-1.4,0.6-1.8l-1.5,0c0-0.5,0.1-1.5,0.2-2
		c-0.5,0-1.5-0.1-2-0.1c0.1-0.5,0.2-1.5,0.3-2l-1.5,0c0.1-0.5,0.2-1.5,0.3-2c-0.4,0-1.2,0.1-1.6,0.1c-0.6-1.1-1.2-2.2-1.7-3.3
		c-0.4,0-1.2,0.1-1.6,0.2c0-0.5,0.1-1.5,0.2-2l-1.4,0c0-0.5,0.1-1.4,0.1-1.8c-0.5,0-1.5-0.1-2.1-0.2c0-0.5,0.1-1.5,0.1-2
		c-0.5,0-1.5,0.1-2,0.1c0-0.5,0-1.6,0.1-2.1c-0.5,0-1.6,0-2.1,0c0-0.5,0-1.5,0-2c-0.5,0-1.5,0-2,0c0-0.5-0.1-1.6-0.1-2.1
		c-0.5,0.1-1.4,0.2-1.9,0.3l0-1.4c-0.5,0.1-1.5,0.1-2,0.2c0-0.4,0.2-1.3,0.2-1.7c-1.1-0.6-2.2-1.1-3.3-1.6c0-0.4,0-1.3,0-1.7
		c-0.5,0.1-1.5,0.2-2,0.3l0.1-0.9c-1.8-1.3-3.7-2.6-5.5-3.9c-1-0.9-2.2-1.5-3.5-1.9c0-0.4,0-1.2-0.1-1.6c-0.5,0-1.5,0.1-1.9,0.2
		l0.1-1.3l-0.7,0.2c-1-0.5-1.9-1.1-2.9-1.6c-0.9-1.1-2.2-1.6-3.5-2c0-0.3,0-0.8,0-1.1c-1.7-0.6-3.4-1.3-5.1-1.9
		c0-0.3,0.1-0.9,0.2-1.3c-1.4-0.4-2.9-0.9-4.3-1.3l0-1.1c-0.4,0.1-1.3,0.3-1.7,0.3l-0.2-1.4c-0.4,0.1-1.4,0.3-1.8,0.3l-0.3-1.4
		c-0.3,0.1-1,0.2-1.4,0.3c-2.4-2.2-5.4-3.5-8.5-4.5l-0.2-0.9c-0.4,0.1-1.3,0.3-1.8,0.4l-0.2-1.4c-0.5,0.1-1.4,0.3-1.9,0.4l-0.1-1.5
		c-0.5,0.2-1.4,0.4-1.9,0.6l0-1c-1.7-0.5-3.4-1.1-5.1-1.6l0-1c-0.3,0.1-1,0.3-1.4,0.4c-1.5-1.3-3.3-1.9-5.1-2.4
		c-1.7-0.8-3.3-1.5-5-2.1c-1.1-0.3-2.3-0.6-3.4-0.9l0.1-0.5c-1.6-0.4-3.1-0.9-4.7-1.5c-1.1-0.4-2.3-0.7-3.5-0.9l0-0.5
		c-1.2-0.3-2.4-0.7-3.5-1.2c-0.5-0.1-1.4-0.3-1.8-0.4c-1.1-0.4-2.1-0.7-3.2-1c-2.3-0.8-4.6-1.5-6.9-2c-1.3-0.5-2.7-1-4-1.5
		c-5.3-1.4-10.7-2.7-16-4.2c-0.6,0-1.9-0.1-2.5-0.1l0.1-0.9c-1.7-0.1-3.4-0.1-5.1-0.2l0.1-0.8c-7-0.8-13.7-2.7-20.6-3.9
		c-4-0.7-8-1.1-12-2c-2.3-0.2-4.6-0.4-6.9-0.6c-2.6-0.8-5.3-0.7-8-1c-2.6-0.6-5.4-0.7-8-0.9c-3.6-1.1-7.5-0.5-11.1-1.3
		c-5.3-0.9-10.7,0-16-1.2C299.7,18.3,281.4,18.2,263.1,18.8z"/>
	<path fill="#225AA7" d="M102.5,90.6c13-0.4,26-0.4,38.9,0l0.1,0.7c2.6,0.1,5.3,0.2,7.9,0.3l0,0.7c5.7,0.3,11.2,1.7,16.6,3.4
		c1,0.4,2,0.7,3,0.9c1.4,0.5,2.7,1.2,4,1.9c0.3-0.1,1-0.3,1.3-0.4l0.1,0.9c4.5,1.8,8.2,4.9,12.1,7.7c0.6,0.6,1.1,1.1,1.7,1.7
		c1.4,2.2,2.9,4.4,4.4,6.5c-0.1,0.3-0.3,1.1-0.4,1.4l1.1,0.1c1.3,3.5,1.6,7.2,1.3,10.9c-18.8,0-37.5-0.1-56.3,0l0.2-1.2
		c-0.5,0.1-1.5,0.3-2,0.4c-0.1-0.6-0.1-1.7-0.2-2.2c-0.5,0-1.4,0.1-1.9,0.1c0-0.5,0.1-1.5,0.1-2.1c-0.5,0-1.6,0.1-2.1,0.2l-0.1-1.5
		c-0.5,0.2-1.4,0.6-1.9,0.8l0.1-1.1c-6.2-1.9-12.6-2.3-19.1-2.1l-0.1,0.7c-1.7,0.1-3.3,0.2-5,0.2l0,1.2c-0.3-0.1-1-0.3-1.3-0.3
		c-0.6,0.3-1.8,1-2.4,1.4c-0.4,1.6-0.8,3.2-1.3,4.8l1.2,0c-0.1,0.5-0.3,1.5-0.3,2c0.5,0,1.6-0.1,2.2-0.1l-0.1,0.9
		c2.5,1.2,5.1,2.2,7.7,2.9c4.6,0.8,9.2,1.4,13.8,1.6c4.9,1,10,0.4,15,0.9c7,1.1,14,1.7,21,3c1.5,0.4,3.1,0.7,4.7,0.9l-0.1,0.5
		c2.8,0.3,5.5,1,8.2,1.5l-0.3,0.5c2,0.4,4,1.1,5.7,2.3c0.2,0,0.6,0,0.8,0c0.6,0.3,1.9,1,2.6,1.3l0,0.8l1.3-0.2l-0.3,1.3
		c0.5-0.1,1.4-0.3,1.9-0.4c0.1,0.5,0.2,1.6,0.2,2.1c0.5-0.1,1.4-0.2,1.9-0.2l-0.2,0.9c0.4,0.2,1.2,0.6,1.6,0.9
		c1.5,1.6,2.8,3.5,4.5,5c0,0.3-0.1,1-0.1,1.4l1.3,0.2c-0.1,0.4-0.3,1.4-0.3,1.8l1.4,0.2c-0.1,0.5-0.4,1.4-0.5,1.8l1.1,0
		c0.3,1.6,0.5,3.1,1,4.6c1.7,7,1.4,14.6-1.8,21.1c0.1,0.2,0.2,0.6,0.2,0.8c-2,2.3-3.5,5.1-5.4,7.6l-0.7-0.3l0.1,1.3l-1.3-0.2
		l0.5,1.1l-1.4-0.3l0.2,1.4c-0.5-0.1-1.4-0.2-1.9-0.2c-0.1,0.4-0.2,1.1-0.2,1.5c-2.8,1.4-5.1,3.6-8.1,4.7l0,1
		c-0.3-0.1-0.9-0.3-1.2-0.4c-1.2,0.9-2.7,1.4-4.1,1.9c-5.6,2-11.3,3.7-17.2,4.9c-1.7,0.3-3.3,0.6-4.9,1c-2.4,0.2-4.8,0.4-7.1,1.1
		c-6,0.2-11.9,1.5-17.9,1.3c-7-0.2-14.1,0.5-21.1-0.7c-5.3-0.1-10.5-1-15.8-1.6c-1.7-0.5-3.5-1-5.2-1.5c-1.7-0.3-3.4-0.5-5-0.9
		c-1-0.5-2-1-3.1-1.4c-0.2,0.1-0.6,0.2-0.8,0.2c-1.4-0.7-2.8-1.5-4.2-2.2c-0.3,0.1-1,0.2-1.3,0.3l-0.2-1.4c-0.5,0.1-1.4,0.2-1.8,0.3
		l-0.1-1.4c-0.4,0.1-1.4,0.3-1.8,0.4l-0.1-1.3c-0.4,0-1.1,0-1.4,0c-1.3-1.2-2.6-2.2-4-3.3c-1.1-1.1-2.3-2.1-3.6-3c0-0.4,0-1.2,0-1.6
		c-0.5,0-1.5,0-2,0c0-0.5,0.2-1.5,0.2-2l-1.4,0c0-0.5,0.1-1.5,0.2-2c-0.4,0-1.2,0-1.6,0.1c-0.3-1.2-0.7-2.3-1.1-3.5
		c-0.6-1.7-1.2-3.4-1.7-5.1c-0.6-2.5-0.7-5-0.7-7.5c18.5,0.1,37.1,0.2,55.6,0.1c2.5-0.1,5,0.4,7.4,1.1c0,0.6,0.1,1.8,0.2,2.4
		c1.3,0.5,2.6,1,3.9,1.6l0.1,1.1c0.3-0.1,0.9-0.3,1.2-0.3c4.2,2.6,9.4,2.1,14.1,2.1c2.8-0.1,5.7,0.2,8.2-1.1
		c0.3,0.1,0.9,0.3,1.2,0.4v-1.3c0.8-0.1,2.3-0.2,3.1-0.3c-0.1-0.5-0.2-1.4-0.3-1.8h1.4c0-2.5-0.1-5-1.3-7.3
		c-0.5,0.1-1.4,0.3-1.8,0.4l-0.1-1.5c-0.3,0.1-0.9,0.3-1.3,0.4c-2.6-1.3-5.6-0.9-8.3-1.6c-3.4-0.4-6.9-0.4-10.4-0.5v-0.7
		c-3.9-0.1-7.8,0.2-11.6-0.8c-8.2-0.2-16.3-2-24.5-2.5l0.1-0.8c-1.3,0-2.7-0.1-4-0.1l0.1-0.7c-2.2-0.4-4.4-1-6.6-1.4
		c-1.3-0.5-2.6-1-3.8-1.6c-1.8-0.5-3.6-1.2-5.1-2.3c-0.3,0.1-1,0.2-1.3,0.3l-0.2-1.3c-0.5,0.1-1.4,0.2-1.8,0.3l-0.1-1.3
		c-0.5,0.1-1.5,0.1-2,0.2c0-0.4,0-1.2,0-1.6c-1.2-0.5-2.3-1-3.4-1.7c0.1-0.4,0.4-1.2,0.5-1.6c-0.5,0-1.6,0-2.1,0
		c-0.1-0.5-0.2-1.6-0.3-2.2c-0.3,0-1,0.1-1.3,0.1c-1-2.2-2.2-4.4-3.5-6.5c-0.1-0.5-0.2-1.5-0.3-2c-1.1-2.9-0.9-6-1.1-8.9
		c-0.4-3,0.3-6.1,0.6-9.1c0.4-1.2,0.7-2.4,1-3.6l0.5,0c0.9-2.8,1.7-5.8,4.1-7.7c0-0.2,0.1-0.6,0.2-0.8c0.4-0.6,1.1-1.9,1.5-2.5
		c0.4,0,1.2-0.1,1.5-0.1c0-0.5,0-1.5,0-2c0.5,0.1,1.4,0.2,1.8,0.2l0-1.3l1.2,0.1l-0.1-1.2c0.5,0,1.5,0,2,0c0-0.4,0-1.2,0-1.6
		c2-0.5,4.2-1.1,5.4-2.9c1.5-0.6,3.1-1.2,4.7-1.6l0-1.1c0.5,0.2,1.3,0.5,1.8,0.7l0-1.3c0.6,0,1.9-0.1,2.5-0.1
		c1.4-0.6,2.7-1.2,4.1-1.8c1.2-0.1,2.3-0.1,3.5-0.2l-0.1-0.7c3-0.7,6-1.3,9.1-1.4l0-0.7c2.7-0.1,5.3-0.3,8-0.3L102.5,90.6z"/>
	<path fill="#225AA7" d="M208.4,93.4c17.1,0.1,34.1-0.1,51.2,0.1c0,0.5,0,1.4,0,1.9c0.5,0.1,1.6,0.1,2.1,0.2l-0.3,1.8
		c0.4,0,1.1,0.1,1.5,0.1l-0.5,1.5l0.9-0.7c1.5,2.5,3.8,4.5,5,7.2c0.4,0,1.1,0,1.4,0c0,0.5-0.1,1.5-0.1,2.1c0.5,0,1.6,0.1,2.1,0.1
		c-0.1,0.5-0.2,1.3-0.3,1.8l1.3,0.1c0,0.5,0,1.5-0.1,2c0.4,0,1.3,0,1.7,0c1,2.7,3.5,4.4,4.9,6.9c0.4,0,1.1,0.1,1.4,0.1
		c0,0.5-0.1,1.4-0.1,1.9l1.5,0.1c-0.1,0.3-0.1,1-0.2,1.3c1.1,0.6,1.9,1.5,2.5,2.7c0.4,0,1.1,0,1.4,0c0,0.5-0.2,1.5-0.2,2l1-0.3
		c0.2,0.4,0.5,1.1,0.7,1.5c0.4,0.3,1.3,0.9,1.7,1.2c-0.1,0.4-0.2,1.2-0.2,1.6c0.5,0,1.6,0.1,2.1,0.1c-0.1,0.5-0.3,1.4-0.3,1.8l0.9,0
		c1.5,2.4,3.5,4.5,5.5,6.5c0,0.4-0.2,1.1-0.2,1.4c0.5,0,1.6,0.1,2.1,0.2c-0.1,0.5-0.2,1.4-0.3,1.9l1.4,0c0,0.5,0,1.5-0.1,2
		c0.4,0,1.2,0,1.6-0.1c0.5,1.1,1.1,2.2,1.6,3.3c0.4,0,1.2-0.1,1.6-0.2c0,0.5-0.1,1.5-0.1,2l0.8,0.1c0.6,0.8,1.2,1.6,1.8,2.4
		c0.4,0.5,1.1,1.4,1.5,1.9c0.4-1,0.5-2,0.3-3.1l-0.2-1.2l0.8,0c0-1.7,0-3.3,0-5l-0.7,0c0.1-5.7,0.1-11.4,0-17.1l2.6-0.4l-2.7-0.4
		c0-1.5,0.1-3,0.2-4.6c-0.4-6.6,0.7-13.1,0.5-19.7l-2.7-0.4l2.7-0.4c0-2.7,0-5.4,0-8.1c1.3-0.2,2.5-0.5,3.8-0.7
		c5.3-0.3,10.5,1,15.8,0.4c8.6-0.7,17.2-0.2,25.8,0.2c-0.1,39.7,0.1,79.3-0.1,119c-16.7,0-33.4,0-50.1,0c0-0.4,0.2-1.3,0.2-1.8
		l-1.3-0.1c0-0.5,0.1-1.5,0.2-1.9c-0.5,0-1.6-0.1-2.1-0.1c0-0.5,0.1-1.5,0.1-1.9c-0.5,0-1.5,0-2,0c0-0.5,0.1-1.6,0.1-2.1
		c-0.5,0-1.6,0-2.1,0c0.1-0.5,0.2-1.4,0.2-1.9l-1.4-0.1c0-0.5,0.1-1.4,0.1-1.9c-0.5,0-1.5-0.1-2-0.1c0.1-0.5,0.2-1.4,0.3-1.8
		l-0.9,0.1c-0.3-0.4-0.8-1.1-1.1-1.5c-4.4-5-8.3-10.3-12.7-15.3c-1.1-1.4-2.1-2.8-3.5-4c0-0.3,0.1-1,0.1-1.4l-1.3,0.1l0-1.3
		c-0.4,0.1-1.3,0.2-1.8,0.3c0-0.8-0.2-2.4-0.2-3.2c-0.5,0-1.4,0.1-1.8,0.2c0-0.5,0-1.6-0.1-2.1c-0.5,0-1.5,0-2-0.1
		c0.1-0.5,0.2-1.4,0.3-1.9l-0.9,0.2c-0.3-0.3-0.9-1-1.1-1.4c-0.6-0.9-1.1-1.9-1.6-2.9c-0.4,0-1.2,0-1.6,0c0-0.5,0.1-1.4,0.1-1.9
		l-0.8-0.1c-0.9-1.9-2.4-3.3-4.2-4.4c0-0.4,0-1.1,0-1.5h-1.5c0.1-0.5,0.3-1.4,0.4-1.9c-0.5,0-1.5,0.1-2,0.1
		c-0.1-0.6-0.2-1.7-0.3-2.3c-0.4,0.1-1.3,0.2-1.7,0.3c-0.2-1.3-0.5-2.6-0.7-3.9c-1,5.2-0.1,10.6-1.4,15.7h1
		c-1.3,5.3-0.7,10.7-0.9,16.1l2.5,0.4l-2.5,0.4c-0.1,4.7,0.1,9.4,0.8,14.1l-0.8,0c0.1,5.6,0.1,11.3,0,16.9c-14.7,0-29.4,0-44.1,0
		c-0.5-4.4-1.1-8.9-0.3-13.4c0.1-2.1,0.1-4.1,0.1-6.2l-0.7-0.7c0.1-1.4,0.3-2.9,0.5-4.3c-0.1-2.6-0.2-5.2-0.1-7.8
		c0.5-3.6,0.4-7.3,0-10.9c-0.6-4.4,0.9-8.8,0-13.2c0.6-5.3,0.2-10.7,0.3-16c-0.1-6.9,0.3-13.9-0.4-20.8c0.2-7.3,0.7-14.7,0-22
		C208.1,95.9,208.2,94.6,208.4,93.4z"/>
	<path fill="#225AA7" d="M371.4,93.4c34.2-0.1,68.4,0,102.6-0.1c4.6,0,9.3-0.1,13.9,0.4c1.8,0.6,3.7,0.8,5.6,0.9v0.7
		c0.6,0.1,1.8,0.2,2.4,0.3c1.2,0.4,2.5,0.8,3.7,1.2l0,1c0.5-0.1,1.4-0.4,1.8-0.5l0.2,1.4c0.5-0.1,1.4-0.3,1.9-0.3l0.2,1.5
		c0.5-0.2,1.4-0.5,1.8-0.7l-0.2,1.1c1.1,0.5,2.3,1,3.4,1.5l-0.1,1.2c0.3-0.1,1-0.4,1.3-0.5c0.9,1.5,2.1,2.7,3.6,3.7
		c0,0.4-0.1,1.1-0.1,1.4c0.5,0,1.6,0,2.1,0c0,0.4-0.2,1.1-0.2,1.5c1,1.4,2,2.7,3,4.1c0.1,0.6,0.2,1.8,0.3,2.4l0.9,0
		c0.1,0.6,0.2,1.8,0.2,2.4c2.2,4.7,2,10,2,15c-0.1,3.8-0.6,7.7-2.1,11.2c0,0.3,0.1,0.9,0.1,1.2l-1.3,0.2c0.1,0.4,0.2,1.4,0.3,1.8
		l-1.3,0.3c0.1,0.4,0.3,1.3,0.3,1.8l-0.9,0.1c-0.3,0.6-0.9,1.9-1.2,2.5l-0.1,0.6l-1.2-0.1c0,0.4,0.1,1,0.2,1.4
		c-1.1,0.6-1.9,1.5-2.4,2.6c-0.4,0-1.2,0-1.6,0c0,0.5,0,1.5,0,2.1c-0.5-0.1-1.5-0.2-1.9-0.3l0,1.4c-0.5-0.1-1.4-0.2-1.8-0.3
		l-0.3,1.4c-0.4-0.1-1.3-0.3-1.8-0.4l0.1,1.2l-0.6,0.1c-2.1,1-4.3,1.6-6.6,2.1l0.1,0.7c-0.9,0.1-2.6,0.4-3.5,0.5
		c0.6,0.1,1.8,0.3,2.4,0.4c0,0.8,0,2.3,0,3.1c0.5,0,1.4,0.1,1.9,0.1c0,0.5,0,1.4-0.1,1.9l1.3,0.1c-0.1,0.4-0.2,1.3-0.3,1.8l1.4,0.2
		c-0.1,0.5-0.3,1.4-0.4,1.8l1.3,0.1c0,0.3,0,1,0,1.3c1.5,0.8,1.9,2.3,2.3,3.8c0.3,0,0.8-0.1,1-0.1c0.9,2.9,3.2,5,3.9,8
		c0.3,0,0.9,0,1.2,0c1.2,4.1,4.9,6.8,5.9,11c0.3,0,0.8-0.1,1-0.1c1,2,2.1,4,3.1,6.1c0.3,0,0.8-0.1,1-0.1c0.3,1.9,1,3.6,2.6,4.7
		c-0.1,0.2-0.2,0.6-0.3,0.8c0.6,0.9,1.1,1.8,1.7,2.7c-17.8,0.1-35.7,0.2-53.5-0.1c0-0.5,0.1-1.4,0.1-1.9l-0.9,0
		c-3-6.2-7.6-11.4-10.9-17.4c-1-1.4-2.1-2.8-3.3-4.1c0-0.3,0-1,0-1.3l-1.3-0.2c0.1-0.5,0.3-1.4,0.4-1.9l-1.5,0.1
		c0-0.4,0-1.1,0.1-1.5c-1.3-1.3-2.4-2.7-3.4-4.1c-0.8-1.8-1.9-3.6-3.4-5c-0.1-0.6-0.3-1.9-0.3-2.5c-0.4,0-1.3,0.1-1.7,0.1
		c0-0.5,0.1-1.6,0.1-2.1l-1.3,0c0-0.5,0-1.5,0-2c-8.7-0.2-17.4-0.2-26-0.1c-0.1,14.1-0.2,28.2,0,42.2l-1.2-0.1
		c0.1,0.5,0.4,1.4,0.5,1.9c-15.5,0-30.9,0-46.4,0C371.4,172.8,371.4,133.1,371.4,93.4 M418.5,123.1c-0.1,4.6-0.1,9.2,0,13.8
		c0.5-0.1,1.5-0.3,1.9-0.4l0.1,1.1c6.5-1,13.1-0.9,19.7-0.7c0.5,0.2,1.4,0.6,1.8,0.8c2.8-2,6.5,0,9.7-0.1l0-2.3l1,1.9
		c3.3-0.3,6.6-0.6,10-0.5l0,2.1c0.4-3.1,3.8-1.9,5.8-2.4l0-1.2c0.4,0.1,1.4,0.3,1.8,0.4c0.1-0.8,0.2-2.4,0.2-3.1l0.9,0.2
		c-0.1-1.5-0.1-3-0.1-4.5c-0.5-1.2-0.9-2.4-1.3-3.6c-0.4,0.1-1.2,0.2-1.6,0.3l0.1-1.1c-1.3-0.3-2.5-0.6-3.7-0.9
		c-14.8-0.3-29.7,0-44.5-0.2l0.1,1.2C420,123.6,419,123.2,418.5,123.1z"/>
</g>
<g id="_x23_f9f403ff">
	<path fill="#F9F403" d="M263.1,18.8c18.3-0.6,36.6-0.5,54.9,0c5.2,1.3,10.7,0.3,16,1.2c3.7,0.7,7.5,0.1,11.1,1.3
		c2.7,0.2,5.4,0.3,8,0.9c2.7,0.2,5.4,0.2,8,1c2.3,0.2,4.6,0.4,6.9,0.6c3.9,0.9,8,1.3,12,2c6.9,1.2,13.7,3.1,20.6,3.9l-0.1,0.8
		c1.7,0,3.4,0.1,5.1,0.2l-0.1,0.9c0.6,0,1.8,0.1,2.5,0.1c5.3,1.5,10.7,2.7,16,4.2c1.3,0.5,2.7,1,4,1.5c2.4,0.4,4.7,1.1,6.9,2
		c1.1,0.3,2.1,0.7,3.2,1c0.5,0.1,1.4,0.3,1.8,0.4c1.2,0.4,2.3,0.8,3.5,1.2l0,0.5c1.2,0.2,2.3,0.5,3.5,0.9c1.5,0.6,3.1,1.1,4.7,1.5
		l-0.1,0.5c1.1,0.3,2.3,0.6,3.4,0.9c1.7,0.6,3.4,1.4,5,2.1c1.8,0.5,3.6,1.1,5.1,2.4c0.3-0.1,1-0.3,1.4-0.4l0,1
		c1.7,0.5,3.4,1.1,5.1,1.6l0,1c0.5-0.2,1.4-0.4,1.9-0.6l0.1,1.5c0.5-0.1,1.4-0.3,1.9-0.4l0.2,1.4c0.4-0.1,1.3-0.3,1.8-0.4l0.2,0.9
		c3.1,0.9,6.1,2.3,8.5,4.5c0.3-0.1,1-0.2,1.4-0.3l0.3,1.4c0.5-0.1,1.4-0.3,1.8-0.3l0.2,1.4c0.4-0.1,1.3-0.3,1.7-0.3l0,1.1
		c1.4,0.5,2.8,1,4.3,1.3c0,0.3-0.1,0.9-0.2,1.3c1.7,0.6,3.4,1.3,5.1,1.9c0,0.3,0,0.8,0,1.1c1.3,0.4,2.7,0.8,3.5,2
		c1,0.5,1.9,1.1,2.9,1.6l0.7-0.2l-0.1,1.3c0.5,0,1.5-0.1,1.9-0.2c0,0.4,0.1,1.2,0.1,1.6c1.3,0.4,2.5,1,3.5,1.9
		c1.8,1.3,3.7,2.6,5.5,3.9l-0.1,0.9c0.5-0.1,1.5-0.2,2-0.3c0,0.4,0,1.3,0,1.7c1.1,0.5,2.2,1.1,3.3,1.6c0,0.4-0.2,1.3-0.2,1.7
		c0.5-0.1,1.5-0.1,2-0.2l0,1.4c0.5-0.1,1.4-0.2,1.9-0.3c0,0.5,0.1,1.6,0.1,2.1c0.5,0,1.5,0,2,0c0,0.5,0,1.5,0,2c0.5,0,1.6,0,2.1,0
		c0,0.5-0.1,1.5-0.1,2.1c0.5,0,1.5-0.1,2-0.1c0,0.5-0.1,1.5-0.1,2c0.5,0,1.6,0.2,2.1,0.2c0,0.5-0.1,1.4-0.1,1.8l1.4,0
		c0,0.5-0.1,1.5-0.2,2c0.4-0.1,1.2-0.2,1.6-0.2c0.5,1.1,1.1,2.2,1.7,3.3c0.4,0,1.2-0.1,1.6-0.1c-0.1,0.5-0.2,1.5-0.3,2l1.5,0
		c-0.1,0.5-0.2,1.5-0.3,2c0.5,0,1.5,0.1,2,0.1c-0.1,0.5-0.1,1.5-0.2,2l1.5,0c-0.1,0.4-0.4,1.4-0.6,1.8l1,0.1c1.1,1.5,2.2,3.1,2.7,5
		l0.5-0.1c1.6,3.6,3.5,7.1,5.2,10.7c0,0.2-0.1,0.6-0.1,0.8c0.5,1,0.9,2,1.4,3.1c3.4,9.8,4.2,20.2,3.6,30.5l-0.7,0
		c0,2.2-0.2,4.4-0.8,6.6c-0.2,1-0.4,1.9-0.5,2.9c-0.5,1.7-1,3.4-1.5,5c-0.4,1.1-0.8,2.1-1.3,3.2c0,0.2,0,0.6,0,0.8
		c-1.9,3.5-3.6,7.1-5.3,10.7l-0.7-0.1c-0.1,0.5-0.3,1.6-0.5,2.2c-1.1,1.4-2.2,2.8-3.2,4.3c-1.4,2.1-2.8,4.2-4,6.5c-0.3,0-1,0-1.3,0
		c0,0.5-0.1,1.6-0.1,2.1c-0.5,0-1.6,0-2.1,0c0.1,0.5,0.4,1.4,0.5,1.9l-1.5,0.1c0,0.3,0.1,1,0.1,1.3c-0.9,0.6-1.7,1.3-2.5,2.1
		c-2.5,2.4-4.8,5.1-7.6,7.1c0,0.4,0.1,1.2,0.1,1.6c-0.4-0.1-1.2-0.3-1.6-0.4c-1.9,2.6-4.8,4.1-6.9,6.5c-0.4-0.1-1.1-0.2-1.4-0.2
		c0,0.5-0.1,1.5-0.2,2.1c-0.5,0-1.4-0.1-1.9-0.2l-0.1,1.3c-0.3,0-1-0.1-1.4-0.1c-1.3,1.3-2.7,2.5-4.1,3.5c-1.2,0.5-2.4,1.1-3,2.3
		c-0.4,0-1.1,0-1.5,0l0,1.4c-0.5-0.1-1.4-0.4-1.8-0.5l0,1.4c-0.5,0-1.6-0.1-2.1-0.1c0,0.4,0,1.1,0,1.5c-2.1,0.4-4,1.4-5.4,3
		c-1.6,0.4-3,1.2-4.1,2.6c-0.3-0.1-1-0.3-1.3-0.4l-0.2,1.4c-0.5-0.1-1.4-0.2-1.8-0.3l-0.3,1.3c-0.4-0.1-1.3-0.2-1.8-0.3l-0.2,1.3
		c-0.4-0.1-1.4-0.3-1.8-0.3l-0.1,1c-2.2,0.2-3.8,2.2-6,2.4l-0.1,0.9c-0.4-0.1-1.3-0.2-1.8-0.3l-0.2,1.3c-0.5-0.1-1.4-0.3-1.9-0.4
		l-0.1,1.4c-0.4-0.1-1-0.2-1.4-0.3c-2.6,1.5-5.3,2.6-7.9,4c-1.5,0.5-3.1,1-4.7,1.3l0.1,0.6c-1.7,0.5-3.4,1-5.1,1.5l0.1,0.6
		c-2.3,0.5-4.7,1-6.7,2.4c-0.3-0.1-0.9-0.3-1.2-0.4l0,1.2c-0.8,0-2.3,0-3.1,0l0,0.7c-1.2,0.3-2.4,0.7-3.6,1.1
		c-0.6,0.1-1.8,0.2-2.4,0.3l0,0.9c-0.6,0-1.8,0.1-2.4,0.2c-1,0.4-2,0.8-3.1,1.1c-1.7,0.5-3.4,0.9-5,1.5c-1,0.3-2,0.6-3,0.9
		c-2,0.5-4,1.1-6,1.6c-4.2,1.8-8.9,1.7-13.1,3.5c-1.3,0.2-2.6,0.3-3.9,0.5c-3,0.9-6,1.5-9,2c-2,0.5-4.1,0.9-6.1,1.5
		c-6,0.9-12,1.9-18,2.9c-4.6,0.3-9.2,1.4-13.9,1.7c-3,0.7-6,0.8-9,1c-8.7,1.5-17.5,1.4-26.2,2.3c-11.3,0.4-22.5,0.4-33.8,0.4
		c-7.3-0.3-14.5,0.3-21.8-0.7c-5.4-0.5-11,0-16.4-0.9c-3.1-0.5-6.3-0.5-9.5-0.6l0-0.7c-5.9,0.3-11.6-1.3-17.4-1.5
		c-2.4-0.9-5-0.9-7.5-0.9l-0.1-0.7c-2.2,0-4.5-0.1-6.6-0.8c-3.7-0.4-7.4-1-10.9-2.2c-1.8-0.2-3.7-0.3-5.6-0.3l0.2-0.8
		c-1.5-0.1-3-0.2-4.6-0.3c-1.7-0.6-3.4-1.1-5.1-1.6c-4-0.6-8-1.7-11.9-2.6c-2.3-0.8-4.7-1.5-7-2c-1.7-0.5-3.4-1-5-1.4
		c-2.3-0.5-4.7-1.2-6.9-2.1c-1-0.3-2.1-0.5-3.1-0.8c-1-0.4-2-0.8-3-1.2c-0.5-0.1-1.4-0.3-1.9-0.4c-1.2-0.4-2.4-0.8-3.6-1l0.1-0.7
		c-0.7,0-2-0.1-2.7-0.2c-1.3-0.6-2.5-1.2-3.8-1.7c-1.6-0.5-3.1-0.9-4.7-1.4l0-0.4c-1.3-0.3-2.5-0.8-3.7-1.4
		c-0.3,0.1-0.9,0.3-1.2,0.4l-0.1-1c-1.3-0.4-2.5-0.9-3.8-1.4c-0.2,0-0.5,0-0.6,0c-1.2-0.5-2.4-1-3.7-1.3l-0.1-0.9
		c-0.4,0.1-1.3,0.3-1.8,0.5l-0.3-1.4c-0.5,0.1-1.4,0.3-1.9,0.4l-0.2-1.4c-0.4,0.1-1.3,0.4-1.8,0.5l-0.1-0.9c-2.4-0.7-4.6-2-7-2.7
		l-0.1-0.9c-0.4,0.1-1.3,0.3-1.8,0.4l-0.1-1.4c-0.4,0.1-1.1,0.2-1.4,0.3c-1-0.7-2-1.5-3-2.2c-0.3,0.1-1,0.2-1.3,0.3l-0.1-1.2
		l-1.2,0.2l0-0.7c-3.2-1.7-6.8-3.1-9.5-5.6c-0.3,0.1-1,0.4-1.3,0.5l0-1.4l-1.3,0.1l0.1-1.4c-0.5,0.2-1.4,0.6-1.9,0.8l0.2-1.2
		c-1.1-0.5-2.3-1-3.4-1.5l0.2-0.5c-1.6-0.8-3.1-1.8-4.6-2.8c-1.4-1-2.8-2.1-4-3.4c-0.2,0-0.7,0-1,0c-1.7-2.1-4.2-3.3-5.9-5.4
		c-0.3,0.1-1.1,0.2-1.4,0.3c0-0.5-0.1-1.5-0.1-2c-0.5,0-1.5,0-2,0c0-0.5-0.1-1.4-0.1-1.9c-0.5,0-1.5,0-2-0.1c0-0.5,0-1.4,0-1.9
		c-0.5,0-1.5-0.1-2-0.1c0-0.4,0-1.2,0-1.5c-1.8-0.7-3.5-1.8-4.3-3.6l-0.8,0c0.1-0.5,0.2-1.4,0.3-1.9c-0.5,0-1.5,0.1-2,0.1l0-1.2
		l-1.3,0c0.1-0.5,0.2-1.5,0.3-2c-0.5,0-1.6,0-2.1,0c0-0.5,0-1.5,0-2c-0.4,0-1.1,0-1.4-0.1c-1.2-2.2-2.6-4.4-4.1-6.4
		c-1.9-2.3-3.9-4.7-4.7-7.6l-1,0.1c0.1-0.5,0.4-1.4,0.6-1.9l-1.5,0.2l0.4-1.4l-1,0.2c-0.4-2-1-4-2.3-5.7c0-0.2,0.1-0.6,0.1-0.8
		c-0.6-1.4-1.3-2.7-1.9-4.1c-0.5-2.1-1.2-4.1-1.9-6.1c-0.3-1.4-0.6-2.7-1-4.1c-0.2-2.3-0.3-4.7-1-7c-0.3-4.5-0.1-8.9-0.1-13.4h0.7
		c0.1-2.1,0.2-4.3,0.5-6.4c0.4-1.5,0.7-3.1,0.9-4.6l0.7,0c0.1-0.6,0.2-1.8,0.2-2.4c0.4-1,0.7-2,1.1-3.1c0.8-1.7,1.4-3.4,1.9-5.1
		c1.5-3,2.9-6.2,4.9-8.9c0-0.2-0.1-0.7-0.2-0.9c0.4-0.5,1.2-1.5,1.6-2c1-1.3,2-2.7,3-4c1.5-2.1,2.8-4.3,4.8-5.9
		c-0.1-0.4-0.2-1.1-0.2-1.4c0.5,0,1.5-0.1,2-0.1c0-0.5,0-1.5,0-2c0.5,0,1.5-0.1,2-0.1c0-0.5-0.1-1.4-0.1-1.9l1.3,0.1l0-1.3
		c0.5,0.1,1.4,0.2,1.9,0.2c-0.1-0.5-0.2-1.5-0.2-2l1.3,0l-0.1-1.3c0.5,0.1,1.5,0.2,1.9,0.3c0-0.4,0-1.2-0.1-1.6
		c3.6-2.4,6.3-5.9,9.6-8.6c0.4,0.1,1.1,0.2,1.5,0.2c0-0.4,0-1.2,0-1.6c2.5-1,4.5-2.9,6.5-4.6c0.2,0,0.7,0.1,0.9,0.1
		c1.1-1.4,2.5-2.4,3.9-3.4c1.9-1,3.8-2,5.2-3.7c0.3,0.1,0.8,0.4,1,0.6c0.5-0.7,1.4-2,1.8-2.6c0.4,0.1,1.1,0.3,1.5,0.5l0.3-1.4
		c0.4,0.1,1.3,0.3,1.8,0.4l-0.1-0.9c1.8-0.8,3.4-1.9,5.2-2.6l0.1-0.9c0.4,0.1,1.3,0.2,1.8,0.3l0.2-1.3c0.5,0.1,1.4,0.3,1.9,0.3
		l0.1-1.3c0.5,0.1,1.4,0.3,1.9,0.4l-0.1-1.3l1.3,0.2l-0.1-1.4c0.5,0.2,1.4,0.5,1.8,0.7l0-1.1c4-0.7,7.1-3.7,11-4.6l0.1-1
		c0.3,0.1,1,0.3,1.3,0.3c1.7-1.2,3.6-1.9,5.7-2.3l0-1.1c0.4,0.2,1.3,0.5,1.8,0.7l0-1.1c1.7-0.5,3.4-1,5.1-1.4l0-0.8c0.8,0,2.3,0,3,0
		l0-1.2c0.3,0.1,0.9,0.2,1.2,0.2c1.2-0.5,2.5-1,3.8-1.3l0-0.7c0.7,0,2.2,0,2.9,0l0-0.8c1.2-0.2,2.4-0.5,3.5-0.9c1-0.4,2-0.8,3-1.2
		c0.5-0.1,1.4-0.3,1.9-0.4c1.2-0.4,2.4-0.7,3.6-1l-0.1-0.5c2.6-0.4,5.1-1.1,7.5-2c1-0.3,2-0.6,3-0.9c3.5-0.8,6.9-2,10.5-2.5
		l-0.1-0.5c3-0.4,6-1.1,9-1.4l0-0.7c1.3,0,2.7-0.1,4-0.1l0-0.7c1.5-0.3,3.1-0.6,4.6-1c1.8-0.2,3.6-0.4,5.5-0.4l-0.1-0.6
		c1.5-0.2,3.1-0.5,4.6-0.8c6-1.2,12-2,18-3.1c2.1-0.3,4.3-0.4,6.4-0.4l0-0.7c2.8,0,5.6-0.2,8.5-0.4c3.2-0.9,6.6-0.7,9.9-1
		c3.3-1,6.9-0.5,10.2-1.3C253.1,19.3,258.1,19.9,263.1,18.8 M102.5,90.6l0,0.7c-2.7,0.1-5.3,0.2-8,0.3l0,0.7
		c-3.1,0.1-6.1,0.8-9.1,1.4l0.1,0.7c-1.2,0-2.3,0.1-3.5,0.2c-1.3,0.7-2.7,1.3-4.1,1.8c-0.6,0-1.9,0.1-2.5,0.1l0,1.3
		c-0.4-0.2-1.3-0.5-1.8-0.7l0,1.1c-1.6,0.5-3.2,1-4.7,1.6c-1.2,1.9-3.4,2.4-5.4,2.9c0,0.4,0,1.2,0,1.6c-0.5,0-1.5,0-2,0l0.1,1.2
		l-1.2-0.1l0,1.3c-0.5-0.1-1.4-0.2-1.8-0.2c0,0.5,0,1.5,0,2c-0.4,0-1.2,0.1-1.5,0.1c-0.4,0.6-1.1,1.8-1.5,2.5c0,0.2-0.1,0.6-0.2,0.8
		c-2.3,1.9-3.2,4.9-4.1,7.7l-0.5,0c-0.3,1.2-0.7,2.4-1,3.6c-0.2,3-0.9,6-0.6,9.1c0.2,3,0,6.1,1.1,8.9c0.1,0.5,0.2,1.5,0.3,2
		c1.3,2.1,2.5,4.2,3.5,6.5c0.3,0,1-0.1,1.3-0.1c0.1,0.5,0.2,1.6,0.3,2.2c0.5,0,1.6,0,2.1,0c-0.1,0.4-0.4,1.2-0.5,1.6
		c1.1,0.7,2.2,1.2,3.4,1.7c0,0.4,0,1.2,0,1.6c0.5,0,1.5-0.1,2-0.2l0.1,1.3c0.5-0.1,1.4-0.2,1.8-0.3l0.2,1.3c0.3-0.1,1-0.2,1.3-0.3
		c1.5,1.2,3.3,1.8,5.1,2.3c1.3,0.5,2.6,1.1,3.8,1.6c2.2,0.5,4.4,1,6.6,1.4l-0.1,0.7c1.3,0,2.7,0.1,4,0.1l-0.1,0.8
		c8.2,0.5,16.3,2.3,24.5,2.5c3.8,1,7.7,0.7,11.6,0.8v0.7c3.5,0,7,0.1,10.4,0.5c2.7,0.7,5.7,0.3,8.3,1.6c0.3-0.1,0.9-0.3,1.3-0.4
		l0.1,1.5c0.5-0.1,1.4-0.3,1.8-0.4c1.2,2.3,1.3,4.8,1.3,7.3h-1.4c0.1,0.5,0.2,1.4,0.3,1.8c-0.8,0.1-2.3,0.2-3.1,0.3v1.3
		c-0.3-0.1-0.9-0.3-1.2-0.4c-2.6,1.3-5.5,1-8.2,1.1c-4.7,0-9.9,0.5-14.1-2.1c-0.3,0.1-0.9,0.3-1.2,0.3l-0.1-1.1
		c-1.3-0.5-2.6-1.1-3.9-1.6c-0.1-0.6-0.2-1.8-0.2-2.4c-2.4-0.7-4.9-1.2-7.4-1.1c-18.5,0-37.1,0-55.6-0.1c0,2.5,0.1,5.1,0.7,7.5
		c0.5,1.7,1.1,3.4,1.7,5.1c0.4,1.1,0.8,2.3,1.1,3.5c0.4,0,1.2-0.1,1.6-0.1c0,0.5-0.1,1.5-0.2,2l1.4,0c0,0.5-0.2,1.5-0.2,2
		c0.5,0,1.5,0,2,0c0,0.4,0,1.2,0,1.6c1.3,0.9,2.5,1.9,3.6,3c1.4,1,2.8,2.1,4,3.3c0.3,0,1.1,0,1.4,0l0.1,1.3c0.5-0.1,1.4-0.3,1.8-0.4
		l0.1,1.4c0.5-0.1,1.4-0.2,1.8-0.3l0.2,1.4c0.3-0.1,1-0.2,1.3-0.3c1.4,0.8,2.8,1.5,4.2,2.2c0.2-0.1,0.6-0.2,0.8-0.2
		c1,0.5,2,0.9,3.1,1.4c1.7,0.3,3.3,0.6,5,0.9c1.7,0.5,3.4,1,5.2,1.5c5.3,0.6,10.5,1.5,15.8,1.6c7,1.2,14.1,0.4,21.1,0.7
		c6,0.3,11.9-1.1,17.9-1.3c2.3-0.6,4.7-0.9,7.1-1.1c1.6-0.4,3.3-0.7,4.9-1c5.8-1.2,11.5-2.9,17.2-4.9c1.4-0.5,2.8-1.1,4.1-1.9
		c0.3,0.1,0.9,0.3,1.2,0.4l0-1c3-1.1,5.3-3.3,8.1-4.7c0.1-0.4,0.2-1.2,0.2-1.5c0.5,0.1,1.4,0.2,1.9,0.2l-0.2-1.4l1.4,0.3l-0.5-1.1
		l1.3,0.2l-0.1-1.3l0.7,0.3c1.9-2.4,3.4-5.2,5.4-7.6c-0.1-0.2-0.2-0.6-0.2-0.8c3.3-6.5,3.5-14.1,1.8-21.1c-0.5-1.5-0.8-3.1-1-4.6
		l-1.1,0c0.1-0.4,0.4-1.3,0.5-1.8l-1.4-0.2c0.1-0.4,0.3-1.4,0.3-1.8l-1.3-0.2c0-0.3,0.1-1,0.1-1.4c-1.7-1.5-3-3.4-4.5-5
		c-0.4-0.2-1.2-0.6-1.6-0.9l0.2-0.9c-0.5,0.1-1.4,0.2-1.9,0.2c-0.1-0.5-0.2-1.6-0.2-2.1c-0.5,0.1-1.5,0.3-1.9,0.4l0.3-1.3l-1.3,0.2
		l0-0.8c-0.6-0.3-1.9-1-2.6-1.3c-0.2,0-0.6,0-0.8,0c-1.7-1.2-3.6-2-5.7-2.3l0.3-0.5c-2.7-0.6-5.4-1.2-8.2-1.5l0.1-0.5
		c-1.6-0.2-3.1-0.4-4.7-0.9c-6.9-1.3-14-2-21-3c-5-0.6-10.1,0.1-15-0.9c-4.6-0.2-9.3-0.8-13.8-1.6c-2.7-0.7-5.2-1.7-7.7-2.9l0.1-0.9
		c-0.5,0-1.6,0.1-2.2,0.1c0.1-0.5,0.3-1.5,0.3-2l-1.2,0c0.4-1.6,0.9-3.2,1.3-4.8c0.6-0.3,1.8-1,2.4-1.4c0.3,0.1,1,0.3,1.3,0.3l0-1.2
		c1.7-0.1,3.3-0.2,5-0.2l0.1-0.7c6.4-0.2,12.9,0.2,19.1,2.1l-0.1,1.1c0.5-0.2,1.4-0.6,1.9-0.8l0.1,1.5c0.5,0,1.6-0.1,2.1-0.2
		c0,0.5-0.1,1.6-0.1,2.1c0.5,0,1.4-0.1,1.9-0.1c0,0.6,0.1,1.7,0.2,2.2c0.5-0.1,1.5-0.3,2-0.4l-0.2,1.2c18.8-0.1,37.5,0,56.3,0
		c0.3-3.7,0-7.4-1.3-10.9l-1.1-0.1c0.1-0.3,0.3-1.1,0.4-1.4c-1.5-2.2-3-4.3-4.4-6.5c-0.6-0.6-1.1-1.1-1.7-1.7
		c-3.9-2.8-7.6-5.9-12.1-7.7l-0.1-0.9c-0.3,0.1-1,0.3-1.3,0.4c-1.3-0.7-2.6-1.4-4-1.9c-1-0.3-2-0.6-3-0.9
		c-5.4-1.7-10.9-3.2-16.6-3.4l0-0.7c-2.6-0.1-5.3-0.2-7.9-0.3l-0.1-0.7C128.5,90.2,115.5,90.2,102.5,90.6 M208.4,93.4
		c-0.2,1.2-0.4,2.5-0.6,3.7c0.6,7.3,0.2,14.7,0,22c0.7,6.9,0.3,13.9,0.4,20.8c-0.1,5.3,0.3,10.7-0.3,16c0.9,4.4-0.5,8.8,0,13.2
		c0.4,3.6,0.5,7.3,0,10.9c-0.1,2.6,0.1,5.2,0.1,7.8c-0.2,1.4-0.3,2.9-0.5,4.3l0.7,0.7c-0.1,2.1-0.1,4.1-0.1,6.2
		c-0.8,4.4-0.2,8.9,0.3,13.4c14.7,0,29.4,0,44.1,0c0.2-5.6,0.2-11.3,0-16.9l0.8,0c-0.7-4.7-0.9-9.4-0.8-14.1l2.5-0.4l-2.5-0.4
		c0.2-5.4-0.5-10.8,0.9-16.1h-1c1.3-5.1,0.4-10.5,1.4-15.7c0.3,1.3,0.5,2.6,0.7,3.9c0.4-0.1,1.3-0.2,1.7-0.3
		c0.1,0.6,0.2,1.7,0.3,2.3c0.5,0,1.5-0.1,2-0.1c-0.1,0.5-0.3,1.4-0.4,1.9h1.5c0,0.4,0,1.2,0,1.5c1.8,1.1,3.2,2.6,4.2,4.4l0.8,0.1
		c0,0.5-0.1,1.4-0.1,1.9c0.4,0,1.2,0,1.6,0c0.5,1,1,1.9,1.6,2.9c0.3,0.4,0.8,1,1.1,1.4l0.9-0.2c-0.1,0.5-0.2,1.5-0.3,1.9
		c0.5,0,1.5,0,2,0.1c0,0.5,0.1,1.6,0.1,2.1c0.5,0,1.4-0.1,1.8-0.2c0.1,0.8,0.2,2.4,0.2,3.2c0.4-0.1,1.3-0.2,1.8-0.3l0,1.3l1.3-0.1
		c0,0.4-0.1,1-0.1,1.4c1.3,1.2,2.4,2.6,3.5,4c4.4,4.9,8.3,10.3,12.7,15.3c0.3,0.4,0.8,1.1,1.1,1.5l0.9-0.1c-0.1,0.5-0.2,1.4-0.3,1.8
		c0.5,0,1.5,0.1,2,0.1c0,0.5,0,1.4-0.1,1.9l1.4,0.1c0,0.5-0.2,1.4-0.2,1.9c0.5,0,1.6,0,2.1,0c0,0.5-0.1,1.6-0.1,2.1c0.5,0,1.5,0,2,0
		c0,0.5,0,1.5-0.1,1.9c0.5,0,1.6,0.1,2.1,0.1c0,0.5-0.1,1.4-0.2,1.9l1.3,0.1c-0.1,0.4-0.2,1.3-0.2,1.8c16.7,0.1,33.4,0,50.1,0
		c0.2-39.7,0-79.3,0.1-119c-8.6-0.4-17.2-0.9-25.8-0.2c-5.3,0.6-10.5-0.8-15.8-0.4c-1.3,0.3-2.5,0.5-3.8,0.7c0,2.7,0,5.4,0,8.1
		l-2.7,0.4l2.7,0.4c0.1,6.6-0.9,13.1-0.5,19.7c-0.1,1.5-0.1,3-0.2,4.6l2.7,0.4l-2.6,0.4c0.1,5.7,0.1,11.4,0,17.1l0.7,0
		c0,1.7,0,3.3,0,5l-0.8,0l0.2,1.2l-0.7-0.2c-0.3,0.4-0.8,1.1-1,1.4c-0.6-0.8-1.2-1.6-1.8-2.4l-0.8-0.1c0-0.5,0.1-1.5,0.1-2
		c-0.4,0-1.2,0.1-1.6,0.2c-0.6-1.1-1.1-2.2-1.6-3.3c-0.4,0-1.2,0.1-1.6,0.1c0-0.5,0-1.5,0.1-2l-1.4,0c0.1-0.5,0.2-1.4,0.3-1.9
		c-0.5-0.1-1.6-0.2-2.1-0.2c0.1-0.4,0.2-1.1,0.2-1.4c-2-2-4-4.1-5.5-6.5l-0.9,0c0.1-0.5,0.3-1.4,0.3-1.8c-0.5,0-1.6-0.1-2.1-0.1
		c0-0.4,0.2-1.2,0.2-1.6c-0.4-0.3-1.3-0.9-1.7-1.2c-0.2-0.4-0.5-1.1-0.7-1.5l-1,0.3c0.1-0.5,0.2-1.5,0.2-2c-0.4,0-1.1,0-1.4,0
		c-0.6-1.1-1.4-2-2.5-2.7c0-0.3,0.1-1,0.2-1.3l-1.5-0.1c0-0.5,0.1-1.4,0.1-1.9c-0.4,0-1.1-0.1-1.4-0.1c-1.3-2.5-3.8-4.2-4.9-6.9
		c-0.4,0-1.2,0-1.7,0c0-0.5,0-1.5,0.1-2l-1.3-0.1c0.1-0.5,0.2-1.3,0.3-1.8c-0.5,0-1.6-0.1-2.1-0.1c0-0.5,0.1-1.5,0.1-2.1
		c-0.4,0-1.1,0-1.4,0c-1.2-2.7-3.5-4.7-5-7.2l-0.9,0.7l0.5-1.5c-0.4,0-1.1-0.1-1.5-0.1l0.3-1.8c-0.5-0.1-1.6-0.1-2.1-0.2
		c0-0.5,0-1.4,0-1.9C242.5,93.2,225.5,93.5,208.4,93.4 M371.4,93.4c0,39.6-0.1,79.3,0,119c15.5,0,30.9,0,46.4,0
		c-0.1-0.5-0.4-1.4-0.5-1.9l1.2,0.1c-0.2-14.1-0.1-28.2,0-42.2c8.7-0.1,17.3-0.1,26,0.1c0,0.5,0,1.5,0,2l1.3,0
		c0,0.5-0.1,1.6-0.1,2.1c0.4,0,1.3-0.1,1.7-0.1c0.1,0.6,0.3,1.9,0.3,2.5c1.5,1.4,2.5,3.2,3.4,5c1,1.4,2.1,2.9,3.4,4.1
		c0,0.4,0,1.1-0.1,1.5l1.5-0.1c-0.1,0.5-0.3,1.4-0.4,1.9l1.3,0.2c0,0.3,0,1,0,1.3c1.2,1.3,2.3,2.7,3.3,4.1
		c3.2,6.1,7.9,11.3,10.9,17.4l0.9,0c0,0.5-0.1,1.4-0.1,1.9c17.8,0.4,35.7,0.2,53.5,0.1c-0.6-0.9-1.1-1.8-1.7-2.7
		c0.1-0.2,0.2-0.6,0.3-0.8c-1.5-1.2-2.3-2.9-2.6-4.7c-0.3,0-0.8,0.1-1,0.1c-1-2.1-2-4-3.1-6.1c-0.3,0-0.8,0.1-1,0.1
		c-0.9-4.2-4.7-6.9-5.9-11c-0.3,0-0.9,0-1.2,0c-0.7-3-3-5.1-3.9-8c-0.3,0-0.8,0.1-1,0.1c-0.4-1.5-0.8-3-2.3-3.8c0-0.3,0-1,0-1.3
		l-1.3-0.1c0.1-0.4,0.3-1.4,0.4-1.8l-1.4-0.2c0.1-0.4,0.2-1.3,0.3-1.8l-1.3-0.1c0-0.5,0.1-1.4,0.1-1.9c-0.5,0-1.4-0.1-1.9-0.1
		c0-0.8,0-2.3,0-3.1c-0.6-0.1-1.8-0.3-2.4-0.4c0.9-0.1,2.6-0.4,3.5-0.5l-0.1-0.7c2.2-0.5,4.5-1.1,6.6-2.1l0.6-0.1l-0.1-1.2
		c0.5,0.1,1.3,0.3,1.8,0.4l0.3-1.4c0.5,0.1,1.4,0.2,1.8,0.3l0-1.4c0.5,0.1,1.5,0.2,1.9,0.3c0-0.5,0-1.5,0-2.1c0.4,0,1.2,0,1.6,0
		c0.5-1.1,1.3-1.9,2.4-2.6c0-0.3-0.1-1-0.2-1.4l1.2,0.1l0.1-0.6c0.3-0.6,0.9-1.9,1.2-2.5l0.9-0.1c-0.1-0.4-0.3-1.3-0.3-1.8l1.3-0.3
		c-0.1-0.5-0.2-1.4-0.3-1.8l1.3-0.2c0-0.3-0.1-0.9-0.1-1.2c1.4-3.6,1.9-7.4,2.1-11.2c0-5.1,0.3-10.3-2-15c-0.1-0.6-0.2-1.8-0.2-2.4
		l-0.9,0c-0.1-0.6-0.2-1.8-0.3-2.4c-1-1.3-2-2.7-3-4.1c0-0.4,0.2-1.1,0.2-1.5c-0.5,0-1.6,0-2.1,0c0-0.4,0.1-1.1,0.1-1.4
		c-1.5-0.9-2.7-2.2-3.6-3.7c-0.3,0.1-1,0.4-1.3,0.5l0.1-1.2c-1.1-0.5-2.3-1-3.4-1.5l0.2-1.1c-0.5,0.2-1.4,0.5-1.8,0.7l-0.2-1.5
		c-0.5,0.1-1.4,0.3-1.9,0.3l-0.2-1.4c-0.4,0.1-1.4,0.4-1.8,0.5l0-1c-1.3-0.4-2.5-0.7-3.7-1.2c-0.6-0.1-1.8-0.2-2.4-0.3v-0.7
		c-1.9-0.1-3.8-0.3-5.6-0.9c-4.6-0.5-9.3-0.4-13.9-0.4C439.8,93.4,405.6,93.3,371.4,93.4z"/>
	<path fill="#F9F403" d="M418.5,123.1c0.5,0.2,1.5,0.5,2,0.7l-0.1-1.2c14.8,0.2,29.7-0.1,44.5,0.2c1.2,0.3,2.5,0.6,3.7,0.9l-0.1,1.1
		c0.4-0.1,1.2-0.2,1.6-0.3c0.4,1.2,0.8,2.4,1.3,3.6c0,1.5,0.1,3,0.1,4.5l-0.9-0.2c0,0.8-0.1,2.4-0.2,3.1c-0.5-0.1-1.4-0.3-1.8-0.4
		l0,1.2c-2,0.5-5.5-0.7-5.8,2.4l0-2.1c-3.4-0.1-6.7,0.2-10,0.5l-1-1.9l0,2.3c-3.1,0.1-6.8-1.9-9.7,0.1c-0.4-0.2-1.3-0.6-1.8-0.8
		c-6.6-0.1-13.2-0.3-19.7,0.7l-0.1-1.1c-0.5,0.1-1.5,0.3-1.9,0.4C418.4,132.3,418.3,127.7,418.5,123.1z"/>
</g>
</svg>
