<?xml version="1.0" encoding="utf-8"?>
<!-- Generator: Adobe Illustrator 18.0.0, SVG Export Plug-In . SVG Version: 6.00 Build 0)  -->
<!DOCTYPE svg PUBLIC "-//W3C//DTD SVG 1.1//EN" "http://www.w3.org/Graphics/SVG/1.1/DTD/svg11.dtd">
<svg version="1.1" id="Layer_1" xmlns="http://www.w3.org/2000/svg" xmlns:xlink="http://www.w3.org/1999/xlink" x="0px" y="0px"
	 viewBox="26.3 14.9 747.1 170.3" enable-background="new 26.3 14.9 747.1 170.3" xml:space="preserve">
<g>
	<path d="M248.1,16c10.6-1.6,21.3-0.8,31.9-1c8.6,0,17.8,0.6,25.3,5.1c4.7,2.8,7.9,7.8,8.5,13.3c1,6.4-0.9,12.8-2,19
		c-11,0-22,0-33,0c0.3-2.7,1.4-5.9-0.3-8.4c-2.3-2-5.6-1.8-8.5-1.9c-4.8,0.2-9.8-0.5-14.5,0.8c-4.6,1.7-4.8,7.3-5.4,11.4
		c0,2.6,2.8,3.6,4.9,3.8c10.3,1.5,20.7,2.3,31,3.7c6.8,1.2,14,3.4,18.6,8.9c4.2,5.1,5,12.2,3.8,18.4c-1.7,9.1-2.6,18.8-7.8,26.8
		c-7.3,12-21.8,18.3-35.5,18.1c-12-0.2-24.1,0.6-36.1-0.6c-8.9-1-19.1-4.1-23.2-12.8c-3.6-8.4-0.2-17.7,1.1-26.3c11,0,22.1,0,33.1,0
		c-0.4,2.7-1.4,5.7-0.1,8.4c1.1,2.3,3.7,3.3,6.1,3.5c5.1,0.5,10.2,0.4,15.3,0.2c4.1-0.2,9-1.7,10.3-6.1c0.6-2.8,1.7-5.8,1.1-8.8
		c-1-2.6-4.1-2.9-6.4-3.3c-10.3-1.3-20.6-2.1-30.8-3.4c-7-1.1-14.5-4-18.1-10.5c-4.1-7.3-2.8-16.1-1-23.9
		c1.7-9.9,5.5-19.9,13.2-26.7C234.4,19.1,241.4,17.1,248.1,16z"/>
	<g>
		<path d="M358,16.4c16.8,0,33.7,0,50.5,0c3.8,38.8,7.5,77.6,11.3,116.3c-12.3,0-24.6,0-37,0c-0.5-6.6-1-13.2-1.5-19.8
			c-11.4,0-22.7,0-34.1,0c-3,6.6-6,13.2-9.1,19.8c-12.3,0-24.6,0-37,0C320.2,94,339.1,55.2,358,16.4z M358.9,86.8
			c7.1,0,14.2,0,21.3,0c-0.7-14.6-1.5-29.2-2.3-43.8C371.5,57.6,365.2,72.2,358.9,86.8z"/>
	</g>
	<g>
		<path d="M448,16.4c19.3,0,38.7,0,58,0c9.4,0,19.2,0.3,28,4.1c7.5,2.9,12.2,10.5,13.3,18.2c2,13.1-2.1,26.1-4.2,39
			c-2.7,15.1-5.8,31.5-17,42.9c-9.8,9.5-24,11.7-37.1,12.1c-21.1,0.1-42.2,0-63.3,0C433.1,94,440.6,55.2,448,16.4z M477.1,44.7
			c-3.8,19.9-7.6,39.8-11.5,59.7c7.8-0.1,15.7,0.1,23.5-0.1c5.1-0.2,11.4-1.7,13.7-6.9c3.3-7.6,4.2-15.9,6-23.9
			c1.1-6.3,2.8-12.6,3.1-19.1c0.1-3-0.7-6.6-3.6-8.2c-2.9-1.3-6.1-1.5-9.2-1.5C491.7,44.7,484.4,44.8,477.1,44.7z"/>
	</g>
	<g>
		<path d="M535,132.8c18.9-38.8,37.8-77.6,56.7-116.3c16.8,0,33.7,0,50.5,0c3.8,38.8,7.5,77.6,11.3,116.3c-12.3,0-24.6,0-36.9,0
			c-0.5-6.6-1-13.2-1.5-19.8c-11.4,0-22.7,0-34.1,0c-3,6.6-6,13.2-9,19.8C559.6,132.8,547.3,132.8,535,132.8z M592.5,86.8
			c7.1,0,14.2,0,21.3,0c-0.8-14.6-1.5-29.2-2.2-43.8C605.2,57.6,598.9,72.2,592.5,86.8z"/>
	</g>
	<g>
		<path d="M659.4,132.8c7.4-38.8,14.8-77.6,22.3-116.3c17.1,0,34.2,0,51.3,0c8,0.2,16,0.5,23.8,2.5c5.8,1.5,11.5,5,14.3,10.5
			c3,5.9,2.5,12.7,1.3,19c-1.6,8-2.4,16.6-7.1,23.6c-3.7,5.9-9.9,9.9-16.5,12c3.8,1.4,7.5,3.4,9.9,6.7c3.3,4.5,3.5,10.4,2.5,15.7
			c-1.5,8.8-3.3,17.6-5,26.4c-11.7,0-23.3,0-35,0c1.5-8.1,3.3-16.1,4.5-24.2c0.7-3.5-0.8-7.9-4.8-8.4c-6.9-1.2-14-0.3-21-0.6
			c-2.1,11-4.2,22.1-6.3,33.1C682.3,132.8,670.9,132.8,659.4,132.8z M705.6,71c7.4-0.3,15,0.8,22.3-0.8c4.6-0.9,6.9-5.6,7.5-9.8
			c0.6-4.1,2.2-8.5,0.4-12.6c-1.3-2.6-4.4-2.8-6.9-3c-6-0.2-12.1,0-18.1-0.1C709,53.5,707.3,62.2,705.6,71z"/>
	</g>
	<g>
		<path d="M299.5,150.3c5.2-1,10.8-1.1,16,0c3.7,0.8,5.3,4.8,5,8.2c-0.3,5-1.6,9.9-2.7,14.8c-1.1,4.8-3.9,9.9-9.2,11.1
			c-5.4,1.1-11.1,1.2-16.5,0c-4.6-1.1-5.2-6.8-4.4-10.7c1.2-5.9,1.7-12.2,4.6-17.7C293.7,153.1,296.5,151,299.5,150.3z M300.6,158.2
			c-1.9,1.8-2.1,4.7-2.7,7.1c-0.5,3.4-1.8,6.7-1.6,10.1c0.5,2.6,3.7,2.3,5.7,2.4c2.5,0,6-0.4,6.8-3.3c1.4-3.9,1.9-8,2.8-12.1
			c0.3-1.7,0.6-4.4-1.5-5C306.9,156.7,303.4,156.6,300.6,158.2z"/>
	</g>
	<path d="M436.4,153.9c3.2-3.5,8.1-4.4,12.7-4.3c4.3-0.1,9.4-0.1,12.4,3.6c1.7,1.9,1.4,4.6,1.3,7c-2.7,0.1-5.5,0.1-8.2,0.1
		c-1.1-3.8-5.4-3.4-8.5-3.2c-1.9,0.2-4.1,0.7-4.8,2.7c-1.5,3.8-2,7.8-2.8,11.8c-0.3,1.9-0.9,4.4,0.9,5.7c3.1,0.8,6.4,0.7,9.5,0.1
		c2.3-0.7,2.6-3.5,3.3-5.4c-1.8,0-3.6-0.1-5.5-0.1c0.4-1.9,0.8-3.8,1.2-5.7c4.5,0,8.9,0,13.4,0c-1.1,5.2-1.8,11-5.5,15.1
		c-3.3,3.4-8.3,4-12.8,3.9c-3.5-0.1-7.6,0.5-10.6-2c-3.1-2.9-3-7.6-2.3-11.5C431.3,165.5,432.1,158.8,436.4,153.9z"/>
	<g>
		<path d="M527.8,150c4.5,0,9,0,13.5,0c0.8,11.5,1.6,23.1,2.4,34.6c-3,0-5.9,0-8.9,0c-0.1-2.1-0.2-4.1-0.3-6.2c-3.9,0-7.8,0-11.7,0
			c-0.9,2.1-1.9,4.1-2.8,6.2c-3,0-6,0-8.9,0C516.7,173.1,522.3,161.6,527.8,150z M531.5,158.9c-1.9,4.4-3.9,8.9-5.8,13.3
			c2.9,0,5.9,0,8.8,0c-0.2-5.4-0.2-10.9-0.6-16.3C532.7,156.6,532,157.7,531.5,158.9z"/>
	</g>
	<g>
		<path d="M611.5,150.3c5.4-0.9,11.2-1.2,16.6,0.3c4.9,1.7,4.7,7.8,3.8,12c-1.4,6.2-1.8,13-5.7,18.3c-4,4.8-10.8,4.4-16.4,4.3
			c-3.7-0.1-8.7-0.6-9.9-4.8c-1.5-5.6,0.8-11.3,1.7-16.8C602.7,158,605.4,151.5,611.5,150.3z M612.5,158.2c-1.9,1.9-2.1,4.8-2.7,7.3
			c-0.5,3.3-1.7,6.5-1.5,9.9c0.5,2.6,3.7,2.3,5.7,2.4c2.6,0,6.1-0.5,6.8-3.5c1.3-4.2,2-8.5,2.8-12.9c0.2-1.4,0.1-3.6-1.6-4
			C618.9,156.7,615.4,156.6,612.5,158.2z"/>
	</g>
	<path d="M728.5,151.2c3.5-1.9,7.6-1.6,11.5-1.6c3.3,0.1,7-0.1,9.6,2.3c2,2.1,1.3,5.1,0.9,7.6c-2.6,0-5.1,0-7.7,0
		c-0.2-4.1-4.9-3.4-7.8-3.1c-2.8,0.3-4.1,4.4-2.6,6.5c4.6,1.4,9.9,0.4,14.3,2.8c2.5,1.5,2.8,4.8,2.1,7.4c-0.6,4.1-2.2,8.5-6,10.5
		c-3.9,2.2-8.6,1.4-12.8,1.5c-3.1-0.1-6.8,0-9-2.6c-1.9-2.2-0.9-5.3-0.6-7.9c2.6,0,5.1,0,7.7,0c0.3,1.6,0.7,3.9,2.9,3.7
		c2.8-0.1,7.2,1.1,8.7-2.2c0.4-1.6,1.5-3.9-0.3-4.9c-4.2-1.3-8.7-0.7-12.8-2.2c-2.6-0.9-3.7-4-3.3-6.5
		C723.7,158.3,724.8,153.7,728.5,151.2z"/>
	<g>
		<path d="M204.4,150c4.5,0,9,0,13.5,0c0.8,11.5,1.6,23.1,2.4,34.6c-3,0-5.9,0-8.9,0c-0.1-2.1-0.2-4.1-0.3-6.2c-3.9,0-7.8,0-11.7,0
			c-0.9,2.1-1.9,4.1-2.8,6.2c-3,0-6,0-8.9,0C193.3,173.1,198.9,161.6,204.4,150z M208.2,158.6c-2,4.5-4,9-6,13.5c2.9,0,5.9,0,8.8,0
			c-0.2-5.4-0.1-10.9-0.6-16.4C209.4,156.6,208.6,157.5,208.2,158.6z"/>
	</g>
	<path d="M239.1,150c4.2,0,8.5,0,12.7,0c0.8,8.5,1.6,17,2.4,25.4c4.2-8.5,8.4-16.9,12.6-25.4c4.2,0,8.5,0,12.7,0
		c-2.3,11.5-4.7,23.1-7,34.6c-2.7,0-5.5,0-8.2,0c1.7-8.5,3.5-17.1,5.2-25.6c-4.3,8.5-8.6,17.1-13,25.6c-2.8,0-5.7,0-8.5,0
		c-0.9-8.6-1.7-17.2-2.6-25.8c-1.8,8.6-3.5,17.2-5.3,25.8c-2.7,0-5.4,0-8.1,0C234.4,173.1,236.7,161.6,239.1,150z"/>
	<g>
		<path d="M335.6,150c6.8,0.2,13.6-0.5,20.4,0.5c2.8,0.4,5.2,2.9,5,5.8c-0.3,3.5-0.7,7.3-2.8,10.3c-1.4,2.1-4,2.7-6.2,3.2
			c2.1,0.9,4.9,1.9,5.1,4.6c0.3,3.4-1,6.8-1.5,10.2c-2.8,0-5.7,0-8.5,0c0.3-3.2,2.4-6.8,0.6-9.8c-2.7-1.1-5.8-0.4-8.6-0.6
			c-0.7,3.4-1.5,6.9-2.2,10.4c-2.8,0-5.6,0-8.3,0C331,173.1,333.3,161.6,335.6,150z M342.5,157c-0.7,3.4-1.3,6.9-2,10.3
			c3-0.2,6.4,0.6,9.2-0.9c1.9-2.3,2.7-5.7,1.8-8.6C348.8,156.3,345.5,157.2,342.5,157z"/>
	</g>
	<path d="M373.9,150c8.7,0,17.5,0,26.2,0c-0.5,2.3-0.9,4.6-1.4,6.9c-3,0-5.9,0-8.9,0c-1.9,9.2-3.7,18.4-5.6,27.7c-2.8,0-5.6,0-8.4,0
		c1.9-9.2,3.7-18.4,5.6-27.7c-3,0-5.9,0-8.9,0C373,154.7,373.5,152.3,373.9,150z"/>
	<path d="M412.5,150c2.8,0,5.6,0,8.5,0c-2.3,11.5-4.7,23.1-7,34.6c-2.8,0-5.6,0-8.5,0C407.9,173.1,410.2,161.6,412.5,150z"/>
	<path d="M477,150c2.8,0,5.5,0,8.3,0c-1.4,7.1-3,14.2-4.3,21.4c-0.2,1.9-0.8,4.7,1.2,5.8c2.9,0.8,6.2,0.8,9-0.3
		c2.1-0.9,2.5-3.5,3.1-5.4c1.5-7.1,2.9-14.3,4.4-21.5c2.8,0,5.5,0,8.3,0c-1.6,7.9-3.2,15.9-4.9,23.8c-0.8,3.6-2.5,7.3-5.7,9.3
		c-3.7,2.3-8.3,2-12.4,2.1c-3.3-0.1-7,0.2-9.7-2.1c-2.8-2.3-2.6-6.4-2-9.7C473.8,165.6,475.5,157.8,477,150z"/>
	<g>
		<path d="M562.5,150c6.2,0,12.4-0.1,18.5,0c2.9,0.2,6.4,0.6,8.1,3.4c2,3.4,1,7.5,0.3,11.1c-1.2,5.3-1.7,11-4.9,15.5
			c-2.4,3.3-6.7,4.4-10.6,4.5c-6.2,0.1-12.3,0-18.5,0.1C557.8,173.1,560.2,161.6,562.5,150z M569.5,157c-1.4,6.9-2.8,13.8-4.2,20.7
			c4.1-0.3,8.8,1.1,12.4-1.6c2-3,2.2-6.8,3-10.2c0.4-2.6,1.6-5.5,0.3-8.1C577.4,156.2,573.3,157.2,569.5,157z"/>
	</g>
	<g>
		<path d="M647.6,150c6.8,0.2,13.7-0.5,20.4,0.5c2.8,0.4,5.2,2.9,5,5.8c-0.3,3.5-0.7,7.3-2.8,10.2c-1.4,2.1-4,2.7-6.3,3.3
			c2.1,0.8,4.9,1.8,5.1,4.5c0.3,3.4-1,6.8-1.5,10.2c-2.8,0-5.7,0-8.5,0c0.3-3.2,2.3-6.7,0.7-9.8c-2.7-1.1-5.8-0.4-8.7-0.6
			c-0.7,3.4-1.4,6.9-2.1,10.4c-2.8,0-5.6,0-8.4,0C642.9,173.1,645.3,161.6,647.6,150z M654.5,157c-0.7,3.4-1.3,6.9-2,10.3
			c3.1-0.2,6.5,0.6,9.3-0.9c1.8-2.3,2.6-5.7,1.7-8.5C660.8,156.3,657.5,157.2,654.5,157z"/>
	</g>
	<path d="M688,150c8.3,0,16.7,0,25,0c-0.5,2.3-0.9,4.6-1.4,6.9c-5.6,0-11.1,0-16.7,0c-0.5,2.4-1,4.8-1.5,7.1c5.4,0,10.8,0,16.3,0
		c-0.4,2-0.8,3.9-1.2,5.9c-5.4,0-10.8,0-16.2,0c-0.5,2.6-1,5.1-1.5,7.7c5.7,0,11.4,0,17.1,0c-0.5,2.3-1,4.6-1.4,6.9
		c-8.5,0-17,0-25.4,0C683.3,173.1,685.7,161.6,688,150z"/>
</g>
<g>
	<path fill="#ED1D24" d="M56.4,16.8c43.3,0,86.6,0,129.9,0c-3.3,17.4-6.6,34.8-9.9,52.2c-15.3-2.5-30.8-3.8-46.4-4.2
		c-18.7-0.2-37.6,1.1-55.6,6.2c-11.6,3.3-22.9,8.7-31.5,17.4C47.5,64.6,51.9,40.7,56.4,16.8z"/>
	<path fill="#ED1D24" d="M81.3,92.8c9.3-3.8,19.7-3.9,29.6-3.9c20.3,0.5,40.6,3.5,59.8,10.3c-1.9,12.1-4.9,24-6.8,36.1
		c-3.5-2.3-7.2-4.1-11.1-5.6c-9.6-3.4-19.3-6.6-29.3-8.7c-11.4-2.4-23-4.3-34.5-6.7c-4.8-1.1-9.7-2.4-13.8-5.1
		c-2.2-1.4-3.9-4-3.1-6.7C72.9,97.8,77.1,94.6,81.3,92.8z"/>
	<path fill="#ED1D24" d="M33.2,140.3c7.3,12.2,21.3,17.6,34.5,20.8c10.2,2.9,20.9,2.8,31,5.7c3,1,6.4,2.2,7.7,5.3
		c1.1,3.2-1.2,6.4-3.8,8c-5.3,3.1-11.6,3.8-17.6,4.3c-19.8,1.5-39.5-2.6-58.7-7.3C28.6,164.9,31,152.6,33.2,140.3z"/>
</g>
</svg>
