<?xml version="1.0" encoding="utf-8"?>
<!-- Generator: Adobe Illustrator 18.0.0, SVG Export Plug-In . SVG Version: 6.00 Build 0)  -->
<!DOCTYPE svg PUBLIC "-//W3C//DTD SVG 1.1//EN" "http://www.w3.org/Graphics/SVG/1.1/DTD/svg11.dtd">
<svg version="1.1" id="Capa_1" xmlns="http://www.w3.org/2000/svg" xmlns:xlink="http://www.w3.org/1999/xlink" x="0px" y="0px"
	 viewBox="5.3 224.6 595.2 422.6" enable-background="new 5.3 224.6 595.2 422.6" xml:space="preserve">
<g id="_x23_f40324ff">
	<path fill="#F40324" d="M238.6,338.4c48.5-38,97-75.9,145.5-113.8c-3.1,4.8-6.8,9.3-10.2,14c-15.3,20.9-30.7,41.7-46,62.6
		c28.4-3.9,56.8-7.7,85.2-11.5c-13.3,18.3-27,36.3-40.5,54.5c-0.3,0.3-1,1.1-1.3,1.4c-0.8-3-3.3-5.4-6.1-6.5
		c-3.8-1.7-8-1.9-12.1-1.9c-10.5,0.5-20.9-0.1-31.3,0c4.2-7,8.6-14,12.7-20.9c-31.2,7.3-62.5,14.7-93.7,22.1
		c-0.6,0.2-1.7,0.6-2.3,0.8c-0.1,0.1-0.3,0.2-0.4,0.3C238.2,339.1,238.5,338.6,238.6,338.4z"/>
	<path fill="#F40324" d="M314.6,349.8c9.3,0.1,18.6-0.2,27.8,0.1c-9.7,21.2-19.2,42.4-28.7,63.6c-8.3,0.2-16.6-0.2-24.9-0.1
		c0.1-0.8,0.3-1.5,0.6-2.2C297.8,390.7,306,370.2,314.6,349.8z"/>
	<path fill="#F40324" d="M361.2,380.6c10.1-4,20.1-8.1,30.1-12.2l1-0.1c-11.1,25.3-22,50.8-33.1,76.2
		c-11.1,10.7-22.7,20.9-34.1,31.5c-4.9-18.4-9.7-36.7-14.6-55.1l0.2-0.6c6.5,0.3,13.1,0.3,19.6,0.5c5.8,0.3,12.1-1.3,16.3-5.6
		c2-2,3.2-4.6,4.2-7.1C354.5,399.1,357.6,389.7,361.2,380.6z"/>
	<path fill="#F40324" d="M282.4,429.5c0.3-0.6,0.5-1.3,1-1.9c0.5,1.7,1,3.3,1.4,5C283.8,431.7,283.3,430.5,282.4,429.5z"/>
	<path fill="#F40324" d="M289.3,449.3c6.1,22.4,12.3,44.8,18.4,67.2c2.2,7.4,3.8,15,6.3,22.3c-0.2,0.5-0.4,1.4-0.5,1.9
		c-4.9,3.3-9.5,7.2-14.3,10.7c-24.3,18.5-48.5,37-72.7,55.5c-17.7,13.3-35.2,27.1-52.9,40.3c12.5-15.9,25.6-31.6,38.3-47.5
		c14.9-18.7,30.2-37.1,45-55.8c-14.2,3-28.4,6.1-42.6,9C239.3,518.4,264.3,483.9,289.3,449.3z"/>
</g>
<g id="_x23_000000ff">
	<path d="M288.9,337.1c10.9,0.1,21.9,0.2,32.8,0.1c10.5-0.1,20.9,0.5,31.3,0c4.1,0,8.3,0.2,12.1,1.9c2.9,1.2,5.3,3.5,6.1,6.5
		c0.5,2.5,0.4,5.1-0.5,7.5c-3.3,9.2-6.6,18.3-9.8,27.5c-3.6,9.2-6.7,18.5-10.4,27.5c-1,2.6-2.2,5.2-4.2,7.1
		c-4.2,4.3-10.5,5.9-16.3,5.6c-6.5-0.2-13.1-0.2-19.6-0.5l-0.2,0.6c4.9,18.4,9.8,36.7,14.6,55.1c8.9,33.5,17.9,67,26.7,100.6
		c-9.2,0.1-18.4,0.8-27.5,0.8c-3.2-11.7-6.4-23.4-9.6-35c-0.5-1.1-0.4-2.4-0.5-3.6h-0.3c-2.5-7.3-4.2-14.9-6.3-22.3
		c-6.1-22.4-12.2-44.8-18.4-67.2c-1.5-5.5-3-11.1-4.6-16.7c-0.4-1.7-0.8-3.4-1.4-5c-0.5,0.6-0.7,1.2-1,1.9
		c-11.7,24.2-23.4,48.3-34.9,72.5c-3.4,0.6-6.9-0.2-10.4,0.1c-6.8-0.3-13.7-0.2-20.4-0.7C240.8,446.6,264.9,391.9,288.9,337.1
		 M314.6,349.8c-8.6,20.4-16.8,41-25.2,61.4c-0.4,0.7-0.6,1.4-0.6,2.2c8.3-0.2,16.6,0.2,24.9,0.1c9.6-21.2,19.1-42.4,28.7-63.6
		C333.1,349.6,323.8,349.8,314.6,349.8z"/>
	<path d="M402.1,345.7c2.3-4.7,7.4-7.4,12.6-7.5c6.5,0.2,13,0.9,19.6,1.2c-2.1,20.1-4.7,40.1-7,60.2l0.8-0.5
		c12.1-16.2,24.6-32.2,36.7-48.5c4.9-6.1,11.9-10.8,19.8-11.1c6.2-0.2,12.4,0.1,18.7-0.1c0,0.9-0.5,1.7-0.9,2.6
		c-35.6,78.6-71.1,157.3-106.7,236c-9.6-0.1-19.1-0.3-28.7-0.2c11.3-26.2,23.1-52.1,34.4-78.2c16.2-36.6,32.4-73.3,48.6-109.9
		c0.3-0.9,1-1.7,1-2.7c-11.7,13.3-23.1,26.8-34.8,40.2c0.7-15.2,1.7-30.3,2.7-45.4c-18.3,39.3-36.3,78.6-54.5,118
		c-9.6-0.2-19.3-0.1-28.8-0.4c7.8-18.3,15.9-36.5,23.7-54.8c11.1-25.3,22-50.8,33.1-76.2l-1,0.1c0.3-0.2,0.8-0.4,1.1-0.5
		C395.6,360.5,398.9,353.1,402.1,345.7z"/>
	<path d="M68.4,344.2c7.6-4.5,16.7-5.7,25.4-5.3c9.1,0,18.2,0,27.3,0c8.4,0.6,17.2-1,25.3,2.2c3,1.1,5.7,3,7.1,5.8
		c1.4,3.1,0.8,6.8-0.4,9.9c-3.2,8.2-6.2,16.5-9.4,24.6c-2.3,5.8-7.7,9.8-13.5,11.4c-8,2.3-16.3,0.4-24.4,0.1
		c5.7-14.6,11.5-29,17.4-43.6c-6.3,0.1-12.5-0.5-18.8,0.1c-3.1,0.6-6.3,1.6-8.6,3.9c-3.7,3.3-4.2,8.4-6.2,12.7
		c-16.1,39.8-33.8,78.9-50.9,118.2c4.9,1,9.9,1,14.9,0.7c4.4-0.4,8.6-3.1,10.3-7.2c3.8-9,7.4-18.1,11.2-27.2l-0.5-0.4
		c-4.4,0.2-8.7,0.3-13.1,0.2c-0.3-3.6,1.8-7.1,5.1-8.6c4.5-2.1,9.6-1.4,14.3-1.7c12.2-0.2,24.5-0.5,36.7-0.7
		c-3.9,14.5-9.8,28.4-17.3,41.4c-3.6,6-7.5,12.1-13.7,15.9c-7.4,4.6-16.3,4.9-24.6,4.8c-13.8-0.5-27.8-1-41.3-3.9
		c-4.4-1.1-9.1-1.9-12.6-5c-2.4-2-3.1-5.5-2.7-8.4c0.7-5.7,3.3-10.8,5.5-16.1c15.5-37,31.2-74,46.7-111
		C59.4,351.4,63.6,347.1,68.4,344.2z"/>
	<path d="M201.1,339.4c12.4-0.2,24.6-0.1,37,0.1c0.1-0.1,0.3-0.2,0.4-0.3c4.4,1,9.3-0.3,13.7,0.7c5.5,2,10.5,6.4,12.1,12.2
		c1.2,4.1,0.5,8.6-1.4,12.4c-32.3,71.4-65.3,142.4-98.1,213.5c-11.1-0.1-22.1-0.3-33.1-0.2c18.8-41.9,37.9-83.7,56.7-125.7
		c-5.5-0.6-11.1-1.1-16.7-1.7c-4-0.5-8,2.3-9.3,6c-5.8,14.6-11.7,29.1-17.4,43.7c-11.3,0.2-22.8-0.2-34.1-0.2
		c22.2-49.6,44.9-99,67.2-148.5C182.6,343.3,192.2,339.5,201.1,339.4 M209.6,357.3c-11.7,27-23.4,53.9-35.1,80.9
		c-0.2,0.4-0.6,1.1-0.8,1.4l0.5,0.5c4.8,0.4,9.6,0.5,14.3,0.8c3.4-0.2,5.9-3,7.3-5.9c12-27.2,24-54.3,36-81.5
		c0.3-0.8,1.3-1.7,0.5-2.7c-4.7-0.4-9.4-0.8-14.1-1.1C213.9,349.7,210.8,353.5,209.6,357.3z"/>
	<path d="M526.8,341.1c6.6-2.3,13.7-1.7,20.6-1.8c12.9-0.1,25.8,0.2,38.7,0.2c4.7,0.8,8.7,4,11.6,7.7c3.6,4.9,3.7,11.5,1.1,16.8
		c-32.3,71.4-65.4,142.4-98.1,213.6c-4.1,0.5-8.3,0.2-12.5,0c-6.7,0.1-13.5-0.1-20.2,0.1c-0.7-0.9,0.5-1.8,0.7-2.7
		c18.5-41,37.2-81.9,55.6-123c-5.7-0.5-11.3-1.2-17-1.6c-3.8-0.3-7.4,2.2-8.8,5.7c-5.9,14.6-11.8,29.4-17.5,44.1
		c-11.2,0.2-22.7-0.3-34-0.1c2.1-5.8,5.2-11.5,7.7-17.3c19.9-43.8,39.7-87.7,59.5-131.5C516.7,346.4,521.5,342.9,526.8,341.1
		 M546,355.3c-12.1,28.3-24.6,56.5-36.7,84.9c4.8,0.2,9.6,0.5,14.5,0.8c3.6,0.1,6.4-3.1,7.7-6.2c9.4-21.3,18.9-42.7,28.3-64.1
		c2.8-6.6,6.1-13,8.5-19.7c-5-0.3-10-0.8-14.9-1.2C550,349.9,547.4,352.3,546,355.3z"/>
</g>
</svg>
