<?xml version="1.0" encoding="utf-8"?>
<!-- Generator: Adobe Illustrator 18.0.0, SVG Export Plug-In . SVG Version: 6.00 Build 0)  -->
<!DOCTYPE svg PUBLIC "-//W3C//DTD SVG 1.1//EN" "http://www.w3.org/Graphics/SVG/1.1/DTD/svg11.dtd">
<svg version="1.1" id="Capa_1" xmlns="http://www.w3.org/2000/svg" xmlns:xlink="http://www.w3.org/1999/xlink" x="0px" y="0px"
	 viewBox="4.3 3.1 57.8 28.3" enable-background="new 4.3 3.1 57.8 28.3" xml:space="preserve">
<g>
	<path fill="#636363" d="M4.3,3.1h5.1v13h0.1C10.3,15,11,14,11.6,13l7.4-10h6.3l-9.7,12.1L26,31.4h-6l-8-13l-2.6,3v10H4.3V3.1z"/>
	<path fill="#636363" d="M33.7,31.4L26.8,3.1h5.5l2.7,12.9c0.7,3.4,1.4,7.1,1.8,9.9h0.1c0.5-3,1.3-6.3,2.1-9.9L42,3.1h5.4l2.8,13
		c0.7,3.4,1.3,6.5,1.7,9.6H52c0.5-3.1,1.2-6.3,1.9-9.8l2.9-12.8h5.3l-7.6,28.3H49l-2.9-13.3c-0.7-3.2-1.2-5.9-1.6-9h-0.1
		c-0.5,3-1,5.8-1.8,9l-3.3,13.3C39.3,31.4,33.7,31.4,33.7,31.4z"/>
</g>
</svg>
