<?xml version="1.0" encoding="utf-8"?>
<!-- Generator: Adobe Illustrator 18.0.0, SVG Export Plug-In . SVG Version: 6.00 Build 0)  -->
<!DOCTYPE svg PUBLIC "-//W3C//DTD SVG 1.1//EN" "http://www.w3.org/Graphics/SVG/1.1/DTD/svg11.dtd">
<svg version="1.1" id="Capa_1" xmlns="http://www.w3.org/2000/svg" xmlns:xlink="http://www.w3.org/1999/xlink" x="0px" y="0px"
	 viewBox="21.8 18.2 953.9 439.5" enable-background="new 21.8 18.2 953.9 439.5" xml:space="preserve">
<g id="_x23_ffffffff">
</g>
<g id="_x23_db0032ff">
	<path fill="#DB0032" d="M21.8,228.8C180.9,158.6,340.1,88.4,499.2,18.2C658,89.3,816.9,160.5,975.8,231.6
		C816.6,307,657.4,382.4,498.2,457.8C339.4,381.4,180.6,305.1,21.8,228.8 M60.9,230.3c145.9,68.1,291.8,136.4,437.8,204.4
		c143-67.9,286.1-135.7,429.2-203.6C784.6,168.4,641.3,105.7,498,43.1C352.3,105.5,206.6,167.9,60.9,230.3z"/>
</g>
<g id="_x23_0b2663ff">
	<path fill="#0B2663" d="M467.7,80.7c6.3-2.6,12.5-5.8,19.4-6.4c9.6,0.1,19.8,2.1,27.4,8.2c6.2,4.8,9.8,12.6,9.6,20.4
		c0,51.7,0,103.3,0,155c-0.3,8.3-8.4,13.3-15.4,15.8c7.5,4.1,15.3,10.9,15.4,20.2c0.2,33.5,0.5,66.9,0.6,100.4
		c-6.2,2.7-13,4.2-19.7,3.8c-2.9-0.2-6.5-1.8-6.4-5.2c0-35,0-70,0-105c-12.8,0.1-25.6,0.4-38.3,0.6c-0.5,33.6-0.9,67.3-1.4,100.9
		c-10.1-4.5-20.2-9-30.2-13.4c0.2-91.6,0.5-183.3,0.6-275C441.7,93.7,454.6,86.9,467.7,80.7 M467.4,103.3c-6.1,3.2-10,9.8-9.8,16.7
		c0.1,47.7,0.4,95.4,0.6,143.1c13.2,0,26.5,0,39.7,0c0-54.7,0-109.5,0-164.2C487.6,98,476.6,98.3,467.4,103.3z"/>
	<path fill="#0B2663" d="M562.9,93.8c8.1,0.8,16.9,2.6,22.7,8.7c5.2,6.3,6.5,14.7,8.9,22.4c5.1,19.8,13,38.8,16.9,59
		c10.9,52.6,12.8,106.6,13,160.2c-7.6,3-15.5,5.4-23.3,8c0.1-7.3,0.3-14.7,0.4-22c-9.5,0.4-19.1,0.3-28.5,1.5
		c-1.9,13.5-4.8,26.8-7.3,40.2c-8,4.1-16.1,8.2-24.7,11.2c7.2-50.8,12.8-101.8,16.9-152.9C561.3,184.7,563.6,139.2,562.9,93.8
		 M583.1,160.2c0.3,50.2-2.7,100.5-10.4,150.2c10,0.4,20-0.1,30,0c-1.9-32.9-4.5-65.7-8.8-98.4C591.5,194.5,589,176.9,583.1,160.2z"
		/>
	<path fill="#0B2663" d="M354.5,124.5c21.7-7.8,43.3-15.7,65-23.5c0.6,8.7,1.2,17.5,1.8,26.2c-13.2,4.3-26.5,8.5-39.7,12.8
		c0.2,23.8,0.4,47.5,0.7,71.3c10.5,0.2,21.1,0.5,31.6,0.6c-0.2,8.8-0.4,17.5-0.7,26.3c-11,0-22,0-33,0c0,39.9,0,79.8,0,119.7
		c-9.2-5.4-18.4-10.8-27.5-16.1C353.3,269.3,353.9,196.9,354.5,124.5z"/>
	<path fill="#0B2663" d="M300.9,151c9.1-6,18.3-11.8,27.5-17.7c0.7,67.5,1.3,135,2,202.5c-9.9-3.6-19.7-7.2-29.6-10.8
		c-2.9-29.3-5.7-58.6-6.6-88C293.6,208.1,297.1,179.4,300.9,151z"/>
	<path fill="#0B2663" d="M642.2,136.4c8.3,1.4,16.4,3.3,24.6,4.9c12.2,22.1,23.6,45.1,30.1,69.6c4.3-18.1,4.8-37.4,0.2-55.5
		c2.5-2.5,6.3-3.4,9.6-2.1c7.3,2.6,13.8,8.2,16.6,15.5c3,7.4,4,15.3,4.6,23.2c1.1,15,0.5,30,0.4,45c0.2,20.2-0.9,40.9-8.5,59.9
		c-3.5,10.2-15.4,14.3-25.3,14c-1.3-17.7-4.1-35.4-9.1-52.5c-2.7-8.7-5.8-17.4-10.6-25.2c2.7,19.6,0.3,39.3-1.5,58.9
		c-1.2,11.1-2.6,22.1-4.4,33.1c-9.1,3-18.1,6.1-27.3,8.6c5.5-23.8,6.7-48.4,7.1-72.7C649.3,219.4,646.6,177.8,642.2,136.4z"/>
	<path fill="#0B2663" d="M192.8,193.2c17.4-8.7,34.8-17.5,52.3-26.1c6.6-1.2,13.7-1.1,19.9,1.8c4.9,2.3,7.9,7.6,7.7,13
		c0.1,33.7,0,67.4,0,101.1c0.8,8.4-5.6,16.7-13.8,18.6c-8.3,1.9-16.7-1-24.2-4.4c-14-6.4-28-12.9-41.1-21
		C193.3,248.6,193,220.9,192.8,193.2 M220.9,199.2c-0.2,22.2-0.5,44.4-0.7,66.6c9,2.7,17.9,5.4,26.9,8.1
		c-0.2-27.6-0.4-55.1-0.7-82.7C237.9,193.8,229.4,196.5,220.9,199.2z"/>
	<path fill="#0B2663" d="M756.3,181.2c8.4,0.8,16.7,4.9,21.5,12c6.4,9.3,8,20.8,8.7,31.8c0.6,11.7,0,23.4-0.4,35
		c-0.3,7.4-2.6,14.9-7.4,20.6c-5.5,6.5-13.8,10.3-22.1,11.5c1.6-15,3.1-30,4.1-45C762.7,225,758.6,203.1,756.3,181.2z"/>
</g>
</svg>
