<?xml version="1.0" encoding="utf-8"?>
<!-- Generator: Adobe Illustrator 18.0.0, SVG Export Plug-In . SVG Version: 6.00 Build 0)  -->
<!DOCTYPE svg PUBLIC "-//W3C//DTD SVG 1.1//EN" "http://www.w3.org/Graphics/SVG/1.1/DTD/svg11.dtd">
<svg version="1.1" id="Layer_1" xmlns="http://www.w3.org/2000/svg" xmlns:xlink="http://www.w3.org/1999/xlink" x="0px" y="0px"
	 viewBox="15.5 13.5 815.5 173.5" enable-background="new 15.5 13.5 815.5 173.5" xml:space="preserve">
<g>
	<path d="M74,14.9c7.5-1.8,15.3-1.4,22.9-1.4c218.7,0,437.3,0,656,0c7.1-0.1,14.2,0,21.1,2c18,4.7,33,17.9,42.3,33.7
		c4.8,8.3,8.8,17.2,10.5,26.7c-8-22.2-27.7-39.8-50.8-45c-9.8-2.5-20-1.8-30.1-1.9c-219.7,0-439.3,0-659,0
		C72,28.9,57.1,33.6,45,42.5c-14.1,10-24.2,25.4-27.9,42.3c2.2-17.1,9.3-33.6,20.4-46.8C46.8,26.7,59.6,18.1,74,14.9z"/>
	<path d="M124.2,45c9-0.1,18.1-0.2,27.1-0.1c0.2,8.5,0.2,17.1,0.7,25.6c-1.1,0.9-2.6,1.2-4,1.1c-7.8-0.1-15.6-0.2-23.3-0.2
		c0.2,8.8,0.4,17.7,0.5,26.5c-9.1,0-18.2-0.2-27.3-0.3c-0.1-8.2-0.3-16.3-0.5-24.5c0.2-0.4,0.5-1.1,0.7-1.5
		c8.7-0.9,17.6-0.2,26.4-0.3C124.5,62.5,124.3,53.8,124.2,45z"/>
	<path d="M69.2,45.4c9,0,18-0.2,27,0c0.6,8.1,0.8,16.3,1.2,24.5c-0.2,0.3-0.5,1-0.6,1.3c-8.9,0.3-17.8,0.3-26.8,0.4
		c0,8.7,0.5,17.3,0.8,25.9c-8.9,0.3-17.9,0.1-26.8,0.6c-0.7-1.1-2-2.1-1.5-3.6c0.3-7.6-0.6-15.4,0.5-22.8c9-0.1,18-0.2,27-0.2
		C69.7,62.9,69.4,54.1,69.2,45.4z"/>
	<path d="M233.7,45.5c9,0,18.1-0.2,27.1-0.1c0.2,8.9,0.4,17.8,0.5,26.7c-9.1-0.1-18.2-0.2-27.3-0.2c0.2,8.9,0.4,17.7,0.6,26.6
		c-9.1-0.1-18.2-0.1-27.3-0.2c-0.1-8.8-0.2-17.6-0.4-26.4c9.1,0.1,18.1-0.1,27.2-0.1C233.9,63,233.8,54.3,233.7,45.5z"/>
	<path d="M178.9,46.3c9,0.1,18-0.2,27-0.1c0.2,8.9,0.5,17.8,0.6,26.7c-9.1-0.1-18.3-0.3-27.4-0.3c0.1,8.5,0.2,16.9,0.3,25.4
		c-9,0-18-0.1-27.1-0.2c-0.2-7.8-0.4-15.6-0.7-23.4c-0.5-1.3,0.3-3.3,1.9-3c8.5,0.1,16.9,0.1,25.4,0.1
		C178.9,63.1,178.9,54.7,178.9,46.3z"/>
	<path d="M27.8,71.4c2.7-6.8,8.1-12.2,14.5-15.6c-0.1,5.2,0.8,10.6-0.2,15.7C37.4,72.1,32.6,71.5,27.8,71.4z"/>
	<path d="M20.4,98c7.6,0.1,15.3-0.7,22.8,0.3c-0.4,8.6,0.6,17.2,0.7,25.8c8.8-0.1,17.5,0.3,26.3-0.2c0.7,1,1.3,2.2,1.1,3.5
		c0.3,7.5,0.7,15.1,1,22.6c-9.5-2-18.8-5.3-26.8-10.9c-0.5-4.9-1-9.9-1.4-14.8c-4.4,0.1-8.8,0.3-13.1,0.4
		C24.1,117.6,20.3,107.9,20.4,98z"/>
	<path d="M70.8,97.8c9,0.1,18-0.2,27-0.1c0.3,9,0.4,18,0.6,26.9c8.9-0.3,17.8-0.1,26.8-0.1c-0.1-8.8,0-17.7-0.1-26.5
		c9,0.1,18-0.2,27.1-0.1c0.2,8.9,0.4,17.8,0.6,26.7c-9.1-0.1-18.2-0.3-27.3-0.3c0.1,8.9,0.2,17.8,0.3,26.7
		c-9.1-0.1-18.2-0.1-27.3-0.2c-0.1-8.8,0-17.6-0.1-26.4c-8.3-0.2-16.6,0-25-0.3c-0.8-0.4-1.6-0.9-2.4-1.4
		C71.1,114.4,70.8,106.1,70.8,97.8z"/>
	<path d="M179.5,98.2c9,0,18.1-0.2,27.1-0.1c0.2,8.9,0.4,17.8,0.6,26.8c-9-0.1-18-0.2-27-0.2c0.2,8.9,0.4,17.8,0.6,26.7
		c-9.1,0-18.2-0.1-27.3-0.2c-0.1-8.8-0.3-17.6-0.3-26.4c8.9-0.1,17.8,0.1,26.7-0.1C179.7,115.8,179.6,107,179.5,98.2z"/>
	<path d="M234.6,98.3c8.9,0,17.8-0.2,26.7-0.1c0,8.9,0,17.7,0,26.6c-8.7,0.1-17.4-0.1-26.1-0.1c0.2,8.9,0.4,17.7,0.6,26.6
		c-9.1-0.1-18.2-0.1-27.3-0.2c-0.1-8.8-0.2-17.6-0.3-26.4c8.9,0.1,17.9-0.2,26.8-0.1C234.8,115.8,234.7,107.1,234.6,98.3z"/>
	<path d="M16,108.5c1.3,10.4,4.9,20.5,10.6,29.3c10.5,16.4,28,28.2,47.3,31.6c7.6,1.4,15.4,1.1,23.1,1.1c216.4,0,432.7,0,649,0
		c10.3-0.1,20.9,0.6,31-2.1c23.8-5.7,43.9-24.6,50.9-48.1c-3.4,18.9-12.8,37.1-27.2,50c-11.4,10.3-26.4,16.7-41.8,16.7
		c-221.6,0-443.3,0-664.9,0c-5.7,0-11.5,0.2-17.2-0.9c-15.3-2.6-29.1-11.4-39.1-23.2C24.8,147.8,17.7,128.2,16,108.5z"/>
</g>
<g>
	<g>
		<path fill="#F8F8F8" d="M45,42.5C57.1,33.6,72,28.9,87,29c219.7,0,439.3,0,659,0c10,0.1,20.3-0.6,30.1,1.9
			c23.1,5.2,42.8,22.7,50.8,45c5,14.2,5.5,30,1.1,44.5c-7,23.5-27.1,42.4-50.9,48.1c-10.1,2.7-20.7,2-31,2.1c-216.4,0-432.7,0-649,0
			c-7.7,0-15.5,0.3-23.1-1.1c-19.2-3.4-36.8-15.1-47.3-31.6C21,129,17.4,118.9,16,108.5c-1-7.9-0.6-16,1-23.8
			C20.8,67.8,30.9,52.4,45,42.5z M124.2,45c0.1,8.8,0.2,17.5,0.3,26.3c-8.8,0.2-17.7-0.6-26.4,0.3c-0.2,0.4-0.5,1.1-0.7,1.5
			c0.1,8.2,0.3,16.3,0.5,24.5c9.1,0.1,18.2,0.3,27.3,0.3c-0.2-8.8-0.4-17.7-0.5-26.5c7.8,0,15.6,0.1,23.4,0.2c1.4,0.2,2.8-0.2,4-1.1
			c-0.5-8.5-0.4-17.1-0.7-25.6C142.3,44.8,133.3,44.9,124.2,45z M69.2,45.4c0.2,8.7,0.5,17.4,0.8,26.2c-9,0-18,0.2-27,0.2
			c-1,7.5-0.1,15.2-0.5,22.8c-0.5,1.5,0.7,2.5,1.5,3.6c8.9-0.4,17.9-0.3,26.8-0.6C70.6,89,70.1,80.3,70,71.7
			c8.9-0.2,17.8-0.2,26.8-0.4c0.2-0.3,0.5-1,0.6-1.3c-0.4-8.2-0.7-16.3-1.2-24.5C87.2,45.3,78.2,45.4,69.2,45.4z M233.7,45.5
			c0.1,8.8,0.2,17.5,0.3,26.3c-9.1,0-18.1,0.2-27.2,0.1c0.2,8.8,0.3,17.6,0.4,26.4c9.1,0.1,18.2,0.2,27.3,0.2
			c-0.2-8.9-0.4-17.7-0.6-26.6c9.1,0,18.2,0.1,27.3,0.2c-0.1-8.9-0.2-17.8-0.5-26.7C251.8,45.3,242.7,45.5,233.7,45.5z M261.2,46
			c0.2,17.4,0,34.8,0,52.2c-8.9-0.1-17.8,0.1-26.6,0.1c0.1,8.8,0.2,17.5,0.3,26.3c-8.9-0.1-17.9,0.2-26.8,0.1
			c0.1,8.8,0.2,17.6,0.3,26.4c9.1,0.1,18.2,0.1,27.3,0.2c-0.2-8.9-0.4-17.7-0.6-26.6c8.7,0,17.4,0.2,26.1,0.1c0,8.2,0,16.4,0,24.6
			c62.3,0.6,124.5,0.6,186.8,0.9c105.3,0.4,210.6,0.9,315.9,1.4c12.7,0.5,25.6-3.2,36.1-10.3c10.4-6.9,17.5-18.4,19.5-30.8
			c2.3-14.5,0.6-30.4-8.1-42.6c-8.4-11.9-22.3-18.6-36.3-21.1c-8.6-1.8-17.4-1.1-26.1-1.2C586.4,45.8,423.8,45.9,261.2,46z
			 M178.9,46.3c0,8.4,0,16.8,0,25.2c-8.5,0-16.9,0.1-25.4-0.1c-1.6-0.2-2.4,1.7-1.9,3c0.3,7.8,0.5,15.6,0.7,23.4
			c9,0.1,18,0.2,27.1,0.2c-0.1-8.5-0.2-16.9-0.3-25.4c9.1,0,18.3,0.2,27.4,0.3c-0.1-8.9-0.4-17.8-0.6-26.7
			C196.9,46.1,187.9,46.4,178.9,46.3z M27.8,71.4c4.8,0,9.6,0.7,14.3,0.1c0.9-5.1,0-10.5,0.2-15.7C35.9,59.2,30.5,64.7,27.8,71.4z
			 M20.4,98c-0.1,9.9,3.7,19.6,10.5,26.8c4.4-0.1,8.8-0.3,13.1-0.4c0.4,4.9,0.9,9.9,1.4,14.8c8,5.6,17.3,8.9,26.8,10.9
			c-0.3-7.5-0.7-15.1-1-22.6c0.2-1.3-0.4-2.5-1.1-3.5c-8.8,0.6-17.5,0.2-26.3,0.2c-0.1-8.6-1-17.2-0.7-25.8
			C35.7,97.3,28,98.1,20.4,98z M70.8,97.8c0,8.3,0.3,16.6,0.2,24.9c0.8,0.5,1.6,1,2.4,1.4c8.3,0.3,16.6,0.1,25,0.3
			c0.1,8.8,0,17.6,0.1,26.4c9.1,0.1,18.2,0.2,27.3,0.2c-0.1-8.9-0.2-17.8-0.3-26.7c9.1,0,18.2,0.2,27.3,0.3
			c-0.2-8.9-0.4-17.8-0.6-26.7c-9-0.1-18,0.1-27.1,0.1c0.1,8.8,0,17.7,0.1,26.5c-8.9,0-17.8-0.1-26.8,0.1c-0.2-9-0.4-18-0.6-26.9
			C88.8,97.6,79.8,97.8,70.8,97.8z M179.5,98.2c0.1,8.8,0.2,17.6,0.3,26.4c-8.9,0.2-17.8,0-26.7,0.1c0,8.8,0.2,17.6,0.3,26.4
			c9.1,0.1,18.2,0.2,27.3,0.2c-0.2-8.9-0.4-17.8-0.6-26.7c9,0.1,18,0.1,27,0.2c-0.2-8.9-0.4-17.8-0.6-26.8
			C197.6,98,188.5,98.2,179.5,98.2z"/>
	</g>
	<g>
		<path fill="#F8F8F8" d="M739.6,61.3c10.2-1.5,20.8-0.4,30.5,3c8.9,3.2,15.8,10.9,18.2,20c3,11.6,3.5,24.6-1.7,35.7
			c-4.2,9-13.1,15.1-22.7,16.8c-10,1.7-20.5,1.4-30.3-1.7c-7.9-2.5-15.2-8.1-17.9-16.1c-4.4-12.6-5.8-27.2-0.1-39.6
			C719.8,69.8,729.3,63,739.6,61.3z M745.4,81c-5.4,1.5-8.8,7.1-8.6,12.5c0.1,5.7,0.2,11.4,1.3,17c0.8,4.6,5.6,7.1,9.8,7.7
			c5.3,0.8,11.9,0.1,15.3-4.7c3.1-4.4,2.2-10,2.2-15c-0.1-4.9,0.1-10.7-3.8-14.4C757.2,80.3,750.8,79.8,745.4,81z"/>
	</g>
	<path fill="#F8F8F8" d="M299.9,61.5c23.1-0.1,46.2,0.1,69.3,0.1c0.2,6.3,0.4,12.6,0.5,18.9c-7.6,0.3-15.3,0.3-22.9,0.9
		c0,18,0.6,36.1,0.8,54.2c-7.9-0.1-15.7,0.1-23.5,0.1c-0.1-18.3-0.6-36.6-0.6-54.8c-7.8-0.1-15.6-0.3-23.4-0.2
		C300,74.3,300,67.9,299.9,61.5z"/>
	<g>
		<path fill="#F8F8F8" d="M373.9,61.5c15.1,0,30.1,0.1,45.2-0.1c8.2,0.2,17.1,2,23,8.1c4.9,5,5.3,12.6,4.6,19.2
			c-0.5,5.7-2.8,11.4-7.4,14.9c3,3.1,6.1,6.6,7,10.9c0.8,3.7,0.6,7.5,1.2,11.2c0.4,3.4,2,6.5,3.2,9.7c-8.2,0.1-16.5,0.4-24.7,0.2
			c-5-6.5-0.7-16.4-6.4-22.5c-5.8-4.9-14-2.3-20.9-2.6c-0.1,8.3,0.1,16.5,0.1,24.8c-7.7,0.2-15.4,0.3-23.1,0.5
			C375,111,374.4,86.2,373.9,61.5z M398.3,81.6c0.1,3.2,0.3,6.4,0.3,9.6c6.1,0.3,12.2,0.3,18.3,0.4c1.9-0.1,5.1,0,5.5-2.5
			c0.6-2.8,0.6-7.7-3.3-7.7C412.1,81.2,405.2,81.6,398.3,81.6z"/>
	</g>
	<g>
		<path fill="#F8F8F8" d="M484,62.1c16-0.3,32-0.2,48-0.4c7,0,14.5,2.1,19.3,7.4c4.8,5.2,5,12.9,4.2,19.6c-0.5,4.2-2.4,8.2-5.9,10.8
			c2.5,2.8,4.9,5.9,6,9.5c2.7,8.4-0.1,18.7-7.5,23.8c-3.8,2.8-8.6,3.6-13.2,3.6c-16.5,0.1-33.1,0.3-49.6,0.2
			C484.9,111.8,484.3,87,484,62.1z M507.2,80.5c0.2,3.2,0.3,6.3,0.3,9.5c6.1,0.3,12.3,0.4,18.4,0.4c2,0,5.4-0.2,5.4-3
			c0.4-2.8,0.4-7.3-3.5-7.2C521,80,514.1,80.3,507.2,80.5z M507.7,108.3c0.1,3.3,0.2,6.5,0.4,9.8c6.3-0.1,12.6,0.3,18.9,0.2
			c1.7-0.1,4.5-0.4,4.7-2.6c0.4-2.6,0.8-7-2.8-7.5C521.9,107.8,514.8,108.4,507.7,108.3z"/>
	</g>
	<path fill="#F8F8F8" d="M560,61.8c7.7,0.1,15.3,0,23,0c0.4,15.2,0.5,30.4,0.9,45.7c-0.1,2.9,1.2,5.8,3.5,7.6c4,3,9.4,3.1,14,2.1
		c3.5-0.7,6.8-3.7,6.4-7.6c-0.1-15.8-0.3-31.5-0.4-47.3c7.6-0.2,15.1-0.4,22.7-0.7c0.3,15.6,0.6,31.2,0.8,46.8
		c0.2,7-1.8,14.2-6.5,19.6c-5.6,6.5-14.3,9.3-22.6,9.7c-9.5,0.5-19.6-0.5-28-5.4c-7.7-4.4-12.9-13-12.9-21.9
		C560.9,94.3,560,78,560,61.8z"/>
	<path fill="#F8F8F8" d="M636.4,61.9c8.8-0.1,17.5-0.3,26.3-0.2c7.4,12.9,14.7,25.8,22.3,38.5c0-12.8-0.3-25.6-0.6-38.4
		c7.5-0.3,15-0.3,22.5-0.3c0.2,25.1,1,50.3,1.2,75.4c-8.3,0.3-16.7,0.4-25,0.6c-7.9-12.9-15.1-26.1-23.4-38.8
		c-0.1,12.8,0.4,25.5,0.2,38.3c-7.5-0.1-14.9,0.2-22.4,0.2C637.2,112.1,636.8,87,636.4,61.9z"/>
	<path fill="#F8F8F8" d="M452.8,62.1c7.8-0.1,15.5-0.2,23.3-0.2c0.5,24.7,1,49.4,1.6,74.1c-7.7,0-15.4,0.2-23.1,0.3
		C454,111.5,453.3,86.8,452.8,62.1z"/>
</g>
<g>
	<g>
		<path fill="#EF0A2B" d="M261.2,46c162.6-0.1,325.2-0.2,487.7-0.3c8.7,0.1,17.5-0.5,26.1,1.2c14,2.6,28,9.2,36.3,21.1
			c8.7,12.2,10.4,28.1,8.1,42.6c-2,12.3-9,23.8-19.5,30.8c-10.6,7.1-23.4,10.8-36.1,10.3c-105.3-0.5-210.6-0.9-315.9-1.4
			c-62.3-0.4-124.5-0.4-186.8-0.9c0.1-8.2,0-16.4,0-24.6c0-8.9,0-17.7,0-26.6C261.2,80.8,261.4,63.4,261.2,46z M739.6,61.3
			c-10.3,1.7-19.8,8.5-24.1,18.1c-5.7,12.5-4.3,27,0.1,39.6c2.7,8,10.1,13.6,17.9,16.1c9.7,3.1,20.3,3.4,30.3,1.7
			c9.6-1.7,18.5-7.8,22.7-16.8c5.2-11.1,4.6-24.1,1.7-35.7c-2.3-9.2-9.3-16.9-18.2-20C760.4,60.9,749.8,59.8,739.6,61.3z
			 M299.9,61.5c0.1,6.4,0.2,12.8,0.1,19.1c7.8-0.1,15.6,0.1,23.4,0.2c0,18.3,0.5,36.6,0.6,54.8c7.8-0.1,15.7-0.2,23.5-0.1
			c-0.2-18.1-0.8-36.1-0.8-54.2c7.6-0.6,15.3-0.6,22.9-0.9c-0.1-6.3-0.3-12.6-0.5-18.9C346,61.6,323,61.4,299.9,61.5z M373.9,61.5
			c0.5,24.7,1.1,49.5,1.8,74.2c7.7-0.2,15.4-0.3,23.1-0.5c0-8.3-0.2-16.5-0.1-24.8c6.9,0.3,15.1-2.3,20.9,2.6
			c5.7,6.1,1.4,16,6.4,22.5c8.2,0.2,16.5-0.1,24.7-0.2c-1.2-3.2-2.8-6.3-3.2-9.7c-0.5-3.7-0.4-7.5-1.2-11.2c-1-4.3-4-7.8-7-10.9
			c4.6-3.5,7-9.2,7.4-14.9c0.6-6.6,0.2-14.1-4.6-19.2c-5.9-6.1-14.8-7.9-23-8.1C404,61.6,388.9,61.5,373.9,61.5z M484,62.1
			c0.3,24.8,0.9,49.7,1.4,74.5c16.5,0,33.1-0.1,49.6-0.2c4.6,0,9.4-0.8,13.2-3.6c7.4-5.2,10.1-15.4,7.5-23.8c-1.1-3.7-3.5-6.7-6-9.5
			c3.5-2.5,5.5-6.6,5.9-10.8c0.8-6.7,0.5-14.3-4.2-19.6c-4.9-5.3-12.3-7.4-19.3-7.4C516,62,500,61.9,484,62.1z M560,61.8
			c0,16.2,0.9,32.4,1.1,48.7c0,8.9,5.2,17.5,12.9,21.9c8.4,4.9,18.5,5.9,28,5.4c8.3-0.4,17-3.2,22.6-9.7c4.6-5.3,6.7-12.6,6.5-19.6
			c-0.2-15.6-0.6-31.2-0.8-46.8c-7.6,0.2-15.1,0.5-22.7,0.7c0.1,15.8,0.3,31.5,0.4,47.3c0.4,3.8-2.9,6.8-6.4,7.6
			c-4.7,1-10.1,0.9-14-2.1c-2.3-1.8-3.6-4.7-3.5-7.6c-0.4-15.2-0.5-30.4-0.9-45.7C575.3,61.9,567.7,61.9,560,61.8z M636.4,61.9
			c0.4,25.1,0.8,50.2,1.1,75.4c7.5,0.1,14.9-0.3,22.4-0.2c0.3-12.8-0.3-25.5-0.2-38.3c8.3,12.6,15.5,25.9,23.4,38.8
			c8.3-0.2,16.7-0.4,25-0.6c-0.3-25.1-1-50.3-1.2-75.4c-7.5,0-15,0-22.5,0.3c0.2,12.8,0.6,25.6,0.6,38.4
			c-7.7-12.7-15-25.6-22.3-38.5C653.9,61.6,645.2,61.8,636.4,61.9z M452.8,62.1c0.5,24.7,1.2,49.4,1.8,74.2c7.7,0,15.4-0.2,23.1-0.3
			c-0.5-24.7-1.1-49.4-1.6-74.1C468.4,61.8,460.6,62,452.8,62.1z"/>
	</g>
	<path fill="#EF0A2B" d="M507.2,80.5c6.9-0.2,13.8-0.5,20.7-0.3c3.9-0.1,3.9,4.5,3.5,7.2c-0.1,2.8-3.4,2.9-5.4,3
		c-6.1-0.1-12.3-0.2-18.4-0.4C507.5,86.8,507.4,83.7,507.2,80.5z"/>
	<path fill="#EF0A2B" d="M745.4,81c5.4-1.3,11.8-0.7,16.2,3c3.9,3.7,3.7,9.5,3.8,14.4c0,5,0.9,10.7-2.2,15
		c-3.3,4.8-9.9,5.6-15.3,4.7c-4.3-0.5-9-3.1-9.8-7.7c-1-5.6-1.2-11.3-1.3-17C736.6,88.1,740,82.5,745.4,81z"/>
	<path fill="#EF0A2B" d="M398.3,81.6c6.9,0,13.8-0.4,20.7-0.2c4,0,4,4.8,3.3,7.7c-0.4,2.6-3.5,2.4-5.5,2.5
		c-6.1-0.1-12.2-0.1-18.3-0.4C398.5,88,398.4,84.8,398.3,81.6z"/>
	<path fill="#EF0A2B" d="M507.7,108.3c7.1,0.1,14.2-0.6,21.3-0.1c3.5,0.5,3.2,4.9,2.8,7.5c-0.1,2.3-3,2.5-4.7,2.6
		c-6.3,0.1-12.6-0.3-18.9-0.2C507.9,114.9,507.8,111.6,507.7,108.3z"/>
</g>
</svg>
