<?xml version="1.0" encoding="utf-8"?>
<!-- Generator: Adobe Illustrator 18.0.0, SVG Export Plug-In . SVG Version: 6.00 Build 0)  -->
<!DOCTYPE svg PUBLIC "-//W3C//DTD SVG 1.1//EN" "http://www.w3.org/Graphics/SVG/1.1/DTD/svg11.dtd">
<svg version="1.1" id="Capa_1" xmlns="http://www.w3.org/2000/svg" xmlns:xlink="http://www.w3.org/1999/xlink" x="0px" y="0px"
	 viewBox="32.4 27.6 1428.6 386.7" enable-background="new 32.4 27.6 1428.6 386.7" xml:space="preserve">
<g id="_x23_ffffffff">
</g>
<g id="_x23_4f4f4fff">
	<path fill="#4F4F4F" d="M165.1,27.6c88.6,0,177.2,0,265.9,0c2.7,0,5.4,0.9,7.9,1.8C466.9,38,492.3,56,508,81
		c13.2,20.8,18.8,45.6,18.8,70c-0.1,18.1-2.3,36.3-7.2,53.8c-5,18-13.2,35.2-25.3,49.5c-17.5,20.8-43.4,34.3-70.5,36.8
		c-13.9,0.7-27.9-0.1-41.8,0.4c-42.9,0.2-85.8,0.4-128.7,0.7c0,13.9,0,27.7,0,41.6c-28.3,0-56.6,0-84.9,0
		c-0.3-13.6-0.6-27.2-0.8-40.8c-18.9,0.2-37.9,0.6-56.8,0.8c-0.3-29.9-0.6-59.9-0.8-89.8c17.8-0.8,35.7-0.9,53.5-1.9
		C163.9,143.9,164.6,85.8,165.1,27.6 M255.4,117c-0.2,29.7-0.3,59.5-0.5,89.2c54,0,108.1,0,162.1,0c4,0,7.7-2.1,11-4.2
		c9.6-6.5,15.1-17.7,17.1-28.8c2.1-12.3,2.1-25.5-3.4-36.9c-4.4-9.3-13-16.3-22.7-19.3c-4.5-1.5-9.3-0.7-14-0.9
		C355.1,116.4,305.3,116.5,255.4,117z"/>
	<path fill="#4F4F4F" d="M1280.5,90c12.2,0,24.3,0,36.5,0c0,70.3,0,140.7,0,211c-12.2,0-24.3,0-36.5,0
		C1280.5,230.7,1280.5,160.3,1280.5,90z"/>
	<path fill="#4F4F4F" d="M1350.5,90c12.2,0,24.3,0,36.5,0c0,70.3,0,140.7,0,211c-12.2,0-24.3,0-36.5,0
		C1350.5,230.7,1350.5,160.3,1350.5,90z"/>
	<path fill="#4F4F4F" d="M569.4,96.6c6.3-1.4,13.5-0.9,18.8,3.1c7.9,5.7,10.1,17.5,5.5,25.9c-6.2,11.4-23.7,13.3-32.9,4.6
		c-7.5-7-7.9-20-1.2-27.6C562.2,99.7,565.7,97.6,569.4,96.6z"/>
	<path fill="#4F4F4F" d="M1434.4,96.6c6.8-1.5,14.6-0.7,20,4c8.8,7.6,9,23.2-0.3,30.5c-5.5,4.4-13.2,5.3-19.9,3.8
		c-8-1.9-14.2-9.6-14.3-17.9C1419,107.8,1425.4,98.7,1434.4,96.6z"/>
	<path fill="#4F4F4F" d="M796,129.9c12-3.4,24-6.7,36-10.2c0,12.4,0,24.8,0,37.3c11.6,0,23.2,0,34.8,0c0,9.2,0,18.3,0,27.5
		c-11.6,0-23.2,0-34.7,0c-0.1,17.8,0,35.7,0,53.5c0.1,8.3-0.5,16.9,2.1,24.9c1.6,5.1,5.9,9.5,11.4,10.4c6.5,1.1,13.1,0.5,19.5-1
		c0.4,9.3,0.4,18.6,0.6,27.9c-9.8,3.3-20.3,4-30.7,3.6c-11-0.6-22.3-4.9-29.2-13.7c-7.5-9.3-9.2-21.7-9.7-33.2
		c-0.1-24.2,0-48.3,0-72.5c-6.8,0-13.7,0-20.5,0c0-9.2,0-18.3,0-27.5c6.8,0,13.7,0,20.5,0C796,148,796,138.9,796,129.9z"/>
	<path fill="#4F4F4F" d="M692.9,155.3c13.2-2.8,27.7-1.6,39.5,5.4c9.7,5.6,16.7,15.1,20.5,25.5c3.3,9.2,4.8,19.1,4.6,28.8
		c0,28.7,0,57.3,0,86c-12.2,0-24.3,0-36.5,0c0-26.7,0-53.4,0-80.1c-0.2-10-1.4-20.9-8.1-28.9c-6-7.2-16.1-9.4-25-7.7
		c-10.4,1.9-18.9,10.1-22.6,19.8c-1.9,4.7-2.1,9.8-2.2,14.8c0,27.3,0,54.7,0,82.1c-12.2,0-24.3,0-36.5,0c-0.4-48,1-96-1.3-144
		c10.7,0,21.3,0,32,0c0.7,7.4,1.1,14.8,1.9,22.2C666.6,167.2,679,158.3,692.9,155.3z"/>
	<path fill="#4F4F4F" d="M889.9,166.1c17-9.4,36.9-12.7,56.1-12.1c14.1,0.5,28.9,4.6,39.2,14.6c11,10.7,15.3,26.4,15.7,41.3
		c0,19,0,38,0,57c0.3,11.4,0.4,22.8,2.5,34c-11.1,0-22.2,0-33.2,0c-1-5.5-1.8-11-2.8-16.5c-7.4,9.2-17.9,15.7-29.4,18.2
		c-13.2,2.9-27.7,1.9-39.4-5.2c-12.8-7.6-20.6-22.6-19.9-37.4c-0.3-13.4,5.6-26.8,16-35.3c12.2-10.2,28-14.7,43.4-16.9
		c8.7-1.2,17.4-1.7,26.2-1.5c0.4-7.1-1.4-14.7-6.9-19.5c-6.8-6.2-16.6-7.1-25.4-6.7c-12.5,0.5-25,3.9-35.8,10.2
		c-2.3-7.8-4.9-15.4-7-23.2C889.3,166.8,889.7,166.3,889.9,166.1 M931.7,234.8c-6.4,2.5-12.6,7-15.1,13.7c-2.6,7.2-2,16,2.7,22.2
		c4.8,6.1,13.3,7.8,20.6,6.7c11.5-1.4,22-10,24.8-21.3c1.1-8.7,0.3-17.5,0.5-26.2C954,230.2,942.4,230.6,931.7,234.8z"/>
	<path fill="#4F4F4F" d="M1077.7,165.7c9.5-9.5,23.9-14.2,37.1-10.9c0,11.4,0,22.9,0,34.3c-8.5-1.4-17.6-1.6-25.6,2.1
		c-8.3,3.7-14.4,11.3-17.1,19.9c-1.9,5.7-2,11.8-2.1,17.8c0,24,0,48,0,72c-12.2,0-24.3,0-36.5,0c0-33,0-66,0-99
		c-0.4-15-0.1-30-1.3-45c10.6,0,21.2,0,31.8,0c0.4,9.4,0.9,18.7,1.5,28.1C1068.5,178.1,1072.1,171.1,1077.7,165.7z"/>
	<path fill="#4F4F4F" d="M1154.1,166.1c12.1-8.7,27.2-12.6,41.9-12.2c14.4-0.1,29.2,4.4,40,14.1c11.7,10.4,18.2,25.7,20.5,40.9
		c1.5,9.9,1.4,20,0.1,29.9c-32.5,0.3-65,0-97.4,0.1c0.2,8.9,3.3,17.9,9.5,24.4c7.3,7.8,18,11.5,28.5,12.6c15.9,1.1,32.1-1,47.2-6.3
		c1.8,8.4,3.7,16.8,5.4,25.2c-12.6,5.2-26.1,7.9-39.6,8.8c-13.4,0.9-27.2,0.4-40.1-3.8c-12-3.8-23.2-10.9-31-20.9
		c-8.4-10.5-13-23.6-14.4-36.9c-1.6-15.8,0.1-32.3,6.6-46.9C1136,183.7,1144,173.5,1154.1,166.1 M1171.3,187.3
		c-7.2,6.8-11.1,16.5-12.3,26.2c21.3,0.1,42.6,0,63.9,0.1c-0.1-9.6-2.7-19.8-9.7-26.8C1202.1,176,1182.5,176.7,1171.3,187.3z"/>
	<path fill="#4F4F4F" d="M556.5,157c12.2,0,24.3,0,36.5,0c0,48,0,96,0,144c-12.2,0-24.3,0-36.5,0C556.5,253,556.5,205,556.5,157z"/>
	<path fill="#4F4F4F" d="M1421.5,157c12.2,0,24.3,0,36.5,0c0,48,0,96,0,144c-12.2,0-24.3,0-36.5,0C1421.5,253,1421.5,205,1421.5,157
		z"/>
	<path fill="#4F4F4F" d="M32.4,249.2c16.5-27.9,32.9-55.9,49.4-83.8c0.3,12.3,0.6,24.5,1,36.8c6.5,0.3,12.9,0.3,19.4,0.5
		c0.1,30.2,0.3,60.4,0.5,90.6c-6.6,0.4-13.3,0.5-19.9,1.1c-0.1,11.9-0.3,23.8-0.5,35.8C65.7,303.2,49.1,276.2,32.4,249.2z"/>
	<path fill="#4F4F4F" d="M168.3,342.2c28.1,0,56.1,0,84.2,0c0.1,8.3,0.3,16.5,0.4,24.8c9.5,0.2,19-0.3,28.5-0.2
		c-24,15.9-48.1,31.6-72.2,47.5c-23.8-15.6-47.6-31.1-71.3-46.7c10.1,0.3,20.3,0.2,30.4,0.2C168.3,359.3,168.3,350.7,168.3,342.2z"
		/>
</g>
</svg>
