<?xml version="1.0" encoding="utf-8"?>
<!-- Generator: Adobe Illustrator 18.0.0, SVG Export Plug-In . SVG Version: 6.00 Build 0)  -->
<!DOCTYPE svg PUBLIC "-//W3C//DTD SVG 1.1//EN" "http://www.w3.org/Graphics/SVG/1.1/DTD/svg11.dtd">
<svg version="1.1" id="Capa_1" xmlns="http://www.w3.org/2000/svg" xmlns:xlink="http://www.w3.org/1999/xlink" x="0px" y="0px"
	 viewBox="14.9 11.2 338.8 98.5" enable-background="new 14.9 11.2 338.8 98.5" xml:space="preserve">
<g id="_x23_ffffffff">
</g>
<g id="_x23_b42224ff">
	<path fill="#B42224" d="M51.7,19.6c15.7-7.1,33.3-8.3,50.3-8.3c15.2-0.2,30.3,1.1,45.5,0.2c-6.5,11-13,22-19.5,33.1
		c-31,0-61.9,0-92.9,0c-4.2,0.1-8.6,0-12.6-1.3C28.5,31.7,40,24.4,51.7,19.6z"/>
	<path fill="#B42224" d="M156.2,11.6c34.9-0.1,69.7,0,104.6-0.1c-6.6,11.8-13.8,23.2-20.5,35c-9.7,0-19.4,0-29.1,0
		c-12.3,21-24.9,41.8-37.2,62.8c-12.8,0-25.7,0-38.6,0c12.3-20.9,24.5-41.8,37.1-62.4c-12.3-0.7-24.7-0.2-37.1-0.3
		C142.3,34.8,149.3,23.2,156.2,11.6z"/>
	<path fill="#B42224" d="M271.3,13.5c14.6,0,29.1,0,43.7,0c4.4,0.2,8.8,0.1,13.1,1c9.7,2.2,17.9,9.3,22.3,18.1
		c4.1,8.3,4.4,18.4,1.1,27c-4.5,11.6-16,20.6-28.6,20.8c-8.9,0.1-17.8,0-26.7,0c2.3,9.4,5,18.7,7.4,28c-13.1,0-26.2,0-39.3,0
		c-5-16.3-10.4-32.6-15-49c22.6,0,45.3,0,67.9,0c4.7,0.2,8.4-6.1,5.3-9.9c-1.3-2.7-4.7-3.2-7.4-3.1c-21.1,0-42.2,0-63.3,0
		C258.1,35.4,264.8,24.5,271.3,13.5z"/>
	<path fill="#B42224" d="M15.3,60.4c12.5-1.5,25.1-0.7,37.7-0.9c0,5.8-0.1,11.6,0.1,17.4c19.2,0.2,38.4,0,57.5,0.1
		c-5.1,10.4-10.6,20.7-15.4,31.2c-14.7-0.2-29.5,1.8-44.1-0.8c-11-1.8-21.9-6.9-28.8-16C15.8,82.6,14.1,71.1,15.3,60.4z"/>
	<path fill="#B42224" d="M219.2,85.3c6.5-2.6,14.6,1.2,16.8,7.8c1.3,5.1,0,11.4-4.7,14.3c-4.7,3.4-11.7,3.2-15.9-0.8
		C208.5,100.9,210.9,88.3,219.2,85.3z"/>
</g>
</svg>
