<?xml version="1.0" encoding="utf-8"?>
<!-- Generator: Adobe Illustrator 18.0.0, SVG Export Plug-In . SVG Version: 6.00 Build 0)  -->
<!DOCTYPE svg PUBLIC "-//W3C//DTD SVG 1.1//EN" "http://www.w3.org/Graphics/SVG/1.1/DTD/svg11.dtd">
<svg version="1.1" id="Capa_1" xmlns="http://www.w3.org/2000/svg" xmlns:xlink="http://www.w3.org/1999/xlink" x="0px" y="0px"
	 viewBox="24 16.9 335.4 152.8" enable-background="new 24 16.9 335.4 152.8" xml:space="preserve">
<g id="_x23_ffffffff">
</g>
<g id="_x23_f1000dff">
	<path fill="#F1000D" d="M37.2,26.2c7.3-5.2,16.3-7.3,25-8.5c16.5-1.8,33.3-0.7,49.6,2.6c-0.2,8.8,0.1,17.6-0.1,26.3
		c-12.4-4.2-25.7-6.2-38.8-4.6c-3.2,0.5-7.9,1.8-7.9,5.9c-0.3,3.6,3.6,4.8,6.3,5.8c9.7,2.8,20.1,3.3,29.4,7.5
		c7.4,3,14.1,8.9,16.2,16.8c2.9,10.6,1.3,23.2-6.7,31.2c-8,8-19.5,11-30.5,12.3c-17.8,1.6-35.8-0.3-53.2-4.2
		c0.1-8.8,0.1-17.7,0-26.5c11.9,4.4,24.5,6.9,37.2,6.6c4.5-0.3,9.5-0.6,13.3-3.4c2.2-1.4,2.5-5,0.4-6.6c-3.4-3.1-8.3-3.6-12.6-4.7
		c-11-2.3-23-4.2-31.5-12.2c-7.1-6.7-8.7-17.3-7.3-26.6C27.1,36.9,31.3,30.3,37.2,26.2z"/>
	<path fill="#F1000D" d="M128.9,18.7c21,0.1,42.1,0,63.1,0.1c11.8,0.4,24.4,3.4,32.8,12.4c9,9.9,11.2,23.9,11.3,36.9
		c0.3,12.9-1.7,26.8-10.2,37c-7,8.7-17.9,13.1-28.7,14.6c-9.7,1.2-19.4,0.8-29.1,0.9c-13,0-25.9-0.1-38.9,0
		C128.8,86.6,129.2,52.7,128.9,18.7 M168.2,42.6c0.1,17.4,0,34.7,0,52.1c6.4-0.4,13.5,1.3,19.3-2.2c6.4-4.1,7.2-12.5,7.5-19.4
		c-0.1-8.8,0.8-18.8-4.9-26.1C184.5,40.8,175.5,42.8,168.2,42.6z"/>
	<path fill="#F1000D" d="M230.2,120.4c11.7-34,23.9-67.8,35.6-101.7c18,0,36,0,54.1,0C332,52.6,344,86.5,356.2,120.3
		c-13.8,0.4-27.6,0.2-41.4,0.1c-2-7.3-4.4-14.6-6.6-21.9c-10.9,0-21.8,0-32.7,0c-2,7.3-4.2,14.6-6.2,21.9
		C256.3,120.5,243.3,120.5,230.2,120.4 M281.1,73.7c7.3,0.1,14.6,0.1,21.9,0c-3.3-11-7.2-21.9-10.8-32.8
		C288.4,51.8,284.8,62.7,281.1,73.7z"/>
	<path fill="#F1000D" d="M24.9,145.7c2.1-5.6,4-11.3,6.1-17c4.2,0.1,8.5,0.1,12.7,0c-2.1,6.6-4.8,13-6.8,19.6c3.4,0,6.9,0,10.3,0.1
		c2.3-6.5,4.7-13.1,7-19.6c4.2,0,8.5,0,12.7,0c-2,6.6-4.8,13-6.7,19.6c3.4-0.1,6.8-0.1,10.2,0c2.4-6.5,4.6-13.1,7.1-19.6
		c4.2,0.1,8.4,0.1,12.5,0c-1.8,6.7-4.6,13-6.7,19.6c3.4,0,6.8-0.1,10.2,0.1c2.7-6.4,4.7-13.1,7.2-19.6c4.3,0.1,8.5,0.1,12.8,0
		c-2.2,6.6-4.6,13-6.9,19.6c3.5,0,7,0,10.5,0c2.2-6.6,4.6-13,6.9-19.6c4.2,0.1,8.5,0.1,12.7,0c-2,6.6-4.8,12.9-6.7,19.5
		c3.4,0,6.8,0,10.2,0c2.3-6.5,4.8-12.9,6.8-19.4c4.3-0.2,8.7-0.1,13-0.1c-2.2,6.5-4.8,12.9-6.8,19.5c3.4-0.1,6.8-0.1,10.2,0
		c2.5-6.5,4.6-13.1,7.1-19.6c4.2,0.1,8.4,0,12.6,0.1c-2,6.6-4.7,12.9-6.8,19.5c3.4,0,6.8,0,10.2,0.1c2.6-6.5,4.7-13.1,7.2-19.7
		c4.2,0.1,8.5,0,12.7,0c-2.1,6.6-4.8,12.9-6.8,19.5c3.4,0,6.7-0.1,10.1,0.2c2.7-6.4,4.8-13.1,7.1-19.7c4.3,0,8.6,0,12.8,0
		c-2.1,6.6-4.8,12.9-6.8,19.6c3.4-0.1,6.8-0.1,10.2,0c2.3-6.5,4.7-13,6.9-19.6c4.2,0,8.5,0,12.7-0.1c-1.9,6.7-4.8,13-6.7,19.7
		c3.4-0.1,6.8-0.1,10.2-0.1c2.5-6.5,4.7-13.1,7.1-19.6c4.2,0.2,8.4,0.1,12.6,0c-2,6.6-4.7,13-6.8,19.6c3.5-0.1,6.9-0.1,10.4-0.1
		c2.2-6.6,4.6-13.1,7-19.6c4.3,0.1,8.5,0.1,12.8,0c-2.3,6.5-4.8,13-6.9,19.6c3.3,0,6.7-0.1,10,0.1c2.8-6.4,4.8-13.1,7.2-19.7
		c4.3,0.1,8.5,0.1,12.8,0c-2,6.6-4.9,12.9-6.7,19.6c3.4-0.1,6.8-0.1,10.2,0c2.4-6.5,4.8-13,7-19.6c4.3,0.1,8.5,0.1,12.8,0
		c-2,6.6-4.8,13-6.7,19.6c3.4,0,6.8-0.1,10.2,0c2.6-6.5,4.5-13.2,7.2-19.6c0.7,0,2,0,2.7,0c0,13.7-0.1,27.3,0.1,40.9
		c-111.8,0.2-223.6,0-335.3,0.1c0-6.3,0-12.5,0-18.8C23.9,149.1,24.2,147.3,24.9,145.7z"/>
</g>
</svg>
