<?xml version="1.0" encoding="utf-8"?>
<!-- Generator: Adobe Illustrator 18.0.0, SVG Export Plug-In . SVG Version: 6.00 Build 0)  -->
<!DOCTYPE svg PUBLIC "-//W3C//DTD SVG 1.1//EN" "http://www.w3.org/Graphics/SVG/1.1/DTD/svg11.dtd">
<svg version="1.1" id="Capa_1" xmlns="http://www.w3.org/2000/svg" xmlns:xlink="http://www.w3.org/1999/xlink" x="0px" y="0px"
	 viewBox="33.9 35 1917.3 327.4" enable-background="new 33.9 35 1917.3 327.4" xml:space="preserve">
<g id="_x23_373634ff">
	<path fill="#373634" d="M167.9,36.1c17.1-2,34.7-1.3,51.6,2.3c-3.5,15-7.4,29.8-11.4,44.7c-0.8,2.8-1.7,5.6-1.9,8.6
		c-1,0.3-1.9,0.7-2.9,1c-17.2-2.9-35.1-3.2-52.3,0.3c-4.1,16.9-9.3,33.6-14.1,50.3c18-2.9,36.3-1.7,54.3,0.4
		c4.1-16.5,9.2-32.7,13.5-49.1c0.4-0.7,0.8-1.4,1.4-2c13.1,2.8,26.1,6.3,38.3,11.8c2.8,1.1,5.4,3,8.5,3.4c0.2,1.6,0.4,3.2-0.3,4.7
		c-4.7,13.9-9,27.9-13.6,41.8c-0.5,1.5-0.7,3-0.8,4.6c-1,0.2-1.9,0.3-2.9,0.5c-13.7-7.4-28.5-13.3-44-15.3
		c-4.7,18.4-11,36.4-16.2,54.8c16.3,2.8,32.2,7.3,47.1,14.5c0,4.3-1.8,8.2-3,12.3c-4,13-8.7,25.9-12.6,39c16,7.9,31.2,17.3,47,25.6
		c4.7-17,9.3-34,13.4-51.1c-14-7.8-27.6-16.2-41.8-23.5c-1.3-0.5-2-1.7-2.8-2.8c5.7-16.8,9.7-34.2,14.1-51.3c0.3-0.6,0.7-1.3,1-1.9
		c1.1,0.8,2.3,1.5,3.5,2.1c14.9,7.2,28.2,17.6,43.4,24.3c4.5-16.3,8.5-32.6,12.1-49.1c0.1-1,0.6-1.9,1.3-2.5c0.4,0,1,0,1.4,0.1
		c15.4,7.5,31.5,14.5,48.5,17.3c4.7-18.1,9.8-36.1,15.1-54.1c17.1,1.8,34.4,0.1,51.2-2.9c0.4,0.2,1.3,0.7,1.7,0.9
		c-5.3,18.4-10.2,36.8-15.2,55.3c19.6-1.8,38.2-8.7,56.7-15.1c5.5-19.8,12.1-39.2,18.6-58.7c18.9-7.7,38.4-13.6,58.1-19
		c-5.1,18-10.1,36-15.3,53.9c17.7-6.1,36.5-8.6,55.2-8.9c-4.9,17.1-10,34.2-14.8,51.3h-0.1c-19.1,0.2-37.7,5.9-55.7,11.9
		c-4.6,16.7-9.8,33.3-14.7,49.9c17.6-5.7,36.1-7.4,54.5-7.9c-0.3,3-1.4,5.8-2.2,8.6C537,231,533,245,528.8,258.9
		c-19.2,0.7-37.8,6.4-56.1,11.8c-3.9,17.5-9.6,34.5-14,51.8l0,0.2c-16.9,4.4-33.6,9.7-49.8,16.2c-3.1,1.1-6,2.6-9.2,3.3
		c4.3-16,9-32,13.3-48c-19.1,6.1-38.7,10.9-58.5,14.2c-5,17.3-9.9,34.6-14.5,51.9c0.5,0,1.5-0.2,2-0.2c-18.3,2.8-37,3.1-55.4,0.3
		c1.9-3.8,2.8-8,4.1-12c3.8-13.1,7.3-26.3,11.5-39.3c-17.3-2.6-33-10.8-48.4-18.5c-4.5,16.6-10.6,32.6-15.3,49.1
		c-0.2,1.2-1.1,2-2,2.8l-0.3,0.3c-2.3-1.4-4.6-2.7-7-3.9c-12.7-6.4-24.9-13.5-37.2-20.6c5.3-17.7,9.5-35.6,14.5-53.4
		c-14-8-29.4-13.8-45.3-16.3c-4.6,18-10.4,35.6-15.8,53.3c-17.5-2.1-35.1-0.6-52.5,0.9c4.2-17.7,8.7-35.5,12.9-53.2
		c0.6-0.6,1.2-1.1,1.7-1.7c17.8-2.5,35.9-2.4,53.6,0.2c4.2-16.4,9.4-32.6,13.8-49c-17.8-3.2-36.2-3.6-54.1-1
		c-4.3,14.9-8.2,30-12.6,44.9c-0.6,2-1.5,3.9-2.5,5.7c-19.5,2.5-38.2,8.7-56.6,15.2c4.7-16.8,9.7-33.5,14.4-50.3l0.2-0.1
		c18.8-5.8,37.5-12.4,57-15.7c4.6-18.3,10-36.3,15.9-54.1c-19.7,3.3-39,9.1-57.6,16.3c4.7-17.2,9.9-34.2,14.6-51.4l0.2-0.1
		c18.8-6.1,37.5-13.1,57.1-15.7C156.1,73.7,162.3,55,167.9,36.1 M457.8,136.1c-3.3,16.7-9.2,32.8-13.8,49.1
		c19.6-6.6,39.2-13.3,59.1-19c5.9-17.6,8.8-36.1,15.1-53.6C497.4,118.6,478.1,128.8,457.8,136.1 M348.1,152
		c-5.1,16.7-10.4,33.3-16,49.8c17.7,1.5,35.5,1.4,53.1-0.3c0.4,0.1,1.1,0.4,1.5,0.6c-4.9,17.8-10.8,35.5-16.3,53.1
		c18.4-1,35.7-7.7,52.9-13.6c1.9-0.7,4.6-1,4.8-3.6c5.1-17.3,10.4-34.6,15.2-52c-17.8,6.2-35.8,12.4-54.6,15.3
		c-0.4-0.1-1.2-0.2-1.6-0.3c3.6-16.8,9.1-33.1,13.1-49.8C383.1,154,365.5,154,348.1,152 M267.5,239c15.8,7.9,32.9,13.1,50.3,16.3
		c4.7-17.7,9-35.6,13.8-53.3c-16.5-2-31.8-8.7-46.7-15.6C280.2,204.3,273.5,221.5,267.5,239 M427.8,240.2
		c-4.4,17.8-9.9,35.3-14.1,53.1c18.9-9.2,38.7-16.4,58.7-22.8c4.5-18,10.9-35.6,15.7-53.5C467.7,223.7,447.8,232.2,427.8,240.2
		 M317.9,255.7c-4.9,17.7-10,35.3-15.4,52.8c17.2,1.8,34.6,2.2,51.7-0.4c6.1-17.3,12.1-34.8,15.7-52.8
		C352.7,257.7,335.1,258.4,317.9,255.7z"/>
	<path fill="#373634" d="M268.2,56.5c0.4,0.1,1.3,0.2,1.7,0.2C284.5,64.3,298.6,73,313,81c-4.9,17.2-9.6,34.4-14.8,51.4
		c-0.3,0.2-0.8,0.6-1,0.8c-15.1-6.5-28.4-16.4-43.1-23.7c-0.4-3,0.8-5.8,1.5-8.6C259.5,86,264,71.3,268.2,56.5z"/>
	<path fill="#373634" d="M817.5,98.8c9.4-0.8,19.1-1.5,28.3,1c18.8,4.7,34.7,19.5,40.5,38.1c9.1,28.4,9.5,59.1,3.8,88.3
		c-3.2,17.7-13.1,34.8-28.6,44.4c-9.7,6.2-21.3,7.5-32.5,7.8c-16.9-0.1-34.3-6.8-44.9-20.4c-8.8-11.8-13.6-26.3-15.8-40.7
		c-2.4-15.3-2.1-30.8-1.2-46.2c0.5-18.1,6-36.3,16.8-50.9C792,109.1,803.9,100.7,817.5,98.8 M828.4,149.5c-3.7,0.9-5.8,4.6-6.7,8
		c-1.4,5.7-2.2,11.6-2.1,17.5c-0.5,16.1-1.8,32.7,2.9,48.4c2.3,6.3,12.8,6.6,15,0.1c4.7-15.3,3.6-31.6,3.2-47.4
		c-0.3-7.4,0-15.3-3.5-22.1C835.7,150.7,832,148.5,828.4,149.5z"/>
	<path fill="#373634" d="M961.5,99.7c15-1.7,31.1,0.4,43.9,9c11.6,8.1,19.2,20.9,23.4,34.1c6.2,19.7,6.6,40.7,5.6,61.1
		c-1,18.2-4.8,36.9-15.2,52.1c-8.2,12.2-21.9,19.8-36.2,22.1c-15.3,2.4-31.7-0.1-45-8.3c-9.9-6-17.9-15.4-21.5-26.5
		c-6.2-18.8-9.4-38.6-9.2-58.4c0.4-21.2,5-42.7,15.5-61.3C930.9,110,946.1,101.8,961.5,99.7 M969.2,150.3c-2,0.3-3.3,2.1-4.3,3.7
		c-2.8,4.5-3.6,9.9-3.9,15.1c-0.5,9.3-0.3,18.6-0.7,28c-0.1,9.6,0.2,19.6,4.5,28.3c1.1,2.5,3.6,4.1,6.3,4.2c4.5-0.4,8.4-4.1,9.2-8.6
		c3.1-20.5,3.3-41.4,0.4-61.9C979.8,153.9,974.7,149,969.2,150.3z"/>
	<path fill="#373634" d="M639.7,101.8c2-0.6,4.1-0.2,6.2-0.3c32.2,0,64.4-0.2,96.6,0.5c-2.8,15.8-6.1,31.5-10.8,46.9
		c-15,1.5-30.1,0-45.2,0.7c-0.2,3.4-0.4,6.7-0.4,10.1c15.3-1,32,0.9,44.5,10.6c12.3,9.9,18.8,26,18.8,41.7
		c0.5,16.5-5.6,33.4-17.4,45.2c-10.6,10.2-24.9,15.9-39.3,18.5c-24.5,4-49.5-1-72.7-8.8c6.6-13.9,12.5-28,19.1-41.9
		c12.9,3.3,26.3,7,39.8,4.9c4.2-0.6,8.4-1.7,12.1-3.6c7-4.4,7-15.9,0.3-20.5c-4.1-2.6-8.7-4.2-13.4-5.2c-13.1-2.6-26.3,0.5-39.4,1.8
		C638.9,168.8,638.2,135.2,639.7,101.8z"/>
	<path fill="#373634" d="M1324.7,106.2c18.5-1.6,37-3.3,55.5-3.4c0,54.8,0.4,109.6-0.4,164.3c0,3.8,0.1,7.5-0.3,11.2
		c-18.4,0.2-36.8,2.7-55.2,2.8c0.3-16-0.3-32.1-0.2-48.1C1324.5,190.8,1324,148.5,1324.7,106.2z"/>
	<path fill="#373634" d="M1406.3,107.3c18.3-2.9,36.8-3.3,55.2-4.1c1,29.9,0.4,59.8,0.3,89.7c0.1,11.6-0.3,23.2,0.4,34.8
		c19.7,0.6,39.3-0.5,59,0.5c-0.9,14.7-6.7,28.5-9.3,42.8c-0.7,2.8-1.4,7.1-4.9,7.5c-33.5-1.1-67.1,0.6-100.6-1.3
		c-0.6-29.1-0.2-58.2-0.3-87.3C1406.5,162.4,1406.2,134.9,1406.3,107.3z"/>
	<path fill="#373634" d="M1137.8,105c17.1,0.2,34.2-1.1,51.2,0.8c7.9,19.8,13.8,40.4,23.1,59.6c3.4-5.8,5.3-12.3,7.9-18.5
		c5.2-13.7,10.1-27.6,16.1-41c16.8-1.5,33.7-0.4,50.5,0.1c5.9,51.3,12.9,102.5,18.4,153.9c0.6,5.8,1.4,11.5,1.7,17.4
		c-17.6,1.3-35.2,2.9-52.8,3.4c-2.3,0.1-2.6-2.9-2.8-4.6c-2.2-24.3-4.5-48.6-6.8-72.9c-12.7,26.7-22.1,54.8-33.8,81.9
		c-3.2-5.7-5-12.1-7.5-18.1c-7.5-19.7-14.7-39.5-22.8-59c-0.8-1.6-1-3.5-2.4-4.6c-3.1,25.4-6.2,50.9-9.3,76.3
		c-18.4,0.3-36.6-2-54.9-3.8C1122.2,219,1129,161.8,1137.8,105z"/>
	<path fill="#373634" d="M1533.5,107.3c18.7-0.2,37.2-4.7,55.9-2.1c0.1,41-2.2,82-0.3,123c19.9,2.4,40-1.6,59.8,2.2
		c-3.9,16.2-7.8,32.4-11.9,48.5c-30.6,0.2-61.3-0.4-91.9-0.5c-4,0-8,0.3-12,0.3c-0.3-15.6-0.4-31.2-0.3-46.8
		c-0.7-10.6,0.2-21.3,0-32C1532.7,169.1,1533.2,138.2,1533.5,107.3z"/>
	<path fill="#373634" d="M1846.2,119.3c13.8-9.9,31-13.7,47.8-14c16-0.2,31.9,2.3,47.5,5.4c-0.2,16.6,0.5,33.3-1,49.9
		c-16.9-4.1-34.6-8.2-52-5c-4.4,0.8-8.1,7.8-3.4,10.6c14.1,8.2,30.4,11.8,44,21c7.4,5.1,13.9,11.9,17.7,20.2
		c8.5,18.8,4.8,42.7-9.6,57.8c-7.7,7.7-17.9,12.1-28.1,15.5c-26.3,8.1-54.4,5-80.9-0.5c-0.8-16.2-0.5-32.5,0-48.8
		c19.6,1.5,39.5,8.3,59,2.8c4.6-1.2,7.7-8.2,3.2-11.3c-14.9-9.2-33.4-11.4-47-23c-14.8-11.4-19.6-32-15.7-49.7
		C1830,138.1,1836.4,126.7,1846.2,119.3z"/>
	<path fill="#373634" d="M1699.7,108.5c15.8-0.1,31.6,1,47.4,0.1c4.9-0.4,9.9,0.1,14.8,0.2c2.8,0.1,5.8,1.6,6.5,4.4
		c18.1,56,37.6,111.4,56.1,167.2c-17.9,1.4-35.8,2.5-53.6,4c-3.9,0.3-7.2-2.5-8.6-5.8c-3.4-7.4-3-16-6.7-23.4
		c-15.7-0.5-31.4-1.3-47.1,0.1c-3.1,9.4-5.8,18.9-9.1,28.3c-19.3-0.6-38.5-2.5-57.7-4c5.5-19.3,12.2-38.1,18.5-57.1
		C1673.3,184.5,1686.7,146.6,1699.7,108.5 M1725.6,184.5c-2.2,9-4.9,17.9-6.4,27c8.5,0.5,17.1,0.8,25.7,0.2
		c-3.8-17.3-7.7-34.5-12.5-51.5C1729.8,168.2,1727.8,176.4,1725.6,184.5z"/>
</g>
<g id="_x23_ffffffff">
	<path fill="#FFFFFF" d="M109.9,52.1c18.4-8,38-13.7,58-16.1c-5.5,18.9-11.8,37.6-17,56.7c-19.7,2.6-38.4,9.6-57.1,15.7
		C99.1,89.7,104.5,70.9,109.9,52.1z"/>
	<path fill="#FFFFFF" d="M219.5,38.3c17.6,3.4,34.6,10,50.4,18.4c-0.4-0.1-1.3-0.2-1.7-0.2c-4.2,14.8-8.7,29.5-12.6,44.4
		c-0.7,2.8-1.9,5.6-1.5,8.6c14.7,7.3,28.1,17.2,43.1,23.7c0.3-0.2,0.8-0.6,1-0.8c5.2-17.1,9.9-34.3,14.8-51.4
		c15.7,8.2,32.5,14.7,50.2,16.5c-5.4,17.9-10.5,35.9-15.1,54.1c-17-2.9-33-9.8-48.5-17.3c-0.4,0-1,0-1.4-0.1
		c-0.8,0.7-1.2,1.5-1.3,2.5c-3.5,16.5-7.6,32.9-12.1,49.1c-15.3-6.7-28.5-17-43.4-24.3c-1.2-0.6-2.4-1.4-3.5-2.1
		c-0.4,0.6-0.7,1.3-1,1.9c-4.4,17.2-8.4,34.5-14.1,51.3c0.7,1.1,1.5,2.3,2.8,2.8c14.2,7.3,27.9,15.7,41.8,23.5
		c-4.1,17.1-8.7,34.1-13.4,51.1c-15.8-8.4-31-17.7-47-25.6c3.8-13.1,8.6-25.9,12.6-39c1.2-4.1,2.9-8,3-12.3
		c-14.9-7.2-30.9-11.7-47.1-14.5c5.2-18.3,11.4-36.3,16.2-54.8c15.5,2,30.3,7.9,44,15.3c1-0.2,1.9-0.3,2.9-0.5
		c0.1-1.6,0.3-3.1,0.8-4.6c4.6-13.9,8.9-27.9,13.6-41.8c0.7-1.5,0.4-3.1,0.3-4.7c-3.1-0.4-5.7-2.2-8.5-3.4
		c-12.2-5.6-25.2-9.1-38.3-11.8c-0.6,0.6-1.1,1.2-1.4,2c-4.3,16.4-9.4,32.6-13.5,49.1c-18-2.1-36.3-3.3-54.3-0.4
		c4.8-16.8,10-33.4,14.1-50.3c17.2-3.4,35-3.2,52.3-0.3c1-0.3,1.9-0.7,2.9-1c0.2-3,1.1-5.8,1.9-8.6C212.1,68.2,216,53.3,219.5,38.3z
		"/>
	<path fill="#FFFFFF" d="M534.2,58c18.1-5.1,36.8-8.8,55.7-9c-5.3,18-10.5,36.1-15.7,54.1c-18.7,0.3-37.5,2.8-55.2,8.9
		C524.1,94,529.1,76,534.2,58z"/>
	<path fill="#FFFFFF" d="M414.3,94.5c21.1-3.9,41.6-10.7,61.9-17.5c-6.4,19.5-13.1,38.9-18.6,58.7c-18.5,6.4-37.1,13.3-56.7,15.1
		c5-18.4,9.9-36.9,15.2-55.3c-0.4-0.2-1.3-0.7-1.7-0.9L414.3,94.5z"/>
	<path fill="#FFFFFF" d="M457.8,136.1c20.4-7.3,39.7-17.5,60.5-23.4c-6.3,17.5-9.2,36-15.1,53.6c-19.9,5.6-39.5,12.4-59.1,19
		C448.6,168.8,454.5,152.8,457.8,136.1z"/>
	<path fill="#FFFFFF" d="M78.9,159.9c18.6-7.2,37.9-13,57.6-16.3c-5.9,17.9-11.3,35.9-15.9,54.1c-19.5,3.4-38.2,9.9-57,15.7
		C68.6,195.6,73.9,177.8,78.9,159.9z"/>
	<path fill="#FFFFFF" d="M348.1,152c17.4,2,35,2,52.2-0.9c-4.1,16.7-9.6,33-13.1,49.8c0.4,0.1,1.2,0.2,1.6,0.3
		c18.7-2.9,36.7-9.1,54.6-15.3c-4.8,17.4-10.1,34.7-15.2,52c-0.1,2.6-2.9,2.9-4.8,3.6c-17.2,5.9-34.6,12.6-52.9,13.6
		c5.5-17.7,11.4-35.4,16.3-53.1c-0.4-0.1-1.1-0.4-1.5-0.6c-17.7,1.7-35.5,1.9-53.1,0.3C337.8,185.3,343,168.6,348.1,152z"/>
	<path fill="#FFFFFF" d="M503.4,166.4c18-5.9,36.6-11.7,55.7-11.9c-5.1,18-10.5,35.9-15.5,53.9h-0.4c-18.4,0.5-36.9,2.2-54.5,7.9
		C493.6,199.6,498.9,183.1,503.4,166.4z"/>
	<path fill="#FFFFFF" d="M267.5,239c6-17.5,12.6-34.7,17.3-52.6c14.9,6.9,30.3,13.6,46.7,15.6c-4.8,17.7-9.1,35.6-13.8,53.3
		C300.5,252.1,283.4,246.9,267.5,239z"/>
	<path fill="#FFFFFF" d="M120.8,198.1c17.9-2.6,36.3-2.2,54.1,1c-4.4,16.4-9.6,32.5-13.8,49c-17.8-2.6-35.8-2.7-53.6-0.2
		c-0.6,0.6-1.1,1.1-1.7,1.7c-4.3,17.7-8.7,35.5-12.9,53.2c-20.2,2.4-39.9,7.7-59,14.4c5-17.8,10.2-35.5,15.2-53.3
		c18.5-6.4,37.2-12.7,56.6-15.2c1-1.8,1.9-3.7,2.5-5.7C112.6,228.1,116.5,213,120.8,198.1z"/>
	<path fill="#FFFFFF" d="M427.8,240.2c20-7.9,39.9-16.4,60.3-23.3c-4.9,17.9-11.2,35.5-15.7,53.5c-20,6.5-39.8,13.6-58.7,22.8
		C417.9,275.4,423.4,257.9,427.8,240.2z"/>
	<path fill="#FFFFFF" d="M161.1,248.5c15.9,2.6,31.3,8.3,45.3,16.3c-5.1,17.7-9.2,35.7-14.5,53.4c-14.6-7.5-30.1-14.2-46.5-16.4
		C150.8,284.1,156.5,266.5,161.1,248.5z"/>
	<path fill="#FFFFFF" d="M317.9,255.7c17.2,2.7,34.8,2,52-0.3c-3.6,18-9.6,35.5-15.7,52.8c-17.1,2.6-34.6,2.2-51.7,0.4
		C307.9,291,313,273.4,317.9,255.7z"/>
	<path fill="#FFFFFF" d="M472.8,270.7c18.3-5.4,36.9-11.1,56.1-11.8c-5.1,17.5-10.1,35-15.3,52.5c-18.6,1.4-36.7,6.7-54.8,11.1
		C463.2,305.2,468.9,288.2,472.8,270.7z"/>
	<path fill="#FFFFFF" d="M253.7,290.5c15.4,7.8,31.1,16,48.4,18.5c-4.2,13-7.7,26.2-11.5,39.3c-1.3,4-2.2,8.2-4.1,12
		c-17.5-3.2-34.2-9.8-50.1-17.7l0-0.3c0.9-0.8,1.8-1.6,2-2.8C243.1,323.1,249.2,307,253.7,290.5z"/>
	<path fill="#FFFFFF" d="M354.5,308.4c19.8-3.3,39.4-8.2,58.5-14.2c-4.3,16-9,32-13.3,48l-0.1,0.4c-18.6,7.6-37.7,14.8-57.7,17.6
		c-0.5,0.1-1.5,0.2-2,0.2C344.6,342.9,349.5,325.6,354.5,308.4z"/>
</g>
</svg>
