<?xml version="1.0" encoding="utf-8"?>
<!-- Generator: Adobe Illustrator 18.0.0, SVG Export Plug-In . SVG Version: 6.00 Build 0)  -->
<!DOCTYPE svg PUBLIC "-//W3C//DTD SVG 1.1//EN" "http://www.w3.org/Graphics/SVG/1.1/DTD/svg11.dtd">
<svg version="1.1" id="Layer_1" xmlns="http://www.w3.org/2000/svg" xmlns:xlink="http://www.w3.org/1999/xlink" x="0px" y="0px"
	 viewBox="0.5 21.5 1368.1 397" enable-background="new 0.5 21.5 1368.1 397" xml:space="preserve">
<path fill="#FFFFFF" d="M0.5,21.5h41.1c-1.3,0.3-2.7,0.5-4.1,0.5c-12.4,0-24.7,0.3-37,0.2C0.5,22.3,0.5,21.5,0.5,21.5z"/>
<path fill="#FFFFFF" d="M1322.5,111.1c3.6-4.4,11.4-3.9,15,0.4c4.1,5,4.5,13.1-0.1,17.9c-1.6-2.4-2.9-4.9-4.2-7.5
	c3.8-1.1,5-6.6,1.9-9C1331.6,110.1,1326.6,111.2,1322.5,111.1z"/>
<path fill="#FFFFFF" d="M1322,129.5c-5.2-4.3-5.3-13.9,0-18C1321.9,117.5,1321.8,123.5,1322,129.5z"/>
<path fill="#FFFFFF" d="M1326.6,114.3c1.6,0.1,4.6-0.3,4.6,2.1c0.3,2.5-2.8,2.2-4.4,2.5C1326.6,117.4,1326.7,115.9,1326.6,114.3z"/>
<path fill="#FFFFFF" d="M1327.1,123.7c1.5,1.9,3,3.8,4.3,5.9c1.7,0.1,3.5,0.1,5.2,0.3c-4.2,3.4-10.9,3.7-14.9-0.2c1.8,0,3.6,0,5.4,0
	C1327.1,127.7,1327.1,125.7,1327.1,123.7z"/>
<g>
	<path fill="#ED002B" d="M41.6,21.5h345.5c23,1.4,46.7,4.8,67,16.4c13.7,7.8,25.2,19.7,31.8,34.1c8.5,21.8,8.5,47.4-2.5,68.3
		c-6.4,12.4-16.8,22.3-28.7,29.4c-17,10.4-36.5,15.7-56.1,18.6c7.3,6.1,14.8,14,14.5,24.1c-0.8,12.7-7.5,23.9-14.5,34.1
		c-4.6,6.6-9.7,13-14,19.9c-1.1,1.9-2.4,3.8-2.4,6.1c1.7,2,5,1.8,7.3,1.1c7.5-3,13.4-8.6,19-14.3c2.8-2.3,2.4-6.2,3.4-9.4
		c5.9-23.7,21.1-44.1,39-60.2c16.2-15.1,37-27.1,59.6-27.3c11.1-0.7,22,4.5,29.3,12.7c3.1-2.7,5.7-6.1,9.2-8.2
		c17.2-0.3,34.4,0,51.6-0.1c-17.2,26.3-34.7,52.4-52,78.7c-3.2,4.8-7.5,9.8-7.1,16c0,1.5,1.9,2.3,3.2,2.3c5.6,0.3,10.3-3.4,13.9-7.4
		c4.7-5.5,8.2-11.8,12.6-17.5c16.3-24.1,32.6-48.1,48.9-72.1c16.8-0.1,33.7,0.3,50.5,0.1c-16.5,27.9-33.2,55.8-49.5,83.9
		c-2,3.4-4.3,7.3-3.2,11.4c3.2,3.7,8.8,2.3,12.1-0.4c5.1-4.2,9.2-9.7,12.5-15.4c16.8-26.5,32.7-53.5,50-79.6
		c17.8,0.2,35.6,0.1,53.5,0.3c-15.2,24.3-31.2,48-46.6,72.1c-4.5,7-9.5,13.7-13.4,21c9.5-0.4,18.1-5.2,25.1-11.3
		c7-6.1,12.7-13.6,17.4-21.5c10.9-18.1,21.9-36.2,32.8-54.3c22.4-36.1,44.9-72.3,66.5-108.8c17.6-0.5,35.3-0.1,52.9-0.4
		c-8.7,14.8-17.4,29.6-26.7,44c-11.7,20.4-24.8,39.8-36.3,60.3c6.2-1.5,12.7-2.7,19-1c9,2.2,17.3,8.2,21.5,16.6
		c4.7,9,4.9,19.7,2.7,29.4c-2.7,12-8.3,23.1-14,33.8c3.2-0.2,8.7,0.5,9.6-3.6c5.4-18.5,14-36.1,26-51.2
		c10.1-12.8,22.8-23.8,37.7-30.3c11.7-5.3,24.6-7.1,37.4-7c8.4,0.2,17.3,1.9,24,7.3c6.8,5.6,10.9,14.4,11,23.2
		c1,17.7-7.2,35-19.7,47.3c-17.8,17.7-41.2,28.1-64.7,36.1c4.9,3.8,11.5,3.6,17.3,2.5c15.3-3.5,28.5-12.5,40.1-22.8
		c18.8-16.9,35.6-35.8,52.2-54.8c13.1-15.1,25.9-30.6,37.6-46.9c14,6.9,27.9,14.1,41.6,21.5c-4.1,4.8-8.3,10.4-8.2,17
		c-0.4,16.8-1.7,33.5-2.4,50.3c8.1-10.3,14.4-21.8,21.7-32.6c12-18.1,23.9-36.3,35.1-54.8c1.3-2,2.6-4.1,3.3-6.4
		c-22.7,0.3-45.3-0.1-67.9,0c7.8-12.8,15.7-25.4,23-38.5c22.9-0.5,45.8-0.1,68.7-0.6c6.6-8.4,12.4-17.3,19.1-25.6
		c17.1,0.1,34.3,0.3,51.4,0.5c-4.6,9.1-10.8,17.3-15.8,26.1c25.8,0.1,51.7,0.2,77.5,0.1c-6.3,12.6-13.5,24.7-20.3,37
		c-26.6,0.5-53.3,0.2-79.9,0.6c-21,33.4-41.8,66.9-62.7,100.5c-3,4.9-6.3,9.7-8.9,14.8c-0.8,1.8-2.1,3.8-1.3,5.8
		c3.3,2.1,6.9-0.5,9.5-2.4c5-3.9,10.7-7.7,13.4-13.6c5.1-16.4,12.8-32.1,23-45.9c9.1-12.1,20.4-22.9,34-29.9
		c11.3-5.8,24.2-8.4,36.9-7.6c9.5,0.7,19.4,4.3,25.5,12c4.3,5,6.1,11.4,7.9,17.6c20.9-8.2,37.1-25,49.6-43.2
		c0.7-0.8,1.4-2.8,2.8-1.7c12.1,7,24.5,13.5,36.4,20.7c-9.1,8.7-16.6,19.5-19.3,31.9c-1.4,6.3-0.3,12.7-0.7,19.1
		c-0.5,19.9-4.3,40-13.4,57.8c-7.2,14-18,26.4-31.8,34.2c-11.6,7-25.6,9-38.9,8.2c-11.8-2.1-19.9-12.3-25.1-22.4
		c-12.6,10.5-27.2,20.4-44,21.7c-17.8,1.5-34.5-9-44.8-22.7c-9.6,7.2-19.4,14.1-30.5,18.8c-9.6,4.1-20.3,6-30.6,4.4
		c-7.4-1-13.7-6.2-17.3-12.6c-2.9-5.1-3.8-11-4.6-16.6c-7.1,5.3-13.6,11.5-21.1,16.2c-12.7,8.5-27.5,14.6-43,14
		c-15.9,0.2-29-11-38.8-22.4c-10.9,9.3-23.9,15.9-37.2,21c-15.6,4.3-32.6,6.1-48.1,0.6c-14.3-5.8-24.3-19.4-28.5-33.9
		c-13.1,5.2-26.6,9-40.2,12.4c-3.8,1-7,3.4-10.5,5.2c-14.9,8.1-31.3,15.7-48.7,14.9c-16.8-0.4-33.3-11.9-38-28.3
		c-15.5,9-31.8,16.8-48.8,22.8c-3.3,1.4-7,2-10.1,3.8c-8.3,12.6-15.6,25.9-23.2,39c-11.9,20.7-23.4,41.6-34.7,62.7
		c-3.7,0-7.4-0.3-11,0.3H539c20.3-33.7,38.8-68.5,58.8-102.4c-8.8,1.4-18.5,3.1-26.9-1.1c-8.1-3.8-13.2-12.2-14.2-20.9
		c-7.5,5.9-14.8,12-23.6,16c-9.5,4.5-20.2,6.9-30.6,5.6c-9.5-1.9-16.2-9.9-20.9-17.8c-8.8,9.4-19.9,17.6-33.1,18.8
		c-14,2.5-27.1-6.9-33.9-18.6c-14.1,15.2-31,28.9-51.2,34.6c-10.1,2.7-20.9,3.4-31,0.9c-12.1-3.5-22.8-13.5-25.3-26.1
		c-2.1-8.9-1.4-18.3,1.8-26.9c5.5-15,16.2-27.3,22.8-41.8c3.5-7.6,9.2-14.7,10-23.3c0.3-4.7-1.6-10.2-6.3-12.1
		c-6.5-3-13.8-1.2-20.7-1.5c-1,1.4-1.9,2.8-2.7,4.2c-16.3,29.7-34.6,58.5-57,84c-13.4,15.2-28.4,29.1-45,40.7
		c-20.5,14.8-46.3,22.1-71.5,20.3c-17.5-1.2-34.1-8.4-48.8-17.7c4.5-8.6,9.8-16.6,14.8-24.9c7.7-12.7,15.7-25.3,23.3-38.1
		c5.2,7.7,11.9,14.8,20.9,17.9c10,3.5,21.1,0.6,29.8-4.9c11.6-7.5,20.2-18.5,29-28.9c24.1-30.2,42.7-64.1,63.7-96.4
		c13.4-21.3,26.6-42.7,40.1-63.9c1.4-2.2,2.8-4.4,4.4-6.5c23.9,0.2,47.8-0.1,71.8,0.2c-14.3,23-28.2,46.2-42.4,69.2
		c17.4-0.1,35.8-2.5,50.6-12.4c10.2-6.9,17.7-17.9,19.9-30.1c2.3-10.7,0.8-22.9-6.5-31.5c-9.1-10-22.1-15.8-35.4-17.6
		c-12.7-1.7-25.6-0.3-37.9,3.4c-12.2,3.8-23.1,10.8-32.9,18.9c-13.3,11-24.6,24.1-36,37c-13.5,15.3-30.4,27.9-49.6,35.3
		c-13.5,5.3-28.1,7.8-42.7,7.2c-11.9-0.6-23.9-1.4-35.4-4.4c-32-8-60.2-27.4-82.7-51.2C32.1,86,13.5,55.4,0.5,22.8v-0.5
		c12.4,0.1,24.7-0.3,37-0.2C38.9,22,40.3,21.8,41.6,21.5z M933.7,197.8c-9.9,5.5-16.8,14.8-22.9,24.1c-2.7,4.2-5.8,8.2-7.1,13.1
		c15.9-6.5,30.4-16.6,41.6-29.6c2-2.4,3.8-6.4,1.5-9.2C942.6,193.6,937.7,195.6,933.7,197.8z M503.9,209.1
		c-5.7,1.3-9.9,5.8-13.8,9.9c-8.6,10.1-17.3,21.1-19.7,34.5c-0.8,3.5,2.5,7.4,6.1,6.6c4.6-0.7,7.9-4.4,11-7.6
		c6-7.1,11.5-14.6,16.5-22.5c3.4-5.5,6.3-11.8,6.1-18.4C509.7,208.5,506.2,208.6,503.9,209.1z M1229.1,212.1
		c-5.9,2.2-9.6,7.7-13.8,12.1c-7.6,8.7-14.4,18.7-16.6,30.2c-0.7,2.5,0,5.2,1.7,7.1c1.4,1.8,4.1,1.4,6.1,1.1
		c5.4-1.2,8.8-6.1,11.9-10.4c5.8-8.3,11.7-16.6,16.2-25.8c1.7-3.9,3.7-8.3,2.5-12.6C1235.2,211.5,1231.7,211.1,1229.1,212.1z
		 M795,213.2c-6.8,3.3-12.1,9-16.7,14.9c-3.4,4.4-6.9,8.8-9.4,13.8c-3.1,5.4-6.1,11.6-4.7,18c0.8,2.4,3.9,4.4,6.3,3
		c11.7-5.3,18.6-16.8,25.3-27.2c3.2-6.8,8.5-13.4,7.6-21.4C802.3,211,797.4,211.7,795,213.2z M1013.2,253.2
		c-3.7,4.7-9,8.4-10.9,14.3c-1.5,3.4,1.4,7.6,5,7.7c6.3,0.8,12.8-2.2,16.7-7.1c10.6-11.8,12.7-28.4,12.7-43.7
		C1028.7,233.8,1021.5,244,1013.2,253.2z M1277.2,241.2c-3.2,5.7-6.4,11.4-9.7,17.1c3.4-0.5,6.8-1.2,10.2-0.9
		c-1.4,4.5-4.3,10.3-0.3,14.3c4.4,1.4,8.7-1.8,11.3-5.1c8.2-12.2,11.8-26.8,14.8-40.9C1295.7,232.2,1286.9,237.8,1277.2,241.2z"/>
</g>
</svg>
