<?xml version="1.0" encoding="utf-8"?>
<!-- Generator: Adobe Illustrator 18.0.0, SVG Export Plug-In . SVG Version: 6.00 Build 0)  -->
<!DOCTYPE svg PUBLIC "-//W3C//DTD SVG 1.1//EN" "http://www.w3.org/Graphics/SVG/1.1/DTD/svg11.dtd">
<svg version="1.1" id="Capa_1" xmlns="http://www.w3.org/2000/svg" xmlns:xlink="http://www.w3.org/1999/xlink" x="0px" y="0px"
	 viewBox="52.3 51.7 1154 1145.5" enable-background="new 52.3 51.7 1154 1145.5" xml:space="preserve">
<g id="_x23_e80c0cff">
	<path fill="#E80C0C" d="M708,52.5c54.3-0.2,108.6-0.4,163-0.8c44.7,44.4,89,89.3,133.6,133.8c67.3,67.5,134.6,135,201.8,202.6
		c-0.1,80.3,0,160.6-0.1,240.8c-87.1-87.6-174.5-174.9-261.7-262.4C897.3,319.4,850.4,272,803,225c-11.7-0.6-23.4-0.3-35.1-0.2
		c-77,0.2-154,0.6-231,0.9C593.9,167.9,651.1,110.3,708,52.5z"/>
	<path fill="#E80C0C" d="M387.7,54c81.6-0.8,163.2-0.7,244.8-1.2c-134.8,136.6-270,272.9-404.7,409.6c-0.5,86-0.7,172-1.1,258
		c-57.8-58.3-115.4-116.8-173.2-175.1c0.2-51.8,0.3-103.6,0.6-155.4C161.1,282,268,174,375,66.1C379.4,62.3,382.8,57.2,387.7,54z"/>
	<path fill="#E80C0C" d="M1037.8,535.9c56.2,56.2,112.4,112.5,168.5,168.8c-0.1,52-0.1,104,0,156.1
		c-115.4,112.2-231,224.2-346.5,336.4c-79.1-0.7-158.2-0.8-237.2-1.1c138.3-133.9,276.8-267.6,415-401.6c0.6-22.1,0.1-44.4,0.3-66.5
		C1037.8,663.9,1037.8,599.9,1037.8,535.9z"/>
	<path fill="#E80C0C" d="M53.2,621.1c134.3,135.8,268.6,271.8,403,407.5c87.3-0.2,174.5,0.7,261.8,0.8c-55.8,54-111.7,108-167.5,162
		c-1.9,1.7-3.5,4.5-6.4,4.3c-54.8-0.2-109.5-0.4-164.3-0.6C270.6,1084.9,161.4,974.8,52.3,864.7C52.4,783.5,52.8,702.3,53.2,621.1z"
		/>
</g>
<g id="_x23_06337aff">
	<path fill="#06337A" d="M725.6,543.6c14.4-9.5,32.3-12.4,49.3-11c17.5,1.6,34.3,10.5,44.8,24.6c12,15.7,16.2,35.9,16.1,55.3
		c-14.4,0-28.9,0-43.4,0c-0.1-8.9-1-18.4-6-26.1c-5-7.6-14.9-10.5-23.5-9.4c-6.2,0.8-13,2.7-16.8,8.1c-5.9,8.2-6.2,20-1,28.7
		c2.5,4.5,7.3,7,11.6,9.4c16.5,8.9,35.4,11.9,51.5,21.6c13.6,7.6,24,20.7,27.8,35.9c3.7,15.8,3.2,32.8-2,48.3
		c-4.4,13.3-13.4,25.2-25.4,32.6c-15,9.4-33.2,12.2-50.6,10.5c-17.1-1.8-33.8-9.9-44.7-23.4c-13.5-16.3-18.4-38.1-18.1-58.9
		c14.5,0,29.1,0,43.6,0c0.1,9.5,1.1,19.7,6.7,27.8c5.8,8.2,16.9,11,26.5,9.5c6.2-1,12.8-3,16.9-8.2c5.9-7.4,7.4-18.3,3.3-26.9
		c-3.3-6.3-9.6-10.3-15.8-13.3c-15.7-7.3-32.8-11.3-47.7-20.3c-10.9-6.5-20.4-15.8-25.3-27.7c-6.4-15.4-6.8-32.8-3.4-48.9
		C703.4,566.5,712.3,552.2,725.6,543.6z"/>
	<path fill="#06337A" d="M253.2,535.6c43.1,0,86.2,0,129.4,0c0,18.2,0,36.3,0,54.5c-14.3,0-28.5,0-42.8,0
		c-0.2,59.2,0,118.4-0.1,177.7c-14.7,0-29.3,0-44,0c0-59.2,0-118.4,0-177.7c-14.2,0-28.4,0-42.6,0
		C253.2,571.9,253.2,553.8,253.2,535.6z"/>
	<path fill="#06337A" d="M399.4,767.7c0-77.4,0-154.8,0-232.2c39.6,0,79.2,0,118.8,0c0,17.8,0,35.5,0,53.3c-24.9,0-49.8,0-74.8,0
		c0,11.8,0,23.6,0,35.3c18.5,0,36.9,0,55.4,0c0,18.4,0,36.9,0,55.3c-18.5,0-36.9,0-55.4,0c0,11.8,0,23.5,0,35.3
		c24.9,0,49.9,0,74.8,0c0,17.6,0,35.3,0,52.9C478.5,767.7,439,767.8,399.4,767.7z"/>
	<path fill="#06337A" d="M540.6,535.6c14.9,0,29.8,0,44.8,0c17.8,38.8,32.1,79,49.3,118c0.2-39.1,0-78.2,0.1-117.3
		c16,0,32.1,0,48.1,0c0,77.2,0,154.3,0,231.5c-15,0-29.9,0-44.9,0c-17.8-38.6-32.2-78.7-49.6-117.5c0,39.1,0,78.3,0,117.5
		c-15.9,0-31.9,0-47.8,0C540.6,690.3,540.5,613,540.6,535.6z"/>
	<path fill="#06337A" d="M839.6,767.7c20.4-77.4,40.8-154.8,61.2-232.2c15.4,0.1,30.8,0.1,46.2,0.1c20.2,77.4,40.5,154.7,60.7,232.1
		c-16.2,0-32.4,0-48.5,0c-2.4-8.4-4.7-16.7-7-25.1c-18.9,0-37.8,0-56.6,0c-2.5,8.4-4.9,16.7-7.3,25.1
		C872,767.7,855.8,767.8,839.6,767.7 M905,691.4c12.6,0,25.1,0,37.7,0c-6.7-29.9-11.9-60-18.4-89.9C917.4,631.4,912,661.6,905,691.4
		z"/>
</g>
</svg>
