<?xml version="1.0" encoding="utf-8"?>
<!-- Generator: Adobe Illustrator 18.0.0, SVG Export Plug-In . SVG Version: 6.00 Build 0)  -->
<!DOCTYPE svg PUBLIC "-//W3C//DTD SVG 1.1//EN" "http://www.w3.org/Graphics/SVG/1.1/DTD/svg11.dtd">
<svg version="1.1" id="Capa_1" xmlns="http://www.w3.org/2000/svg" xmlns:xlink="http://www.w3.org/1999/xlink" x="0px" y="0px"
	 viewBox="0 0 10771.7 6236.2" enable-background="new 0 0 10771.7 6236.2" xml:space="preserve">
<g>
	<g>
		<path fill="#9B3D2A" d="M3750.2,2259.7c132.6-23.9,268.1-25.8,402.3-19.7c132.1,7.4,264.7,24.6,391.6,63.1
			c35.4-15.7,73.3-26.3,112.2-26.3c94.2-0.3,188.4-0.3,282.5,0.1c45.6,1.4,88.5-16.8,133.3-22.5c136.9-21.1,276.4-20.9,414.3-11
			c108.7,8,216.1,27.5,323.7,44.3c31.8,6.2,62.8-7.4,94.7-6.8c247.8-0.2,495.6,0,743.5-0.1c57.1,0.6,115.1-4.4,171,10.9
			c31.1,0.4,61.5-13.2,93.2-11c549.2,0.9,1098.4-1.3,1647.5,1.1c-2,5.2-5.9,15.6-7.9,20.9c9.2-7.3,18.5-14.5,28-21.8
			c310.4,6.5,620.8,13.6,931.1,20.3c126.9,2.3,254.5,23.3,372.6,70.9c242.3,94.9,418.3,335.3,439.1,594.2
			c3.2,134.4-37.1,270.5-117.3,379c-38.3,52.6-85.5,98.3-137,137.9c39.1,57.8,87.3,112.6,102.9,182.6
			c36.2,134.4-26.4,293.2-154.7,353.6c-35,17.1-73.8,25.5-112.6,25.6c-136.7,0-273.5-0.1-410.1,0c-77.2-1.2-158.7,9.1-230-27.6
			c-35.6,15.4-73.1,27.7-112.1,27.4c-162.3,0.5-324.6-0.2-486.9,0.3c-55,2.5-109.2-13.1-156.1-41.4c-43.2,25.6-92.3,42-142.9,41.2
			c-307.5-0.1-615.1,0.1-922.6-0.1c-56.4,0.3-110.7-21.1-156.1-53.5c-44.6,31.3-97.2,53-152.2,53.3c-145.3,0.6-290.6,0.1-435.9,0.3
			c-42.4-0.3-85.3,2.6-126.9-7.2c-29.3-6.8-58,7.3-87.4,6.9c-159.3,0.7-318.6-0.1-477.9,0.3c-94,7.7-187.3-37-242.9-112.4
			c-96,61.6-207.1,100.3-321.4,105c-176.3,18.6-359,19.3-528.9-38.2c-125.2-40.9-238.5-116.7-323.6-217.4
			c-84.8,113.2-207,194.4-339.5,241.4c-173.4,61.9-360.8,72.6-543.3,61.6c-134.8-10.5-271.6-33.8-394.1-93.3
			c-46.9,33-102.8,54.4-160.8,53.2c-304.9,0-609.9-0.1-914.8,0.1c-59,1.5-116.1-19.7-163.8-53.7c-44.5,31.4-97.2,53-152.3,53.3
			c-165.1,0.6-330.2-0.1-495.4,0.4c-22.6,0.4-45-3.1-67.2-7.4c-29.5-7.2-58.3,7.4-87.9,7c-167.9,0.4-335.8,0.1-503.6,0.1
			c-73.8,0.4-146-33.2-195.5-87.3c-68.9-74.2-95.6-183-73.8-281.3c50.9-225.5,102.3-451,153.2-676.6c-91-78.8-157.3-182-207.5-290.6
			c-51.9-116-26.9-263.1,65.4-351.8c48-47.1,114-76.1,181.5-76.4c279.1-0.3,558.3,0,837.3-0.1c28.8-0.6,56.6,7.3,84.7,12.1
			c28.8-4.7,57.3-13,86.7-12.1c532.5,0.2,1065.1,0.1,1597.6,0.1c122.5-8.3,245.4-1.9,368-4.4
			C3694.3,2273.6,3721.8,2264.4,3750.2,2259.7z M3785.9,2550.8c-106.7,24.6-216.7,11.1-325.1,14.6c-68.6-4.5-136.5,10.1-205,4.8
			c-481.5-0.4-963,0-1444.5-0.3c-28.5,0.3-57.1-2-85.4,2.3c-29.3,4.9-48.7,32.5-53.9,60.3c-24.1,100-47.9,200.1-71.7,300.2
			c-4.5,20.6-12.6,45.1-35.5,51.6c-30,5.4-61.2,4.5-91.5,1.3c-17.9-1.1-19.2-22.7-15.5-36c22.4-100.2,45.5-200.2,68.6-300.1
			c3.8-20.3,10.9-44.2-3.1-62.3c-11.9-18.1-35.6-16.7-54.4-17.4c-219.3,0.4-438.5,0.2-657.8,0.2c-30.9,0.5-62.3-2.7-92.8,3.7
			c-15.9,8.5-22.6,29.2-13,45c23.8,45.6,54.5,87.6,87,127.5c37.6,46.7,95.2,77.4,155.7,78.5c86.2,1.6,172.5-1,258.7,1.1
			c-23.8,14.4-50.2,24.7-78.1,26.8c-56.6,4.9-113.5,3.8-170.2,5.6c-59.5,258.1-117.2,516.6-176.1,774.7c-6.1,28.4-15.6,56.7-15,86
			c2.1,25.7,28.8,39.1,52.3,36.7c133.8,0,267.8,0.6,401.6-0.3c35.6,1.5,63-29,68.4-62.1c33.8-145.5,67.6-290.8,101.2-436.3
			c3.8-20.6,15.3-43.2,37.5-48c26.9-4,54.8-4,81.8,0.3c20.8,7.1,12.8,32.7,9.8,48.5c-33.1,140.3-65,280.9-98.3,421.3
			c-4,20.7-10.7,46.4,6.3,63.4c14.6,16.2,38.5,12.4,58.1,13.8c128.3-1.1,256.6,0.6,384.8-0.8c31.9,1.2,59.2-24.1,65.7-54.4
			c81.6-350.7,159.6-702.3,242.5-1052.7c29.2,44.5,56.7,92,98.5,126.1c44.6,35,102.4,47.4,158,49.6c82.7,3.2,165.6-0.3,248.5,1.8
			c-73.7,40.6-160,28.2-240.4,33c-13.8-0.9-20.8,12.4-24.9,23.3c-12.6,32.6-17.4,67.5-25.6,101.4
			c-52.6,233.7-104.5,467.5-157.3,701.1c-4.1,18.9-7.6,41.2,7.3,56.6c12.8,16.9,36.2,13.8,54.9,15c287.8-1,575.6,0.5,863.3-0.9
			c55.6-74,92.8-161.2,113.8-251c7.6-27.1-16.5-54.8-44.4-50.9c-128.3-0.3-256.7,0-384.9,0.1c-15.6-1.1-38.4,2.1-41.2-18.6
			c3.8-34.2,15.6-67.1,24.6-100.2c4.9-19.7,19.1-40.9,41-42.5c84.4-5,169.5,4.1,253.4-4c52.1-70.7,86.9-153.3,113.1-236.8
			c11-25.6-1.7-62.8-33.3-62.6c-84.9-3.6-169.9,0.5-254.8-1.5c-12-0.1-28.7-5.4-26.2-20.7c3.5-35.3,14.1-69.4,23.3-103.5
			c5.3-24,28.9-39.9,53-37.9c88.5-0.3,177.1,0.1,265.7-0.3c39.4-5.4,49.7,40.6,69.7,64.8c10.2-6.4,24.1-10.5,25.6-24.5
			c16.5-66.3,24.9-134.4,41.1-200.8c44.2,55.9,89.3,118.7,159.5,143.1c75.9,19.7,155.1,7,232.3,14.4
			c-35.2,21.8-77.7,24.7-117.9,26.5c-53,1.4-106.1,1.6-159.1,3.6c2.5,29.6,5.1,59.3,11.7,88.4c19.7,95.8,83.8,176.7,159.3,236.1
			c74.8,56.7,151.6,110.8,228.5,164.8c36.4,23.8,33.8,75,23.2,112c-17.8,57.9-81.4,82-135.9,91.4c-106.7,14.5-220.2,3.4-316.7-46.9
			c-36.1-17.3-57.4-52-77.8-84.8c-4.4,1.5-13.2,4.4-17.7,5.9c-4.8,74.4,3.9,148.8,3.5,223.2c3,26.8-5.3,62.7,21.6,79.8
			c36.6,25,80.8,35,123,46.5c141.8,34.2,289.7,37.6,434.4,23.6c131.1-15.5,267.3-52.2,366.9-143.3c88.1-79.4,125-204.9,109.1-320.7
			c-9.8-61.4-45.1-115.7-89.3-158.2c-92.5-90.9-227.9-125.6-310.8-227.8c-29.5-33.5-25-83.2-7.6-121.1c22.4-44.9,73.2-65.9,120-74.5
			c94.6-13.5,195.3,3.8,276.6,55.2c33.8,20.2,53.4,55,75.6,86.1c4.6-1.5,13.9-4.6,18.5-6.2c5.4-48.4-0.9-96.8-1.7-145.3
			c-1.9-36.9,0.4-74-3.9-110.8c-1.8-19.7-21.8-29.2-37.4-36.7c-47.3-19.8-98.2-28.7-148.5-37.9
			C4157.2,2520.3,3968.7,2516.2,3785.9,2550.8z M5149.9,2534.9c-57.1,5-111.6,25.2-168.8,29.5c-113,4.4-226.4-3.6-339.2,3.8
			c47.2,95.2,107.3,197.7,211.4,238.1c92,23.8,188.3,6.2,281.9,15.5c-57.1,33.8-125.1,21.5-187.9,27
			c-77.3,18.5-137.6,77.8-181,141.8c-77.9,110.8-96.4,254.3-76.3,385.9c21.6,145.6,124.6,274,260,330.6
			c149.9,64.4,317.4,57.9,476.4,42.4c80.4-2.6,158.1-33.1,222-81.4c42.4-33.2,67.4-81.8,97.7-125.1c17.6-28,39.6-53.7,53-84.2
			c8.7-19.5-10.6-40.6-30.5-38.8c-49.6-1.8-101.2-5-148.1,13.8c-97.7,36.7-197.7,81.1-304.5,74.3c-50.8-2.2-102-26.8-128.1-71.7
			c-36.1-61.5-34.9-136.7-26.2-205.3c12.8-88.7,33.5-180,87.6-253.4c58.8-80.6,146.2-137.7,239.8-170
			c72.2-25.2,150.2-25.3,225.5-17.4c35.7,5.5,73.3,10.7,104.9,29.9c24.4,15.1,32.6,44.6,50.9,65.4c4.2-1,12.6-3.1,16.8-4.2
			c4.6-51.2-0.7-102.6-1.4-153.9c-3-42.3,0.1-85.3-7.4-127.2c-19.7-14.8-45-17.1-68.5-21c-60.4-8.6-120.7-18.5-181-27.9
			C5470.9,2525.6,5309.4,2518.7,5149.9,2534.9z M5916.3,2613.7c20.8,44.6,51.4,83.9,81.1,123c36.8,49.1,93.7,84.7,156,87.4
			c88.7,2.7,177.5-0.7,266.3,1.5c-23.7,14.6-50.1,24.8-77.9,26.8c-56.6,5-113.4,3.9-170.2,5.6c-63.4,273.1-123.8,547-186.9,820.3
			c-3.4,19.5-10,42.5,3.3,60c13.4,20.1,40.4,16.4,61.4,17.6c128.4-1.2,256.8,0.7,385.2-0.9c35.3,1.5,62.5-29.1,67.9-62
			c33.1-143.4,66.9-286.6,99.6-430.1c4.1-14.7,6.8-31.2,18.3-42.1c18-19.1,46.7-13.8,70.3-14.9c15.7,1.6,40.2-3,45.6,17.3
			c1.6,17.9-4.3,35.6-7.8,53.1c-32,134.1-62.1,268.6-94,402.7c-3.4,19.1-9.9,41.6,3,58.8c13.4,20.3,40.6,16.9,61.8,17.9
			c128.2-1.2,256.4,0.6,384.6-0.8c31.6,1.2,58.8-23.8,65.5-53.8c82-350.8,159.6-702.6,242.7-1053c29.1,44.2,56.5,91.4,97.9,125.5
			c44.9,35.2,103,47.7,159,49.8c82.6,3.4,165.5-0.9,248.3,2.3c-77.5,41.9-167.5,25.5-251.3,34.4c-25.1,28.1-25.9,68.8-35.6,103.8
			c-54.2,242-108.5,484-162.8,726c-6.9,22.6-0.8,50.9,22.4,61.4c21.8,5.8,44.7,3.8,67.1,4.2c279-0.9,558.2,0.6,837.2-0.8
			c55.6-73.8,92.5-160.8,113.6-250.3c7.9-27.3-16-55.6-44.1-51.5c-128.2-0.3-256.4,0-384.6,0.1c-15.4-1.3-37.3,2.5-41.5-17.3
			c3.6-34.8,15.6-68.1,24.7-101.8c5.1-23.1,24.5-45.1,50-43c74.1-1.4,148.3,0.4,222.5-0.2c11.5,0.6,24.3-1.5,29.9-13
			c46.2-69.6,80.8-146.8,105-226.7c10.9-25.5-1.2-62.6-32.7-62.9c-82.3-3.3-164.7,0-247-1.1c-12.4-0.4-27.4-0.7-34.4-12.8
			c0.6-38.2,13.6-75,23.2-111.6c5.2-24.4,29.2-40.2,53.6-38c91.4,0.2,182.9-0.5,274.3,0.3c34.4-0.1,37.6,44,60.9,61.3
			c12.8-0.5,24-9,25.3-22.3c17.6-68.7,23.9-140,43.9-208.1c37.2,52.5,72.6,110.8,130.4,143c32,18.8,69.4,26.2,106.3,26
			c156.6-0.3,313.2,0.1,469.8-0.3c41.6,0.2,83.8,0.7,124.7,9.3c44.8,9.9,86.5,43.7,96.3,89.9c13.5,66.4-6.2,142.6-60.5,185.8
			c-52.3,43.6-123.5,49.8-188.7,51.5c12.9-91,45.7-179.1,46.2-272c-51.5-22.8-108.9-20-163.8-21c-96.7,0.7-193.4-1.1-290.1,0.7
			c-32.5-0.5-58.4,26.9-64.3,57.4c-53.7,238.2-106.8,476.6-160.5,714.9c-5.5,25.4-13.9,50.6-13.3,76.9c3.3,24.3,26.8,39.7,50.7,37
			c133.7,0.3,267.5,0.5,401.2-0.1c32.4,2.1,61.4-23.1,67.3-54.2c23-100,38.8-201.6,64.5-300.9c43.8,100,80.2,203.2,122,304
			c12.1,32,44.7,53.6,79.1,51.4c136.7,0.3,273.6-0.3,410.3,0.3c18.2-1,44.6,1.4,51.5-20.6c3.9-21.3-12.3-38.2-22.6-54.7
			c-66.3-93.1-131.3-187.1-197.4-280.2c-7.6-12.7-25.3-32.9-5.7-43.5c67.1-27.4,139.8-42.6,202.2-80.9
			c77.7-46.4,146.3-115.8,172.2-204.5c30.8-107.6,7.8-231.2-64.4-317.6c-69.7-83.2-171.9-132.1-274.8-160.9
			c-110.3-31.4-225.9-21.2-339-22.9c-216.5,0-433,0-649.5,0c-31,0.3-62.3-2.3-93.1,2.6c-42.9,9.5-86.1-4.5-129.2-2.2
			c-510-0.9-1019.9,0-1529.9-0.4c-35.3-3.9-70.3,19.7-77.4,54.8c-26.3,104.9-50.2,210.4-75.8,315.5c-4.1,21.9-19,45-43.6,45.8
			c-30.8,1.8-63.2,5.2-92.8-4.4c-10.8-15-3.4-33.6-0.6-49.7c22.2-93.8,42.9-188.1,65.1-281.9c3.6-20.5,11-44.5-2.8-62.8
			c-11.7-17.8-35-16.9-53.6-17.5c-242.4,0.6-484.8-0.3-727.2,0.4C5931.6,2565.7,5904.5,2588.5,5916.3,2613.7z"/>
	</g>
</g>
<g>
	<g>
		<path fill="#B3130C" d="M3785.9,2550.8c182.7-34.5,371.3-30.4,554.2,0c50.3,9.2,101.1,18.1,148.5,37.9c15.6,7.4,35.6,17,37.4,36.7
			c4.4,36.8,2.1,73.8,3.9,110.8c0.8,48.5,7.1,96.9,1.7,145.3c-4.6,1.6-13.9,4.7-18.5,6.2c-22.2-31.1-41.9-66-75.6-86.1
			c-81.3-51.4-182-68.7-276.6-55.2c-46.7,8.6-97.6,29.7-120,74.5c-17.3,37.9-21.9,87.6,7.6,121.1
			c82.9,102.1,218.4,136.8,310.8,227.8c44.2,42.5,79.5,96.8,89.3,158.2c16,115.8-20.9,241.3-109.1,320.7
			c-99.7,91.1-235.8,127.9-366.9,143.3c-144.7,14-292.6,10.6-434.4-23.6c-42.2-11.5-86.4-21.5-123-46.5
			c-26.9-17.1-18.6-53-21.6-79.8c0.4-74.4-8.3-148.9-3.5-223.2c4.4-1.5,13.3-4.4,17.7-5.9c20.3,32.7,41.7,67.5,77.8,84.8
			c96.5,50.3,210,61.4,316.7,46.9c54.4-9.4,118.1-33.5,135.9-91.4c10.5-37.1,13.2-88.2-23.2-112c-76.9-54-153.8-108-228.5-164.8
			c-75.5-59.5-139.6-140.3-159.3-236.1c-6.6-29.1-9.2-58.8-11.7-88.4c53-2,106.1-2.2,159.1-3.6c40.3-1.8,82.7-4.7,117.9-26.5
			c-77.2-7.4-156.4,5.2-232.3-14.4c-70.2-24.4-115.3-87.2-159.5-143.1c-16.2,66.4-24.6,134.5-41.1,200.8
			c-1.5,14-15.5,18.1-25.6,24.5c-19.9-24.2-30.3-70.2-69.7-64.8c-88.6,0.3-177.2-0.1-265.7,0.3c-24.1-2.1-47.7,13.8-53,37.9
			c-9.2,34.1-19.8,68.2-23.3,103.5c-2.5,15.3,14.3,20.6,26.2,20.7c84.9,2,169.9-2.1,254.8,1.5c31.6-0.2,44.4,37,33.3,62.6
			c-26.2,83.5-60.9,166.1-113.1,236.8c-83.9,8.1-169.1-1-253.4,4c-22,1.6-36.2,22.7-41,42.5c-9.1,33.1-20.8,66-24.6,100.2
			c2.8,20.8,25.6,17.5,41.2,18.6c128.3-0.1,256.7-0.4,384.9-0.1c27.9-3.9,52,23.8,44.4,50.9c-21,89.8-58.2,177-113.8,251
			c-287.7,1.4-575.5-0.2-863.3,0.9c-18.7-1.2-42,1.9-54.9-15c-14.9-15.4-11.4-37.7-7.3-56.6c52.8-233.6,104.8-467.4,157.3-701.1
			c8.1-33.8,13-68.7,25.6-101.4c4.1-10.9,11.1-24.2,24.9-23.3c80.4-4.8,166.7,7.6,240.4-33c-82.9-2.1-165.8,1.4-248.5-1.8
			c-55.6-2.1-113.4-14.6-158-49.6c-41.8-34.2-69.2-81.6-98.5-126.1c-82.8,350.4-160.8,702-242.5,1052.7
			c-6.5,30.3-33.8,55.6-65.7,54.4c-128.2,1.4-256.5-0.3-384.8,0.8c-19.6-1.4-43.5,2.4-58.1-13.8c-17-17-10.3-42.7-6.3-63.4
			c33.2-140.3,65.2-280.9,98.3-421.3c3-15.8,10.9-41.5-9.8-48.5c-27-4.3-54.9-4.3-81.8-0.3c-22.2,4.9-33.7,27.4-37.5,48
			c-33.6,145.5-67.4,290.8-101.2,436.3c-5.4,33.2-32.8,63.7-68.4,62.1c-133.8,0.9-267.8,0.3-401.6,0.3
			c-23.5,2.4-50.2-10.9-52.3-36.7c-0.7-29.3,8.9-57.6,15-86c59-258.2,116.7-516.6,176.1-774.7c56.7-1.9,113.7-0.8,170.2-5.6
			c27.9-2.1,54.4-12.4,78.1-26.8c-86.2-2.1-172.5,0.5-258.7-1.1c-60.5-1-118.1-31.7-155.7-78.5c-32.5-39.9-63.2-81.9-87-127.5
			c-9.6-15.8-2.9-36.5,13-45c30.5-6.4,61.9-3.2,92.8-3.7c219.3,0,438.5,0.3,657.8-0.2c18.9,0.8,42.6-0.7,54.4,17.4
			c13.9,18.1,6.8,42,3.1,62.3c-23.2,99.9-46.2,199.9-68.6,300.1c-3.8,13.2-2.4,34.9,15.5,36c30.3,3.2,61.5,4.1,91.5-1.3
			c22.8-6.5,30.9-31,35.5-51.6c23.8-100.1,47.6-200.2,71.7-300.2c5.2-27.8,24.6-55.4,53.9-60.3c28.3-4.3,56.9-2.1,85.4-2.3
			c481.5,0.3,963-0.2,1444.5,0.3c68.5,5.3,136.4-9.3,205-4.8C3569.2,2561.9,3679.3,2575.4,3785.9,2550.8z M3785.8,2572.3
			c-39.7,7.9-80.1,14.4-120.7,14.5c-94.5,0.2-189.1-0.3-283.7,0.1c24.6,44.4,51.7,87.8,85.6,125.9c35.8,40.3,81.4,79.2,138,81.5
			c90.3,6.8,180.8,1.6,271.3,3.6c-39.7,29.3-83.5,55.5-132.7,64.2c-67.9,12.6-137.3,6.8-205.8,10.2c5.7,44.3,12.6,89.3,32,129.9
			c31.7,66.6,82.6,122.6,141.4,166.3c72.3,53.7,145.5,106.2,219.5,157.4c16.5,10.3,26.7,27.7,31.1,46.4
			c11.9,51.8-0.5,112.6-43.4,147c-42.8,34.4-98.9,46.2-152.3,50.9c-95,6.2-193.3-6.4-279.6-48.3c-31.3-14.4-57-38.2-77.5-65.5
			c2.6,69.7,5.2,139.3,7.2,209c0.9,11.1-0.1,22.9,5,33.3c16.9,15.6,39.2,23.1,60.4,30.9c86.8,29,178.3,42.1,269.5,47.1
			c155.2,5.9,316.3-3.7,459.6-68.6c92.6-41.5,174.9-116.8,203.9-216.6c21.8-78.1,27.9-168.7-16.4-240.4
			c-48.2-80.3-131-129.7-210.7-173.9c-61.7-38.1-127.4-77.5-167.3-140c-32.1-60.7-7.2-145.5,52.1-180.2
			c67.3-41.7,150.9-42,226.7-29.9c73.9,14.4,152.6,41.5,200.1,103.4c2.4,7.4,6.6,15.1,15.4,11.2c-7-72.4-3.1-145.5-10.7-217.8
			c-25.3-24-62.8-28.7-95.3-38.1C4204.5,2541.8,3991.3,2533.2,3785.8,2572.3z M723.7,2606.6c23.7,48.5,56.7,92.1,91.4,133.4
			c35,40.5,88.1,64.7,141.8,64c79.4,0.2,158.9-0.2,238.3-0.1c14.4,0.3,34.3-0.6,39.2,16.8c-7.6,31.4-45.6,37.9-72,47.2
			c-61.6,12-125,9.1-187.5,11.1c-59.2,259.9-117.8,520-177.1,779.9c-3.7,19.5-11.5,39.1-9.4,59.1c3.9,18.3,25.6,16.2,39.9,16.4
			c131.1-0.6,262.2,0.3,393.3-0.4c23.4,0.9,41.8-19.6,46.1-41.2c34.6-148.4,68.9-296.8,103.3-445.2c5.1-31.2,30.8-60.6,63.9-61
			c28-0.9,56.7-3,84.4,2.7c23.1,9.3,31.4,37.4,23.8,59.8c-34.2,148.3-68.8,296.6-103.2,444.8c-6.2,15.8-1.7,42,20.3,39.7
			c137,0.9,274.2,0.7,411.2,0.2c24.6,0.8,42.5-21.8,46.2-44.4c80.4-351.9,161.2-703.7,241.8-1055.6c6.3-16.5-0.7-46-22.9-42.3
			c-131.4-0.7-262.8-0.3-394.3-0.2c-24.3-1.8-44.5,18.7-48.6,41.5c-25.5,104.9-50.2,209.9-75.5,314.8c-5.4,30.7-30.9,58.6-63.2,59.9
			c-28.6,1.3-57.4,2.1-85.9-0.7c-26.4-3.8-40.6-34.2-32.8-58.3c23.7-108,49.7-215.5,73.3-323.6c5.8-15.3-4.3-35.6-22.2-33.4
			c-245.4-1.1-490.8,0-736.2-0.6C741.7,2591.7,714.9,2589,723.7,2606.6z M2174.2,2591.5c29.6,57.1,61.7,114.5,108.5,159.6
			c46,40.9,110.1,50.9,169.6,52.6c96.9,0.9,193.9-0.1,290.8,0.4c-25.1,21.4-50.1,44.9-82.1,55.1c-70.2,24-145.6,18.5-218.5,19.7
			c-25.5,73-35.7,150.2-54.7,225c-44.3,199.2-89.9,398.1-133.4,597.4c-6,16.8,6.8,36.1,25.4,32.7c290.2,0.6,580.6,0,870.8,0.3
			c49.1-68.5,82.1-147.7,103.1-229.1c7.4-16.1-5.7-33.9-23.1-31.3c-134.1-1-268.2,0.4-402.3-0.5c-24.8,2.6-47.8-19.8-44.7-44.8
			c5.6-34.9,16.8-68.6,26.1-102.6c7.2-31.8,36.8-57.8,70.2-56.4c77.4-0.6,154.9,0.3,232.4-0.2c46.4-69.7,81.2-146.9,105-227.1
			c7.4-15.1-1.8-37-20.9-33.2c-85.6-2-171.4,1.2-256.9-1.2c-24.5-0.6-43.1-26.2-38.3-49.7c6.1-34.4,15.3-68.4,24.3-102.1
			c8.2-32,40.3-55.3,73.4-52c94.4,0.5,188.7-0.9,283.1,0.6c30.9,2,45.1,33.9,58.2,57.4c14.1-76.3,29.6-152.5,44-228.7
			c-7.5-12.8-15-25.6-22.6-38.5c-49.4-3.8-99-3.5-148.5-3.4C2866.8,2591.5,2520.5,2591.1,2174.2,2591.5z"/>
	</g>
	<g>
		<path fill="#B3130C" d="M5149.9,2534.9c159.5-16.2,321-9.2,479,16.4c60.3,9.4,120.6,19.3,181,27.9c23.4,3.9,48.8,6.2,68.5,21
			c7.4,41.9,4.4,84.9,7.4,127.2c0.7,51.3,6,102.7,1.4,153.9c-4.2,1.1-12.6,3.2-16.8,4.2c-18.4-20.8-26.5-50.3-50.9-65.4
			c-31.5-19.2-69.1-24.4-104.9-29.9c-75.3-7.9-153.3-7.8-225.5,17.4c-93.6,32.3-181,89.4-239.8,170
			c-54.1,73.4-74.8,164.7-87.6,253.4c-8.7,68.5-9.9,143.8,26.2,205.3c26.2,44.9,77.3,69.5,128.1,71.7
			c106.8,6.8,206.8-37.6,304.5-74.3c46.9-18.9,98.5-15.6,148.1-13.8c19.9-1.8,39.2,19.3,30.5,38.8c-13.4,30.5-35.4,56.2-53,84.2
			c-30.3,43.3-55.3,92-97.7,125.1c-63.8,48.3-141.5,78.8-222,81.4c-159,15.5-326.5,22.1-476.4-42.4
			c-135.4-56.6-238.4-184.9-260-330.6c-20.1-131.6-1.6-275,76.3-385.9c43.4-64,103.7-123.3,181-141.8c62.7-5.5,130.8,6.8,187.9-27
			c-93.6-9.2-189.9,8.3-281.9-15.5c-104.2-40.4-164.3-142.9-211.4-238.1c112.8-7.4,226.2,0.5,339.2-3.8
			C5038.3,2560.1,5092.8,2539.9,5149.9,2534.9z M5066,2571.2c-36.1,8.7-72.8,15.5-109.9,15.6c-93.6,0.3-187.2-0.1-280.8,0.2
			c37.5,72.8,85,146,158.1,187.2c36.8,22.3,80.9,21.6,122.5,23.3c87.2,0.8,174.4-0.3,261.7,0.5c-46.8,35.2-100.8,63.8-160.2,68.2
			c-45.1,7.8-93.7-7.5-136.2,13.2c-72.6,32-124.5,96.6-162.5,164.2c-55.6,103.3-64.7,226.5-45.8,340.8
			c24.7,139.9,128.9,260.1,261.2,309.8c157.9,61.6,331.3,46.1,496,29.7c90.2-16,180.2-63.9,227-145.5c26.9-46.1,65.4-86.1,84-136.6
			c-52.5-0.9-107.5-7.7-157.3,13.3c-88.4,33.8-178,71.2-273.9,75c-58.7,2.8-123.2-12.4-162.6-59c-48.4-56-55.2-134.9-50.5-205.7
			c7.4-77.7,22.4-155.9,53.5-227.9c49.7-112.5,151.9-194,263.8-239.6c103-42.2,219.3-41.7,326.4-16.6c36.2,7.3,67.2,29.3,88.6,59.1
			c-4.6-76.5-5.1-153.1-9-229.6c-55.5-13.3-112.4-18.5-168.5-28.4c-116.1-19.4-233.4-35.6-351.3-35
			C5248.3,2546.8,5155.6,2549.9,5066,2571.2z"/>
	</g>
	<g>
		<path fill="#B3130C" d="M5916.3,2613.7c-11.8-25.1,15.2-47.9,39.5-43.4c242.4-0.8,484.8,0.2,727.2-0.4
			c18.6,0.6,41.9-0.3,53.6,17.5c13.8,18.3,6.4,42.3,2.8,62.8c-22.2,93.8-42.9,188-65.1,281.9c-2.8,16.1-10.2,34.6,0.6,49.7
			c29.7,9.6,62,6.2,92.8,4.4c24.6-0.8,39.5-23.9,43.6-45.8c25.6-105.1,49.5-210.7,75.8-315.5c7.2-35.1,42.1-58.7,77.4-54.8
			c510,0.4,1019.9-0.4,1529.9,0.4c43.2-2.3,86.3,11.7,129.2,2.2c30.8-4.9,62-2.3,93.1-2.6c216.6,0,433.1,0,649.5,0
			c113.2,1.7,228.8-8.5,339,22.9c102.9,28.8,205,77.7,274.8,160.9c72.2,86.4,95.2,210,64.4,317.6c-25.9,88.7-94.5,158.1-172.2,204.5
			c-62.4,38.4-135.1,53.5-202.2,80.9c-19.6,10.6-1.9,30.8,5.7,43.5c66.2,93.1,131.1,187.1,197.4,280.2
			c10.3,16.5,26.6,33.4,22.6,54.7c-6.9,22-33.3,19.6-51.5,20.6c-136.7-0.6-273.6,0-410.3-0.3c-34.4,2.2-67-19.4-79.1-51.4
			c-41.8-100.8-78.1-204-122-304c-25.7,99.3-41.5,200.9-64.5,300.9c-6,31.1-35,56.3-67.3,54.2c-133.7,0.6-267.5,0.3-401.2,0.1
			c-23.8,2.7-47.3-12.7-50.7-37c-0.6-26.3,7.9-51.5,13.3-76.9c53.7-238.3,106.8-476.7,160.5-714.9c5.9-30.5,31.8-57.9,64.3-57.4
			c96.7-1.8,193.4,0,290.1-0.7c55,1,112.3-1.8,163.8,21c-0.4,92.8-33.2,180.9-46.2,272c65.2-1.7,136.4-7.9,188.7-51.5
			c54.3-43.2,74-119.4,60.5-185.8c-9.8-46.2-51.5-80-96.3-89.9c-40.9-8.6-83.1-9.1-124.7-9.3c-156.6,0.3-313.2-0.1-469.8,0.3
			c-36.9,0.3-74.3-7.2-106.3-26c-57.9-32.2-93.2-90.5-130.4-143c-20,68.1-26.3,139.4-43.9,208.1c-1.3,13.3-12.5,21.8-25.3,22.3
			c-23.2-17.3-26.4-61.4-60.9-61.3c-91.4-0.9-182.9-0.2-274.3-0.3c-24.4-2.1-48.4,13.7-53.6,38c-9.6,36.7-22.6,73.4-23.2,111.6
			c6.9,12.1,22,12.4,34.4,12.8c82.3,1.1,164.7-2.2,247,1.1c31.5,0.3,43.7,37.4,32.7,62.9c-24.2,79.8-58.9,157.1-105,226.7
			c-5.6,11.5-18.5,13.6-29.9,13c-74.2,0.6-148.4-1.2-222.5,0.2c-25.5-2.1-44.9,19.9-50,43c-9.1,33.7-21.1,67-24.7,101.8
			c4.2,19.7,26.2,16,41.5,17.3c128.2-0.1,256.4-0.4,384.6-0.1c28.1-4,52,24.3,44.1,51.5c-21.1,89.5-58,176.6-113.6,250.3
			c-279,1.4-558.2-0.2-837.2,0.8c-22.4-0.3-45.3,1.6-67.1-4.2c-23.2-10.5-29.3-38.9-22.4-61.4c54.4-242,108.6-484,162.8-726
			c9.7-35,10.4-75.6,35.6-103.8c83.8-8.9,173.8,7.5,251.3-34.4c-82.7-3.2-165.6,1.1-248.3-2.3c-56-2.1-114.1-14.6-159-49.8
			c-41.4-34.2-68.7-81.4-97.9-125.5c-83.1,350.4-160.8,702.3-242.7,1053c-6.7,29.9-33.8,55-65.5,53.8
			c-128.2,1.4-256.4-0.4-384.6,0.8c-21.2-1-48.4,2.4-61.8-17.9c-12.9-17.2-6.4-39.7-3-58.8c31.9-134.1,62-268.6,94-402.7
			c3.5-17.5,9.4-35.1,7.8-53.1c-5.5-20.3-29.9-15.7-45.6-17.3c-23.6,1-52.2-4.3-70.3,14.9c-11.5,10.9-14.2,27.4-18.3,42.1
			c-32.6,143.5-66.5,286.7-99.6,430.1c-5.4,32.9-32.6,63.4-67.9,62c-128.4,1.5-256.8-0.3-385.2,0.9c-21-1.2-48,2.5-61.4-17.6
			c-13.3-17.5-6.8-40.5-3.3-60c63.1-273.3,123.5-547.1,186.9-820.3c56.7-1.7,113.6-0.7,170.2-5.6c27.8-2.1,54.2-12.2,77.9-26.8
			c-88.8-2.1-177.6,1.3-266.3-1.5c-62.3-2.7-119.1-38.4-156-87.4C5967.7,2697.6,5937.1,2658.3,5916.3,2613.7z M5931.4,2596.5
			c19.2,41.8,46.5,79.2,73.9,116c33.9,48.5,86.4,86.8,147,90.7c91.4,2.8,182.9-1.3,274.3,1.8c24.4-0.8,25.6,31.5,5.2,39.5
			c-73,44-162.4,29.2-243.5,34.6c-62,271.4-123.2,543.1-185,814.7c-6.1,15.7-1.8,41.7,19.9,40.1c137.3,0.9,274.6,0.6,411.8,0.2
			c23.7,0.9,41.9-19.9,46.1-41.8c34.5-148.3,68.9-296.6,103.4-444.8c5.1-31,30.6-60.2,63.6-60.6c27.9-1,56.5-3,84.2,2.6
			c29.1,11.5,30.3,47,21.5,72.6c-33.6,142.2-66,284.7-99.5,427c-2.2,12.4-7.5,27.7,2.1,38.5c8.6,9.5,23,5.6,34.4,7.1
			c131.5-0.7,263.1,0.5,394.7-0.6c24.4,0.5,41.8-22.1,45.6-44.5c80.4-351.8,161.1-703.6,241.7-1055.4c6.2-16.4-0.7-45.6-22.8-42.2
			c-131.4-0.8-262.8-0.3-394.2-0.2c-24.1-1.9-44.6,18-48.8,40.8c-26,106.2-50.7,212.9-76.6,319.1c-6.1,29.1-31.1,54.8-61.6,56.2
			c-28.6,1.5-57.4,2.1-85.9-0.5c-26.4-3.3-41.1-33.5-33.5-57.7c23.6-108.1,49.8-215.7,73.4-323.8c5.9-15.3-3.9-36.2-22.1-33.8
			c-242.3-1.2-484.8,0.2-727.1-0.7C5959.2,2590.8,5945.1,2593.1,5931.4,2596.5z M7387.3,2591.4c28.5,55.6,60,111,104.4,155.7
			c45.9,44,112.5,54.9,173.7,56.5c97.1,0.9,194.2-0.1,291.4,0.4c-26.9,22.6-53.8,47.4-88.5,57.2c-68.6,21.4-141.7,16.6-212.6,17.6
			c-22.5,60.3-30.3,124.7-46.2,186.8c-46.8,209.2-93.8,418.4-140.7,627.6c-7.8,18.3,1.1,45,24.8,40.8c290.1,0.6,580.1,0.1,870.2,0.3
			c49.1-68.6,81.8-147.9,102.9-229.2c7.1-15.7-5.6-33.8-22.7-31.1c-134.3-1.2-268.5,0.4-402.8-0.6c-25.1,2.5-47.9-20.5-44.2-45.6
			c5.6-34.8,16.8-68.3,26-102.2c7.2-31.5,36.6-57.3,69.7-56.1c77.6-0.7,155.2,0.4,232.9-0.3c45.9-70.1,81.4-147,105-227.3
			c5-11.5,1.9-31.9-13.5-32c-88.2-3.8-176.7,1-265-2.1c-23.9-0.9-42-25.6-37.8-48.7c6-34.4,15.2-68.1,24-102
			c7.3-28.8,34-52.9,64.5-52.8c94.3-0.7,188.7-0.2,283.1-0.3c35.3-3.3,53.7,31.5,67.4,58.1c13.1-72.2,27.7-144.1,41.6-216.1
			c3.8-16.1-1.1-32-5-47.3c-45.6-9.1-92.2-6.8-138.4-7.3C8096.7,2591.4,7742,2591.2,7387.3,2591.4z M8615.6,2592.8
			c-8.8,19.7,12.1,36.2,20.1,52.7c45.5,69.2,100.8,149.7,191.3,157.3c179.7,2.7,359.6,0.1,539.5,1.3c47.3,2.4,98.4,4.2,139.1,31.6
			c33.2,20.9,56.3,56.5,62.1,95.4c10.6,74.2-15.6,156.7-78.1,201.4c-63.4,47-146.1,50.3-222,49.1c17.3-92.7,45.6-183.8,52.7-278.1
			c-59.7-18.9-123.2-12.8-184.9-14c-83,0.4-166.1-0.8-249,0.5c-26.6,0.9-42.4,27.6-45.2,51.5c-56.2,253.7-114.4,507-170,760.7
			c-6.2,17.9,9.2,35.6,27.9,32c134.4,0.1,268.8,0.3,403.1-0.1c23.9,1.8,43.2-19.1,46.7-41.5c19.7-93.8,38.2-187.8,58.1-281.5
			c3-16.6,10.3-31.9,21-44.9c18.5,15,30.3,36,38.8,57.9c36,89.7,70.5,179.8,106.3,269.4c7.8,21.8,28.1,40.2,52,40.3
			c128.3,1,256.7-0.2,385,0.5c23.1,0.3,46.4,0.6,69.2-4.5c-74.6-114-157-222.7-232.8-335.9c-14.7-20.2-4.9-51.9,19.2-59.2
			c73.6-27,152.4-45,217.2-91.2c66.6-44.2,123.7-108.3,143.6-187.2c25.4-103.9,0.6-221.8-73.2-301
			c-68.2-73.4-162.6-117.2-257.9-143.3c-101.8-28.4-208.2-19.4-312.5-20.8C9127.4,2592.4,8871.3,2589.3,8615.6,2592.8z"/>
	</g>
</g>
<g>
	<path fill="#E9E9E9" d="M3785.8,2572.3c205.5-39.1,418.7-30.5,622.6,13.7c32.5,9.4,70,14.1,95.3,38.1
		c7.6,72.2,3.7,145.4,10.7,217.8c-8.8,3.9-13-3.8-15.4-11.2c-47.5-62-126.1-89.1-200.1-103.4c-75.8-12.1-159.5-11.8-226.7,29.9
		c-59.3,34.7-84.3,119.6-52.1,180.2c39.8,62.5,105.6,101.9,167.3,140c79.7,44.3,162.5,93.7,210.7,173.9
		c44.4,71.7,38.2,162.3,16.4,240.4c-29,99.7-111.3,175-203.9,216.6c-143.3,65-304.4,74.5-459.6,68.6c-91.2-5-182.6-18.1-269.5-47.1
		c-21.2-7.9-43.5-15.4-60.4-30.9c-5-10.4-4-22.2-5-33.3c-2-69.7-4.6-139.4-7.2-209c20.5,27.3,46.2,51,77.5,65.5
		c86.3,41.9,184.6,54.4,279.6,48.3c53.4-4.8,109.5-16.6,152.3-50.9c42.9-34.4,55.3-95.2,43.4-147c-4.4-18.7-14.6-36.1-31.1-46.4
		c-74-51.2-147.2-103.8-219.5-157.4c-58.8-43.8-109.7-99.7-141.4-166.3c-19.4-40.6-26.2-85.6-32-129.9
		c68.5-3.4,137.9,2.5,205.8-10.2c49.2-8.7,93-34.9,132.7-64.2c-90.4-2-181,3.2-271.3-3.6c-56.6-2.3-102.2-41.3-138-81.5
		c-33.8-38.1-60.9-81.4-85.6-125.9c94.5-0.3,189.1,0.1,283.7-0.1C3705.7,2586.7,3746,2580.2,3785.8,2572.3z"/>
	<path fill="#E9E9E9" d="M5066,2571.2c89.7-21.3,182.4-24.4,274.3-23.6c117.9-0.6,235.2,15.6,351.3,35c56.1,9.8,113,15,168.5,28.4
		c3.8,76.5,4.4,153.1,9,229.6c-21.5-29.8-52.4-51.9-88.6-59.1c-107.1-25.1-223.4-25.6-326.4,16.6c-112,45.6-214.1,127.1-263.8,239.6
		c-31.1,72-46.1,150.2-53.5,227.9c-4.7,70.9,2.1,149.7,50.5,205.7c39.5,46.6,103.9,61.8,162.6,59c95.9-3.8,185.5-41.1,273.9-75
		c49.8-21,104.9-14.2,157.3-13.3c-18.6,50.5-57.1,90.5-84,136.6c-46.8,81.5-136.8,129.5-227,145.5c-164.8,16.4-338.1,32-496-29.7
		c-132.3-49.7-236.5-169.9-261.2-309.8c-18.9-114.3-9.7-237.4,45.8-340.8c37.9-67.6,89.9-132.2,162.5-164.2
		c42.6-20.8,91.1-5.5,136.2-13.2c59.5-4.4,113.4-33,160.2-68.2c-87.3-0.8-174.5,0.3-261.7-0.5c-41.5-1.7-85.7-1-122.5-23.3
		c-73.2-41.2-120.6-114.4-158.1-187.2c93.6-0.3,187.2,0.1,280.8-0.2C4993.1,2586.7,5029.9,2579.9,5066,2571.2z"/>
	<path fill="#E9E9E9" d="M723.7,2606.6c-8.8-17.6,17.9-14.9,27.5-15.4c245.4,0.6,490.8-0.5,736.2,0.6c17.9-2.2,28,18.1,22.2,33.4
		c-23.6,108-49.7,215.5-73.3,323.6c-7.8,24.1,6.4,54.4,32.8,58.3c28.5,2.7,57.3,2,85.9,0.7c32.2-1.3,57.8-29.2,63.2-59.9
		c25.3-104.9,50-209.9,75.5-314.8c4.1-22.8,24.4-43.3,48.6-41.5c131.4-0.2,262.8-0.5,394.3,0.2c22.2-3.7,29.2,25.8,22.9,42.3
		c-80.6,351.9-161.4,703.7-241.8,1055.6c-3.7,22.6-21.5,45.1-46.2,44.4c-137,0.5-274.2,0.8-411.2-0.2c-22.1,2.2-26.6-23.9-20.3-39.7
		c34.4-148.3,69-296.6,103.2-444.8c7.6-22.4-0.7-50.5-23.8-59.8c-27.6-5.7-56.3-3.6-84.4-2.7c-33.2,0.4-58.8,29.8-63.9,61
		c-34.4,148.4-68.7,296.8-103.3,445.2c-4.3,21.6-22.6,42-46.1,41.2c-131.1,0.8-262.2-0.2-393.3,0.4c-14.3-0.3-36,1.9-39.9-16.4
		c-2.1-20.1,5.7-39.7,9.4-59.1c59.3-259.9,117.9-520,177.1-779.9c62.5-2.1,125.9,0.9,187.5-11.1c26.3-9.3,64.4-15.8,72-47.2
		c-5-17.4-24.9-16.6-39.2-16.8c-79.4-0.1-158.9,0.3-238.3,0.1c-53.7,0.7-106.8-23.5-141.8-64C780.5,2698.7,747.4,2655,723.7,2606.6z
		"/>
	<path fill="#E9E9E9" d="M2174.2,2591.5c346.2-0.4,692.5,0,1038.8-0.2c49.5-0.1,99.1-0.4,148.5,3.4c7.5,12.8,15,25.6,22.6,38.5
		c-14.4,76.2-29.9,152.4-44,228.7c-13.1-23.5-27.3-55.5-58.2-57.4c-94.4-1.5-188.7-0.1-283.1-0.6c-33.2-3.2-65.2,20.1-73.4,52
		c-9,33.8-18.2,67.7-24.3,102.1c-4.8,23.6,13.8,49.1,38.3,49.7c85.6,2.4,171.4-0.8,256.9,1.2c19.1-3.8,28.3,18.1,20.9,33.2
		c-23.8,80.2-58.6,157.3-105,227.1c-77.4,0.4-154.9-0.4-232.4,0.2c-33.3-1.4-63,24.6-70.2,56.4c-9.2,34-20.4,67.8-26.1,102.6
		c-3.1,25,19.9,47.3,44.7,44.8c134.1,0.9,268.2-0.5,402.3,0.5c17.3-2.6,30.5,15.2,23.1,31.3c-20.9,81.4-54,160.6-103.1,229.1
		c-290.2-0.3-580.6,0.3-870.8-0.3c-18.6,3.3-31.4-15.9-25.4-32.7c43.5-199.3,89.1-398.2,133.4-597.4c19-74.8,29.2-152,54.7-225
		c72.9-1.2,148.4,4.4,218.5-19.7c32-10.3,57-33.8,82.1-55.1c-96.9-0.5-193.9,0.4-290.8-0.4c-59.5-1.6-123.6-11.7-169.6-52.6
		C2235.9,2706,2203.8,2648.6,2174.2,2591.5z"/>
	<path fill="#E9E9E9" d="M5931.4,2596.5c13.8-3.4,27.8-5.7,42-5.4c242.4,0.9,484.8-0.5,727.1,0.7c18.2-2.3,28,18.5,22.1,33.8
		c-23.6,108.1-49.8,215.7-73.4,323.8c-7.6,24.2,7.1,54.4,33.5,57.7c28.5,2.6,57.3,2,85.9,0.5c30.5-1.5,55.6-27.2,61.6-56.2
		c25.9-106.2,50.6-212.9,76.6-319.1c4.2-22.7,24.7-42.6,48.8-40.8c131.4-0.2,262.8-0.6,394.2,0.2c22.1-3.4,29,25.8,22.8,42.2
		c-80.6,351.8-161.3,703.6-241.7,1055.4c-3.8,22.4-21.2,45-45.6,44.5c-131.6,1.1-263.1-0.1-394.7,0.6c-11.5-1.5-25.8,2.4-34.4-7.1
		c-9.7-10.9-4.4-26.2-2.1-38.5c33.5-142.3,65.9-284.8,99.5-427c8.9-25.6,7.6-61-21.5-72.6c-27.7-5.6-56.2-3.6-84.2-2.6
		c-33,0.4-58.5,29.6-63.6,60.6c-34.5,148.3-68.9,296.6-103.4,444.8c-4.2,21.9-22.4,42.7-46.1,41.8c-137.2,0.4-274.5,0.8-411.8-0.2
		c-21.7,1.6-26-24.4-19.9-40.1c61.8-271.5,123.1-543.2,185-814.7c81.1-5.4,170.5,9.4,243.5-34.6c20.4-7.9,19.1-40.3-5.2-39.5
		c-91.4-3.1-182.9,1-274.3-1.8c-60.6-3.8-113.1-42.1-147-90.7C5977.9,2675.7,5950.6,2638.3,5931.4,2596.5z"/>
	<path fill="#E9E9E9" d="M7387.3,2591.4c354.7-0.3,709.4,0,1064.1-0.1c46.2,0.5,92.7-1.7,138.4,7.3c3.9,15.4,8.8,31.3,5,47.3
		c-13.9,72-28.5,143.8-41.6,216.1c-13.8-26.6-32.1-61.4-67.4-58.1c-94.4,0.1-188.8-0.4-283.1,0.3c-30.5-0.1-57.3,24-64.5,52.8
		c-8.8,33.8-18,67.6-24,102c-4.2,23.1,13.8,47.9,37.8,48.7c88.3,3.1,176.8-1.7,265,2.1c15.4,0.2,18.5,20.5,13.5,32
		c-23.6,80.3-59.1,157.3-105,227.3c-77.7,0.8-155.3-0.3-232.9,0.3c-33.2-1.3-62.6,24.5-69.7,56.1c-9.2,33.9-20.4,67.4-26,102.2
		c-3.8,25,19.1,48,44.2,45.6c134.3,1,268.5-0.6,402.8,0.6c17.2-2.7,29.8,15.4,22.7,31.1c-21.1,81.4-53.8,160.6-102.9,229.2
		c-290.1-0.2-580.1,0.3-870.2-0.3c-23.7,4.2-32.6-22.5-24.8-40.8c46.8-209.2,93.8-418.4,140.7-627.6
		c15.9-62.1,23.8-126.6,46.2-186.8c70.9-1,143.9,3.8,212.6-17.6c34.6-9.7,61.5-34.5,88.5-57.2c-97.2-0.5-194.3,0.4-291.4-0.4
		c-61.2-1.6-127.8-12.5-173.7-56.5C7447.3,2702.5,7415.7,2647.1,7387.3,2591.4z"/>
	<path fill="#E9E9E9" d="M8615.6,2592.8c255.7-3.5,511.8-0.4,767.7-1.5c104.3,1.4,210.7-7.6,312.5,20.8
		c95.4,26.2,189.7,69.9,257.9,143.3c73.8,79.2,98.5,197.1,73.2,301c-19.9,78.9-77,143-143.6,187.2c-64.8,46.2-143.6,64.2-217.2,91.2
		c-24.1,7.4-33.9,39.1-19.2,59.2c75.8,113.2,158.2,221.9,232.8,335.9c-22.8,5.1-46.2,4.9-69.2,4.5c-128.3-0.7-256.7,0.5-385-0.5
		c-23.9-0.2-44.3-18.5-52-40.3c-35.8-89.6-70.3-179.7-106.3-269.4c-8.5-22-20.3-42.9-38.8-57.9c-10.8,13-18,28.3-21,44.9
		c-19.9,93.8-38.5,187.8-58.1,281.5c-3.5,22.4-22.8,43.2-46.7,41.5c-134.4,0.3-268.8,0.2-403.1,0.1c-18.6,3.7-34-14-27.9-32
		c55.6-253.7,113.8-507.1,170-760.7c2.8-23.9,18.6-50.6,45.2-51.5c82.9-1.3,166-0.1,249-0.5c61.6,1.2,125.1-4.9,184.9,14
		c-7.2,94.4-35.4,185.4-52.7,278.1c75.8,1.2,158.5-2.1,222-49.1c62.5-44.7,88.7-127.2,78.1-201.4c-5.8-38.9-29-74.4-62.1-95.4
		c-40.8-27.4-91.8-29.2-139.1-31.6c-179.8-1.2-359.7,1.5-539.5-1.3c-90.5-7.6-145.8-88.1-191.3-157.3
		C8627.6,2629,8606.8,2612.5,8615.6,2592.8z"/>
</g>
</svg>
